<svg width="26" height="26" viewBox="0 0 26 26" fill="none" xmlns="http://www.w3.org/2000/svg">
<path d="M25.1543 13C25.1543 15.2049 25.1543 17.4523 25.1543 19.6572C25.1543 21.523 24.3486 23.0071 22.8221 24.0671C21.9316 24.6608 20.9564 25 19.8963 25C15.9952 25 12.1366 25 8.23553 25C7.68429 25 7.17546 25 6.62422 25C4.58889 24.9152 3.01998 23.9823 2.00231 22.2014C1.57829 21.4382 1.36627 20.5901 1.36627 19.6996C1.36627 17.6219 1.36627 15.5442 1.36627 13.424C1.36627 11.0919 1.36627 8.75972 1.36627 6.42756C1.36627 6.00353 1.40867 5.5795 1.49348 5.19788C2.00231 3.16254 3.2744 1.84806 5.22493 1.21201C5.73376 1.0424 6.285 1 6.83624 1C8.65956 1 10.4829 1 12.3062 1C13.8751 1 15.4864 1 17.0553 1C17.9458 1 18.8362 1 19.6843 1C20.5748 1 21.4228 1.16961 22.2285 1.59364C23.7126 2.39929 24.6454 3.62897 24.9846 5.28269C25.0694 5.66431 25.0695 6.04594 25.0695 6.42756C25.0695 8.25088 25.0695 10.1166 25.0695 11.9399C25.1543 12.3216 25.1543 12.6608 25.1543 13Z" stroke="#2AD7DE" stroke-width="0.7593" stroke-miterlimit="10"/>
<path d="M9.93164 17.1554C9.67723 17.113 9.42281 17.0706 9.21079 17.0282C8.65956 16.8586 8.15072 16.6042 7.7267 16.2226C7.42988 15.9681 7.17546 15.6289 6.96344 15.2897C6.83624 15.0777 6.75143 14.9081 6.66662 14.6537C6.62422 14.5265 6.66662 14.484 6.79383 14.484C7.00585 14.5265 7.17546 14.5265 7.38747 14.5265C7.59949 14.5265 7.7691 14.484 7.98111 14.4416C8.02352 14.4416 8.02352 14.4416 8.02352 14.3992C8.02352 14.3568 7.98111 14.3568 7.98111 14.3568C7.8115 14.3144 7.64189 14.2296 7.51468 14.1872C7.26026 14.06 7.04825 13.9328 6.83624 13.8056C6.66663 13.6784 6.49701 13.5512 6.3274 13.3816C5.90337 12.9151 5.60655 12.3639 5.43694 11.7279C5.35214 11.4734 5.35214 11.1766 5.30973 10.9222C5.30973 10.7526 5.35214 10.7526 5.47935 10.795C5.77617 10.9222 6.07299 11.0494 6.36981 11.0918C6.49701 11.1342 6.66663 11.1342 6.83624 11.1342C6.79383 11.0494 6.70903 11.007 6.66662 10.9646C6.07299 10.4558 5.69136 9.86214 5.47935 9.09889C5.35214 8.67486 5.30973 8.20843 5.35214 7.7844C5.39454 7.36037 5.47935 6.93635 5.69136 6.55472C5.73376 6.46992 5.77617 6.38511 5.81857 6.3003C5.86097 6.2579 5.90337 6.2579 5.94578 6.3003C6.07299 6.42751 6.15779 6.55472 6.285 6.68193C6.49701 6.89394 6.70903 7.10596 6.92104 7.31797C7.21786 7.61479 7.55708 7.86921 7.89631 8.12363C8.40514 8.50525 8.95638 8.80207 9.50761 9.09889C9.97405 9.3109 10.4405 9.52292 10.9493 9.65013C11.4157 9.77734 11.8398 9.90454 12.3062 9.98935C12.6454 10.0318 12.9846 10.1166 13.3239 10.1166C13.4511 10.1166 13.4511 10.1166 13.4511 9.98935C13.3663 9.35331 13.3663 8.71727 13.5783 8.08122C13.7479 7.61479 14.0023 7.23317 14.2991 6.85154C14.6384 6.42751 15.1048 6.13069 15.6136 5.91868C15.9528 5.74907 16.3345 5.66426 16.7161 5.62186C17.0977 5.57946 17.4793 5.62186 17.861 5.70667C18.2002 5.79147 18.5394 5.91868 18.8786 6.08829C19.1755 6.2579 19.4299 6.46992 19.6843 6.72433C19.8115 6.80914 19.8963 6.76674 19.9811 6.76674C20.4051 6.68193 20.7868 6.55472 21.1684 6.38511C21.4228 6.3003 21.6348 6.1731 21.8892 6.04589C21.9316 6.04589 21.9316 6.00349 21.974 6.00349C22.0164 6.00349 22.0164 6.00349 22.0589 6.00349C22.0589 6.00349 22.0589 6.04589 22.0589 6.08829C22.0164 6.2579 21.9316 6.42751 21.8468 6.55472C21.7196 6.76674 21.5924 6.97875 21.4228 7.19076C21.2532 7.40278 21.0836 7.61479 20.8716 7.7844C20.7868 7.82681 20.7444 7.91161 20.6596 7.95402C20.7868 7.95402 20.914 7.95402 21.0412 7.91161C21.5076 7.82681 21.974 7.6572 22.4405 7.48758C22.4829 7.48758 22.5253 7.44518 22.5253 7.48758C22.5677 7.52999 22.5253 7.57239 22.5253 7.57239C22.4405 7.742 22.3133 7.91161 22.1861 8.03882C21.974 8.29324 21.762 8.50525 21.55 8.71727C21.338 8.92928 21.126 9.09889 20.8716 9.2685C20.8292 9.3109 20.7868 9.35331 20.7868 9.43811C20.7868 9.65013 20.7868 9.86214 20.7868 10.0318C20.7868 10.4558 20.7444 10.8374 20.702 11.2614C20.6596 11.6855 20.5748 12.0671 20.4475 12.4911C20.2779 13.1272 20.0659 13.7632 19.7691 14.3568C19.5147 14.9505 19.1755 15.5017 18.7938 16.0106C18.5818 16.3074 18.3274 16.6042 18.073 16.901C17.861 17.113 17.6914 17.325 17.4369 17.5371C17.0553 17.9187 16.6313 18.2579 16.1649 18.5547C15.7832 18.8091 15.4016 19.0636 14.9776 19.2756C14.596 19.4452 14.2143 19.6148 13.8327 19.742C13.5359 19.8268 13.2391 19.954 12.9422 19.9964C12.5606 20.0812 12.179 20.166 11.7974 20.2084C11.4157 20.2508 11.0765 20.2932 10.6949 20.2932C10.4829 20.2932 10.3133 20.2932 10.1013 20.2932C10.0589 20.2932 9.97405 20.2932 9.93164 20.2932C9.63482 20.2932 9.338 20.2508 9.08359 20.2084C8.91397 20.2084 8.74436 20.166 8.57475 20.1236C8.32034 20.0812 8.02352 20.0388 7.7691 19.954C7.42988 19.8692 7.04825 19.742 6.70903 19.6148C6.36981 19.4876 6.07299 19.3604 5.73376 19.1908C5.47935 19.0636 5.22493 18.9363 4.97051 18.8091C4.88571 18.7667 4.8433 18.7243 4.7585 18.6819C4.7585 18.6395 4.71609 18.6395 4.71609 18.5971C4.7585 18.6819 4.8009 18.6819 4.8009 18.6819C4.8433 18.6819 4.88571 18.6819 4.92811 18.6819C5.43694 18.7243 5.90337 18.7243 6.36981 18.6395C6.66662 18.5971 6.96344 18.5547 7.26026 18.4699C7.64189 18.3851 8.02352 18.2579 8.36274 18.0883C8.70196 17.9611 8.99878 17.7915 9.2956 17.6219C9.46521 17.4947 9.67723 17.3674 9.84684 17.2402C9.88924 17.2402 9.93164 17.1978 9.93164 17.1554Z" fill="#2AD7DE"/>
</svg>
