<svg width="687" height="197" viewBox="0 0 687 197" fill="none" xmlns="http://www.w3.org/2000/svg">
<path d="M172.166 116.128C174.33 116.128 176.212 115.375 177.717 113.775C179.223 112.27 180.07 110.388 180.07 108.13C180.07 105.965 179.223 104.083 177.717 102.578C176.212 101.072 174.33 100.225 172.166 100.225C169.907 100.225 168.025 101.072 166.52 102.578C164.92 104.083 164.168 105.965 164.168 108.13C164.168 110.388 164.92 112.27 166.52 113.775C168.025 115.375 169.907 116.128 172.166 116.128ZM165.955 121.397V169.386H178.282V121.397H165.955ZM191.116 121.397V169.386H203.442V144.921C203.442 141.063 204.383 137.864 206.454 135.229C208.524 132.689 211.158 131.371 214.546 131.371C217.369 131.371 219.533 132.218 221.133 133.912C222.638 135.606 223.485 138.052 223.485 141.063V169.386H235.812V139.558C235.812 133.536 234.306 128.737 231.295 125.161C228.284 121.679 223.861 119.892 218.122 119.892C215.016 119.892 212.193 120.644 209.559 121.962C206.924 123.279 204.854 125.161 203.442 127.419H202.69V121.397H191.116ZM247.445 121.397V169.386H259.772V144.921C259.772 141.063 260.713 137.864 262.783 135.229C264.853 132.689 267.488 131.371 270.875 131.371C273.698 131.371 275.862 132.218 277.462 133.912C278.967 135.606 279.814 138.052 279.814 141.063V169.386H292.141V139.558C292.141 133.536 290.635 128.737 287.624 125.161C284.613 121.679 280.191 119.892 274.451 119.892C271.345 119.892 268.523 120.644 265.888 121.962C263.253 123.279 261.183 125.161 259.772 127.419H259.019V121.397H247.445ZM326.734 170.892C331.627 170.892 335.955 169.857 339.907 167.598C343.765 165.34 346.776 162.329 348.94 158.471C351.105 154.613 352.234 150.285 352.234 145.392C352.234 140.687 351.105 136.358 348.94 132.406C346.776 128.548 343.765 125.537 339.907 123.279C335.955 121.021 331.627 119.892 326.734 119.892C321.747 119.892 317.324 121.021 313.466 123.279C309.514 125.537 306.503 128.548 304.339 132.406C302.175 136.358 301.139 140.687 301.139 145.392C301.139 150.285 302.175 154.613 304.339 158.471C306.503 162.329 309.514 165.34 313.466 167.598C317.324 169.857 321.747 170.892 326.734 170.892ZM326.734 159.506C324.287 159.506 322.123 158.942 320.147 157.812C318.077 156.683 316.477 155.084 315.254 152.919C314.031 150.755 313.466 148.215 313.466 145.392C313.466 142.569 314.031 140.122 315.254 137.958C316.477 135.888 318.077 134.194 320.147 133.065C322.123 131.936 324.287 131.371 326.734 131.371C329.086 131.371 331.25 131.936 333.32 133.065C335.296 134.194 336.896 135.888 338.119 137.958C339.249 140.122 339.907 142.569 339.907 145.392C339.907 148.309 339.249 150.849 338.119 152.919C336.896 155.084 335.296 156.683 333.32 157.812C331.25 158.942 329.086 159.506 326.734 159.506ZM354.924 121.397L375.248 169.386H387.481L407.994 121.397H394.162L381.835 152.637H381.082L368.944 121.397H354.924ZM428.447 170.892C431.458 170.892 434.187 170.327 436.539 169.104C438.891 167.975 440.773 166.375 442.279 164.493H443.032V169.386H455.17V139.84C455.17 133.347 453.194 128.36 449.43 124.973C445.572 121.585 440.021 119.892 432.681 119.892C428.541 119.892 424.683 120.738 421.201 122.338C417.626 124.032 414.709 126.29 412.45 129.301L420.354 135.512C421.672 133.818 423.46 132.5 425.53 131.465C427.6 130.43 429.858 129.866 432.116 129.866C435.41 129.866 438.045 130.713 440.021 132.312C441.997 134.006 443.032 136.076 443.032 138.711V140.781C439.456 139.369 435.222 138.617 430.329 138.617C426.753 138.617 423.46 139.275 420.543 140.593C417.532 141.91 415.273 143.792 413.579 146.239C411.886 148.685 411.039 151.508 411.039 154.707C411.039 159.6 412.639 163.458 415.932 166.469C419.131 169.48 423.365 170.892 428.447 170.892ZM431.364 161.294C428.729 161.294 426.753 160.729 425.436 159.506C424.024 158.283 423.365 156.683 423.365 154.707C423.365 150.002 426.565 147.556 432.963 147.556C436.445 147.556 439.832 148.309 443.032 149.814C443.032 152.919 441.902 155.648 439.832 157.906C437.762 160.165 434.939 161.294 431.364 161.294ZM487.402 170.139C490.414 170.139 493.236 169.669 495.965 168.539V156.495C494.648 157.248 493.613 157.812 492.86 158.095C492.107 158.471 491.072 158.565 489.943 158.565C487.779 158.565 486.273 158.095 485.426 157.06C484.297 156.025 483.827 154.237 483.827 151.79V131.936H495.589V121.397H483.827V107.847H471.5V121.397H463.126V131.936H471.5V154.049C471.5 159.318 472.912 163.27 475.923 166.093C477.146 167.41 478.746 168.351 480.816 169.104C482.792 169.857 484.956 170.139 487.402 170.139ZM513.265 116.128C515.429 116.128 517.311 115.375 518.817 113.775C520.322 112.27 521.169 110.388 521.169 108.13C521.169 105.965 520.322 104.083 518.817 102.578C517.311 101.072 515.429 100.225 513.265 100.225C511.007 100.225 509.125 101.072 507.619 102.578C506.02 104.083 505.267 105.965 505.267 108.13C505.267 110.388 506.02 112.27 507.619 113.775C509.125 115.375 511.007 116.128 513.265 116.128ZM507.055 121.397V169.386H519.381V121.397H507.055ZM554.715 170.892C559.608 170.892 563.937 169.857 567.889 167.598C571.747 165.34 574.758 162.329 576.922 158.471C579.086 154.613 580.215 150.285 580.215 145.392C580.215 140.687 579.086 136.358 576.922 132.406C574.758 128.548 571.747 125.537 567.889 123.279C563.937 121.021 559.608 119.892 554.715 119.892C549.728 119.892 545.306 121.021 541.448 123.279C537.496 125.537 534.484 128.548 532.32 132.406C530.156 136.358 529.121 140.687 529.121 145.392C529.121 150.285 530.156 154.613 532.32 158.471C534.484 162.329 537.496 165.34 541.448 167.598C545.306 169.857 549.728 170.892 554.715 170.892ZM554.715 159.506C552.269 159.506 550.104 158.942 548.128 157.812C546.058 156.683 544.459 155.084 543.235 152.919C542.012 150.755 541.448 148.215 541.448 145.392C541.448 142.569 542.012 140.122 543.235 137.958C544.459 135.888 546.058 134.194 548.128 133.065C550.104 131.936 552.269 131.371 554.715 131.371C557.068 131.371 559.232 131.936 561.302 133.065C563.278 134.194 564.878 135.888 566.101 137.958C567.23 140.122 567.889 142.569 567.889 145.392C567.889 148.309 567.23 150.849 566.101 152.919C564.878 155.084 563.278 156.683 561.302 157.812C559.232 158.942 557.068 159.506 554.715 159.506ZM588.728 121.397V169.386H601.055V144.921C601.055 141.063 601.996 137.864 604.066 135.229C606.136 132.689 608.771 131.371 612.158 131.371C614.981 131.371 617.145 132.218 618.745 133.912C620.25 135.606 621.097 138.052 621.097 141.063V169.386H633.424V139.558C633.424 133.536 631.918 128.737 628.907 125.161C625.896 121.679 621.474 119.892 615.734 119.892C612.629 119.892 609.806 120.644 607.171 121.962C604.536 123.279 602.466 125.161 601.055 127.419H600.302V121.397H588.728Z" fill="#FA336C"/>
<path d="M663.312 170.892C667.076 170.892 670.463 170.233 673.568 168.916C676.674 167.598 679.12 165.811 680.908 163.458C682.696 161.106 683.637 158.377 683.637 155.272C683.637 151.696 682.414 148.685 679.967 146.239C677.52 143.792 673.945 142.004 669.24 140.781L662.183 139.087C657.854 137.958 655.784 136.264 655.784 134.006C655.784 132.877 656.349 131.842 657.666 131.089C658.889 130.336 660.583 129.866 662.747 129.866C666.888 129.866 669.899 131.559 671.781 134.947L682.319 130.336C678.932 123.373 672.345 119.892 662.465 119.892C658.984 119.892 655.784 120.55 652.961 121.679C650.138 122.903 647.88 124.596 646.186 126.761C644.493 129.019 643.74 131.465 643.74 134.194C643.74 137.958 644.963 141.063 647.598 143.51C650.138 145.956 653.338 147.65 657.29 148.591L662.936 149.814C665.664 150.473 667.734 151.226 669.146 151.978C670.463 152.731 671.216 153.954 671.216 155.46C671.216 157.154 670.463 158.283 668.958 159.036C667.452 159.788 665.57 160.071 663.312 160.071C660.865 160.071 658.701 159.506 656.819 158.377C654.937 157.248 653.526 155.46 652.585 153.202L641.576 158.001C642.987 161.859 645.528 164.964 649.103 167.316C652.679 169.763 657.478 170.892 663.312 170.892Z" fill="#FA336C" fill-opacity="0.7"/>
<path d="M166.058 12.1476V77.6387H203.132V71.8988H172.174V47.716H200.121V42.0702H172.174V17.8875H203.132V12.1476H166.058ZM213.528 31.5315V77.6387H219.738V51.6681C219.738 48.8452 220.303 46.2105 221.432 43.6699C222.561 41.2234 224.067 39.1533 226.137 37.6477C228.207 36.1422 230.465 35.3894 232.912 35.3894C236.488 35.3894 239.311 36.5186 241.287 38.6828C243.168 40.9411 244.204 44.4227 244.204 49.1275V77.6387H250.32V51.4799C250.32 48.657 250.884 46.0223 252.014 43.5758C253.143 41.1293 254.648 39.1533 256.718 37.6477C258.788 36.1422 261.047 35.3894 263.587 35.3894C267.163 35.3894 269.986 36.5186 271.962 38.6828C273.844 40.9411 274.879 44.3286 274.879 49.0334V77.6387H280.995V47.8101C280.995 42.3525 279.678 38.0241 277.137 34.8248C274.503 31.6256 270.645 30.0259 265.563 30.0259C262.082 30.0259 259.071 30.8728 256.436 32.4724C253.801 34.0721 251.449 36.7068 249.379 40.2824C247.873 36.7068 245.991 34.0721 243.639 32.4724C241.192 30.8728 238.37 30.0259 235.076 30.0259C232.253 30.0259 229.525 30.8728 226.984 32.3783C224.349 33.8839 222.373 35.954 220.962 38.5887H219.362V31.5315H213.528ZM292.178 31.5315V97.9635H298.294V78.1092L297.918 70.5814H299.612C301.023 73.2161 303.093 75.2863 305.916 76.7918C308.645 78.3914 311.75 79.1442 315.137 79.1442C319.184 79.1442 322.853 78.1092 326.147 76.039C329.346 73.9689 331.981 71.0519 333.863 67.2881C335.745 63.6183 336.686 59.384 336.686 54.5851C336.686 49.8802 335.745 45.74 333.863 41.9762C331.981 38.2123 329.346 35.2953 326.147 33.2252C322.853 31.1551 319.184 30.0259 315.137 30.0259C311.75 30.0259 308.645 30.8728 305.916 32.3783C303.093 33.978 301.023 36.0481 299.612 38.6828H298.012V31.5315H292.178ZM322.289 71.4283C319.748 73.028 317.113 73.7807 314.291 73.7807C311.374 73.7807 308.645 73.028 306.198 71.4283C303.658 69.8287 301.682 67.5704 300.176 64.6534C298.671 61.8305 298.012 58.443 298.012 54.5851C298.012 50.8212 298.671 47.4337 300.176 44.5168C301.682 41.6939 303.658 39.4356 306.198 37.8359C308.645 36.2363 311.374 35.3894 314.291 35.3894C317.113 35.3894 319.748 36.2363 322.289 37.8359C324.829 39.4356 326.805 41.6939 328.311 44.6109C329.817 47.5278 330.569 50.8212 330.569 54.5851C330.569 58.3489 329.817 61.7364 328.311 64.6534C326.805 67.5704 324.829 69.8287 322.289 71.4283ZM354.692 75.9449C358.267 78.1092 362.219 79.1442 366.736 79.1442C371.159 79.1442 375.111 78.1092 378.686 75.9449C382.262 73.7807 384.991 70.7696 386.967 67.0058C388.943 63.2419 389.978 59.1017 389.978 54.5851C389.978 50.0684 388.943 45.9282 386.967 42.1643C384.991 38.4005 382.262 35.4835 378.686 33.3193C375.111 31.1551 371.159 30.0259 366.736 30.0259C362.219 30.0259 358.267 31.1551 354.692 33.3193C351.116 35.4835 348.387 38.4005 346.411 42.1643C344.435 45.9282 343.494 50.0684 343.494 54.5851C343.494 59.1017 344.435 63.2419 346.411 67.0058C348.387 70.7696 351.116 73.7807 354.692 75.9449ZM375.111 71.4283C372.476 73.028 369.747 73.7807 366.736 73.7807C363.725 73.7807 360.902 73.028 358.267 71.4283C355.633 69.9228 353.469 67.6645 351.963 64.7475C350.363 61.9246 349.611 58.5371 349.611 54.5851C349.611 50.7271 350.363 47.3396 351.963 44.4227C353.469 41.5998 355.633 39.3415 358.267 37.7418C360.902 36.2363 363.725 35.3894 366.736 35.3894C369.747 35.3894 372.476 36.2363 375.111 37.7418C377.745 39.3415 379.815 41.5998 381.415 44.4227C382.921 47.3396 383.768 50.7271 383.768 54.5851C383.768 58.5371 382.921 61.9246 381.415 64.7475C379.815 67.6645 377.745 69.9228 375.111 71.4283ZM393.143 31.5315L407.54 77.6387H414.221L426.83 37.4595L439.533 77.6387H446.308L460.799 31.5315H454.588L443.579 69.3582H442.356L430.5 31.5315H423.631L411.774 69.4523H410.551L399.448 31.5315H393.143ZM474.784 76.039C478.172 78.1092 482.124 79.1442 486.452 79.1442C491.157 79.1442 495.109 78.1092 498.497 75.8508C501.884 73.6866 504.331 71.0519 505.93 67.8527L500.849 65.312C497.838 70.9578 493.133 73.7807 486.735 73.7807C484.006 73.7807 481.371 73.122 478.925 71.8047C476.478 70.4873 474.408 68.5113 472.808 65.8766C471.115 63.2419 470.174 59.6663 469.986 55.1496H507.248C507.248 54.8674 507.342 54.3969 507.342 53.6441C507.342 49.0334 506.401 44.9872 504.707 41.4116C503.013 37.8359 500.473 35.1071 497.273 33.037C494.074 31.061 490.216 30.0259 485.794 30.0259C481.465 30.0259 477.607 31.1551 474.314 33.4134C470.926 35.6717 468.386 38.5887 466.598 42.3525C464.81 46.1164 463.963 50.2566 463.963 54.6792C463.963 59.384 464.904 63.6183 466.786 67.2881C468.668 71.0519 471.397 73.9689 474.784 76.039ZM500.849 50.4448H470.362C471.303 45.5518 473.185 41.8821 475.914 39.2474C478.548 36.7068 481.842 35.3894 485.794 35.3894C489.087 35.3894 491.816 36.1422 494.074 37.6477C496.333 39.1533 497.932 40.9411 498.967 43.0112C500.002 45.1754 500.661 47.6219 500.849 50.4448ZM516.676 31.5315V77.6387H522.887V51.7622C522.887 49.1275 523.451 46.5869 524.675 44.1404C525.804 41.788 527.403 39.906 529.474 38.4946C531.544 37.0831 533.708 36.3304 536.154 36.3304C538.695 36.3304 540.671 36.7068 541.988 37.3654V30.7787C540.859 30.4023 539.26 30.12 537.284 30.12C534.461 30.12 531.826 30.9669 529.379 32.5665C526.933 34.2603 525.145 36.4245 524.204 39.2474H522.51V31.5315H516.676ZM550.042 19.393C550.983 20.334 552.112 20.8045 553.429 20.8045C554.746 20.8045 555.876 20.334 556.817 19.393C557.758 18.4521 558.228 17.3229 558.228 16.0056C558.228 14.6882 557.758 13.5591 556.817 12.6181C555.876 11.6771 554.746 11.2066 553.429 11.2066C552.112 11.2066 550.983 11.6771 550.042 12.6181C549.101 13.5591 548.63 14.6882 548.63 16.0056C548.63 17.3229 549.101 18.4521 550.042 19.393ZM550.418 31.5315V77.6387H556.534V31.5315H550.418ZM569.054 31.5315V77.6387H575.265V51.574C575.265 48.9393 575.829 46.3046 576.958 43.764C578.088 41.3175 579.781 39.2474 581.851 37.7418C583.922 36.2363 586.368 35.3894 589.097 35.3894C592.861 35.3894 595.872 36.5186 598.13 38.6828C600.388 40.9411 601.518 44.3286 601.518 49.0334V77.6387H607.728V47.8101C607.728 42.3525 606.316 38.0241 603.494 34.8248C600.671 31.6256 596.625 30.0259 591.167 30.0259C588.156 30.0259 585.239 30.8728 582.604 32.3783C579.875 33.978 577.805 36.0481 576.488 38.5887H574.888V31.5315H569.054ZM625.26 95.7052C628.647 98.2458 633.07 99.469 638.433 99.469C645.02 99.469 650.29 97.5871 654.242 93.7291C658.194 89.8712 660.264 84.2254 660.264 76.6977V31.5315H654.524V38.4005H652.83C651.231 35.7658 649.066 33.7898 646.432 32.2842C643.703 30.7787 640.692 30.0259 637.304 30.0259C633.352 30.0259 629.871 31.061 626.671 33.1311C623.472 35.2012 620.932 38.0241 619.05 41.6939C617.168 45.4577 616.227 49.598 616.227 54.3028C616.227 59.1017 617.168 63.336 619.05 67.0058C620.932 70.6755 623.472 73.4984 626.671 75.5686C629.871 77.6387 633.352 78.5796 637.304 78.5796C640.692 78.5796 643.703 77.921 646.432 76.4154C649.066 74.9099 651.231 72.9339 652.924 70.2992H654.524V76.6036C654.524 82.1553 653.018 86.4837 650.195 89.4948C647.373 92.6 643.421 94.1055 638.433 94.1055C634.952 94.1055 631.941 93.2587 629.4 91.3767C626.86 89.4948 625.166 87.4247 624.319 84.9782L618.579 87.5188C619.52 90.5299 621.778 93.2587 625.26 95.7052ZM646.526 70.9578C644.079 72.4634 641.35 73.2161 638.433 73.2161C635.422 73.2161 632.694 72.4634 630.247 70.9578C627.801 69.4523 625.825 67.2881 624.413 64.3711C622.908 61.5482 622.249 58.1607 622.249 54.3028C622.249 50.5389 622.908 47.1515 624.413 44.3286C625.825 41.5057 627.801 39.2474 630.247 37.7418C632.694 36.2363 635.422 35.3894 638.433 35.3894C641.35 35.3894 644.079 36.1422 646.526 37.6477C648.972 39.1533 650.854 41.4116 652.36 44.2345C653.771 47.0574 654.524 50.4448 654.524 54.3028C654.524 58.1607 653.771 61.5482 652.36 64.3711C650.854 67.194 648.972 69.4523 646.526 70.9578Z" fill="#EAF1E9"/>
<path d="M136.136 171.873H51.9018L0 118.755V14.1008H84.2341L136.136 67.2182V171.873ZM56.8854 159.961H124.103V72.0802L79.129 26.0127H11.9119V113.893L56.8854 159.961Z" fill="white"/>
<path d="M136.136 171.872L124.103 159.96V72.0793L136.136 67.2173V171.872Z" fill="#2AD6DD"/>
<path d="M11.9119 113.893L0 118.755V14.1008L11.9119 25.8912V113.893Z" fill="#2AD6DD"/>
<path d="M124.103 72.0792L79.129 26.0118L84.2341 14.0999L136.136 67.2172L124.103 72.0792Z" fill="#F9336C"/>
<path d="M51.9018 171.872L0 118.754L11.9119 113.892L56.8854 159.96L51.9018 171.872Z" fill="#F9336C"/>
<path d="M11.9119 159.96H0V171.872H11.9119V159.96Z" fill="white"/>
<path d="M28.078 159.96H16.1661V171.872H28.078V159.96Z" fill="white"/>
<path d="M11.9119 143.793H0V155.705H11.9119V143.793Z" fill="white"/>
<path d="M124.618 25.9314H136.53V14.0195L124.618 14.0195V25.9314Z" fill="white"/>
<path d="M108.5 25.9314H120.412V14.0195L108.5 14.0195V25.9314Z" fill="white"/>
<path d="M124.618 42.1365H136.53V30.2246H124.618V42.1365Z" fill="white"/>
<path d="M57.3716 140.268V138.445L63.206 132.489C63.8138 131.881 64.3 131.273 64.7862 130.787C65.1508 130.301 65.5155 129.814 65.637 129.328C65.8801 128.842 65.8801 128.356 65.8801 127.87C65.8801 127.262 65.7586 126.776 65.5155 126.411C65.2724 126.046 64.9077 125.682 64.4215 125.439C63.9353 125.196 63.4491 125.074 62.8414 125.074C62.2336 125.074 61.7474 125.196 61.2612 125.439C60.775 125.682 60.4104 126.046 60.1673 126.533C59.9242 127.019 59.8026 127.505 59.8026 128.113H57.3716C57.3716 127.019 57.6147 126.168 58.1009 125.317C58.5871 124.588 59.1949 123.98 60.0457 123.494C60.8966 123.008 61.869 122.886 62.9629 122.886C64.0569 122.886 65.0293 123.129 65.7586 123.494C66.6094 123.98 67.2172 124.466 67.7034 125.196C68.1896 125.925 68.4327 126.776 68.4327 127.627C68.4327 128.234 68.3111 128.842 68.068 129.45C67.8249 130.058 67.4603 130.787 66.8525 131.516C66.2448 132.245 65.3939 133.218 64.4215 134.19L61.0181 137.715V137.837H68.7973V140.025H57.3716V140.268Z" fill="white"/>
<path d="M77.0627 140.512C75.7256 140.512 74.6317 140.147 73.6593 139.418C72.6869 138.689 71.9576 137.716 71.4714 136.379C70.9852 135.042 70.7421 133.462 70.7421 131.639C70.7421 129.815 70.9852 128.235 71.4714 126.898C71.9576 125.561 72.6869 124.589 73.6593 123.859C74.6317 123.13 75.7256 122.766 77.0627 122.766C78.3997 122.766 79.4937 123.13 80.4661 123.859C81.4385 124.589 82.1678 125.561 82.654 126.898C83.1402 128.235 83.3833 129.815 83.3833 131.639C83.3833 133.462 83.1402 135.164 82.654 136.379C82.1678 137.716 81.4385 138.689 80.4661 139.418C79.6152 140.147 78.3997 140.512 77.0627 140.512ZM77.0627 138.324C78.2782 138.324 79.129 137.716 79.7368 136.622C80.3445 135.528 80.7092 133.827 80.7092 131.76C80.7092 130.302 80.5876 129.086 80.223 128.114C79.9799 127.141 79.4937 126.412 78.8859 125.926C78.2782 125.44 77.6704 125.197 76.9411 125.197C75.7256 125.197 74.8748 125.804 74.267 126.898C73.6593 127.992 73.2946 129.694 73.2946 131.76C73.2946 133.219 73.4162 134.434 73.7808 135.407C74.0239 136.379 74.5101 137.108 75.1179 137.595C75.7256 138.081 76.3334 138.324 77.0627 138.324Z" fill="white"/>
<path d="M85.6927 140.269V138.445L91.5272 132.489C92.1349 131.882 92.6211 131.274 93.1073 130.788C93.4719 130.302 93.8366 129.815 93.9582 129.329C94.2013 128.843 94.2012 128.357 94.2012 127.871C94.2012 127.263 94.0797 126.777 93.8366 126.412C93.5935 126.047 93.2289 125.683 92.7427 125.44C92.2565 125.196 91.7702 125.075 91.1625 125.075C90.5547 125.075 90.0685 125.196 89.5823 125.44C89.0961 125.683 88.7315 126.047 88.4884 126.533C88.2453 127.02 88.1237 127.506 88.1237 128.114H85.6927C85.6927 127.02 85.9358 126.169 86.422 125.318C86.9082 124.589 87.516 123.981 88.3668 123.495C89.2177 123.009 90.1901 122.887 91.284 122.887C92.378 122.887 93.3504 123.13 94.0797 123.495C94.9305 123.981 95.5383 124.467 96.0245 125.196C96.5107 125.926 96.7538 126.777 96.7538 127.627C96.7538 128.235 96.6323 128.843 96.3892 129.451C96.1461 130.058 95.7814 130.788 95.1737 131.517C94.5659 132.246 93.7151 133.219 92.7427 134.191L89.3392 137.716V137.838H97.1184V140.026H85.6927V140.269Z" fill="white"/>
<path d="M105.992 123.13V140.269H103.318V125.683H103.196L99.0633 128.357V125.926L103.318 123.13H105.992Z" fill="white"/>
<path d="M32.5754 73.9024C31.4815 73.9024 30.6306 73.5377 30.266 72.8084C29.7798 72.0791 29.7798 71.1067 30.266 70.0128L42.7856 42.2994C43.1503 41.327 43.6365 40.7192 44.2442 40.3546C44.852 39.9899 45.4597 39.7468 46.3106 39.7468C47.0399 39.7468 47.6476 39.9899 48.2554 40.3546C48.8631 40.7192 49.3493 41.4485 49.714 42.2994L62.2336 70.0128C62.7198 71.1067 62.7198 72.0791 62.3552 72.8084C61.869 73.5377 61.1397 73.9024 60.0457 73.9024C59.1949 73.9024 58.4656 73.6593 57.9794 73.2946C57.4932 72.93 57.007 72.2007 56.6423 71.3498L54.3329 65.8801H38.0452L35.7357 71.3498C35.3711 72.3222 34.8849 72.93 34.3987 73.2946C34.034 73.6593 33.4263 73.9024 32.5754 73.9024ZM46.189 46.6752L40.2331 60.8965H52.3881L46.189 46.6752Z" fill="white"/>
<path d="M67.2172 73.9024C65.1508 73.9024 64.1784 72.8084 64.1784 70.7421V42.9071C64.1784 40.8408 65.1508 39.7468 67.2172 39.7468C69.2835 39.7468 70.2559 40.8408 70.2559 42.9071V70.7421C70.2559 72.8084 69.162 73.9024 67.2172 73.9024Z" fill="white"/>
<path d="M31.4814 109.516C29.4151 109.516 28.4427 108.544 28.4427 106.478V80.5875C28.4427 78.5211 29.4151 77.5487 31.4814 77.5487H40.233C45.5812 77.5487 49.7139 78.8858 52.6311 81.6814C55.5483 84.4771 57.0069 88.3667 57.0069 93.4718C57.0069 98.5769 55.5483 102.466 52.6311 105.262C49.7139 108.058 45.5812 109.395 40.233 109.395H31.4814V109.516ZM34.2771 104.654H39.9899C47.4045 104.654 51.051 100.886 51.051 93.4718C51.051 86.0572 47.4045 82.2892 39.9899 82.2892H34.2771V104.654Z" fill="white"/>
<path d="M69.6481 110.003C68.068 110.003 66.6094 109.638 65.3939 109.03C64.1784 108.423 63.206 107.572 62.4767 106.478C61.7474 105.384 61.3827 104.168 61.3827 102.953C61.3827 101.373 61.7474 100.036 62.5982 99.0632C63.4491 98.0908 64.7861 97.4831 66.7309 96.9969C68.6757 96.6322 71.2283 96.3891 74.3886 96.3891H75.9687V95.4167C75.9687 93.9581 75.6041 92.8642 74.9963 92.1349C74.3886 91.5271 73.2946 91.1625 71.7145 91.1625C70.8636 91.1625 69.8912 91.284 68.9188 91.5271C67.9464 91.7702 66.8525 92.1349 65.7585 92.6211C65.0292 92.9857 64.4215 92.9857 63.9353 92.7426C63.4491 92.4995 63.0844 92.1349 62.9629 91.5271C62.8413 90.9194 62.8413 90.4332 63.0844 89.8254C63.3275 89.2177 63.8137 88.853 64.4215 88.6099C65.7585 88.0022 67.0956 87.6375 68.4326 87.3944C69.7697 87.1513 70.8636 87.0298 71.9576 87.0298C75.2394 87.0298 77.5489 87.7591 79.129 89.2177C80.7092 90.6763 81.4385 92.9857 81.4385 96.146V106.964C81.4385 108.909 80.5876 109.881 78.7644 109.881C76.9411 109.881 76.0903 108.909 76.0903 106.964V105.992C75.6041 107.207 74.7532 108.179 73.6593 108.909C72.5653 109.638 71.2283 110.003 69.6481 110.003ZM70.8636 106.113C72.3222 106.113 73.5377 105.627 74.5101 104.533C75.4825 103.561 75.9687 102.224 75.9687 100.643V99.671H74.3886C71.5929 99.671 69.5266 99.9141 68.4326 100.279C67.3387 100.765 66.7309 101.494 66.7309 102.71C66.7309 103.682 67.0956 104.533 67.8249 105.141C68.6757 105.748 69.6481 106.113 70.8636 106.113Z" fill="white"/>
<path d="M92.6211 118.025C91.6487 118.025 90.9194 117.66 90.4332 116.931C90.0685 116.202 90.0685 115.351 90.4332 114.379L92.9857 108.666L85.2065 90.7978C84.8419 89.8254 84.8419 88.9746 85.2065 88.1237C85.5712 87.3944 86.422 87.0298 87.7591 87.0298C88.4884 87.0298 88.9746 87.1513 89.4608 87.516C89.8254 87.8806 90.3116 88.4884 90.5547 89.3392L96.0245 102.831L101.616 89.2177C101.98 88.3668 102.345 87.7591 102.831 87.516C103.317 87.1513 103.925 87.0298 104.655 87.0298C105.627 87.0298 106.356 87.3944 106.721 88.1237C107.086 88.853 107.086 89.7039 106.721 90.6763L95.6598 115.837C95.2952 116.688 94.809 117.296 94.4443 117.539C93.9581 117.903 93.3504 118.025 92.6211 118.025Z" fill="white"/>
</svg>
