<svg width="36" height="22" viewBox="0 0 36 22" fill="none" xmlns="http://www.w3.org/2000/svg">
<g clip-path="url(#clip0)">
<g opacity="0.5">
<path opacity="0.5" d="M1.04265 3.55376C1.04265 2.90103 1.26023 2.2483 1.76791 1.74062C2.78327 0.725258 4.37883 0.725258 5.32166 1.74062L18.2312 14.4326L30.9232 1.45052C31.9386 0.507683 33.5341 0.435157 34.5495 1.45052C35.4923 2.46587 35.5649 4.06144 34.5495 5.0768L20.1169 19.7995C19.6092 20.3072 19.029 20.5248 18.3038 20.5248C17.651 20.5248 16.9983 20.2347 16.4906 19.7995L1.76791 5.29437C1.26023 4.85922 1.04265 4.20649 1.04265 3.55376Z" fill="#1287FD"/>
</g>
<path d="M1.04265 3.55376C1.04265 2.90103 1.26023 2.2483 1.76791 1.74062C2.78327 0.725258 4.37883 0.725258 5.32166 1.74062L18.2312 14.4326L30.9232 1.45052C31.9386 0.507683 33.5341 0.435157 34.5495 1.45052C35.4923 2.46587 35.5649 4.06144 34.5495 5.0768L20.1169 19.7995C19.6092 20.3072 19.029 20.5248 18.3038 20.5248C17.651 20.5248 16.9983 20.2347 16.4906 19.7995L1.76791 5.29437C1.26023 4.85922 1.04265 4.20649 1.04265 3.55376Z" stroke="#1287FD" stroke-width="1.45051" stroke-miterlimit="10"/>
</g>
<defs>
<clipPath id="clip0">
<rect width="21.25" height="35.6826" fill="white" transform="translate(36) rotate(90)"/>
</clipPath>
</defs>
</svg>
