<svg width="46" height="44" viewBox="0 0 46 44" fill="none" xmlns="http://www.w3.org/2000/svg">
<g opacity="0.3" clip-path="url(#clip0)">
<g opacity="0.5">
<path opacity="0.5" d="M19.5 39.1446L19.2 4.45311C19.2 2.65709 20.7 1.14465 22.7 1.14465C24.6 1.14465 26.2 2.56256 26.2 4.45311L26.5 39.1446C26.5 40.9406 25 42.4531 23 42.4531C21.1 42.4531 19.5 41.0351 19.5 39.1446Z" fill="#FA336C"/>
</g>
<path d="M19.5 39.1446L19.2 4.45311C19.2 2.65709 20.7 1.14465 22.7 1.14465C24.6 1.14465 26.2 2.56256 26.2 4.45311L26.5 39.1446C26.5 40.9406 25 42.4531 23 42.4531C21.1 42.4531 19.5 41.0351 19.5 39.1446Z" stroke="#FA336C" stroke-width="2" stroke-miterlimit="10"/>
<g opacity="0.5">
<path opacity="0.5" d="M41.2 24.9649L4.5 25.2485C2.6 25.2485 1 23.8306 1 21.9401C1 20.144 2.5 18.6316 4.5 18.6316L41.2 18.348C43.1 18.348 44.7 19.7659 44.7 21.6565C44.7 23.4525 43.2 24.9649 41.2 24.9649Z" fill="#2AD7DE"/>
</g>
<path d="M41.2 24.9649L4.5 25.2485C2.6 25.2485 1 23.8306 1 21.9401C1 20.144 2.5 18.6316 4.5 18.6316L41.2 18.348C43.1 18.348 44.7 19.7659 44.7 21.6565C44.7 23.4525 43.2 24.9649 41.2 24.9649Z" stroke="#2AD7DE" stroke-width="2" stroke-miterlimit="10"/>
</g>
<defs>
<clipPath id="clip0">
<rect width="45.7" height="43.1989" fill="white" transform="translate(0 0.198853)"/>
</clipPath>
</defs>
</svg>
