<svg width="323" height="45" viewBox="0 0 323 45" fill="none" xmlns="http://www.w3.org/2000/svg">
<path d="M52.9333 15.1806V32H62.4546V30.5259H54.504V24.3153H61.6813V22.8653H54.504V16.6547H62.4546V15.1806H52.9333ZM65.1245 20.1588V32H66.7194V25.3303C66.7194 24.6053 66.8644 23.9286 67.1544 23.2762C67.4444 22.6479 67.8311 22.1162 68.3627 21.7296C68.8944 21.3429 69.4743 21.1496 70.1026 21.1496C71.0209 21.1496 71.7459 21.4396 72.2534 21.9954C72.7367 22.5754 73.0025 23.4695 73.0025 24.6778V32H74.5733V25.2819C74.5733 24.5569 74.7183 23.8803 75.0083 23.252C75.2983 22.6237 75.6849 22.1162 76.2166 21.7296C76.7482 21.3429 77.3282 21.1496 77.9807 21.1496C78.899 21.1496 79.624 21.4396 80.1314 21.9954C80.6147 22.5754 80.8806 23.4453 80.8806 24.6536V32H82.4513V24.3395C82.4513 22.9378 82.113 21.8262 81.4605 21.0046C80.7839 20.1829 79.7931 19.7721 78.4882 19.7721C77.594 19.7721 76.8207 19.9896 76.1441 20.4004C75.4674 20.8113 74.8633 21.4879 74.3317 22.4062C73.945 21.4879 73.4617 20.8113 72.8575 20.4004C72.2292 19.9896 71.5043 19.7721 70.6585 19.7721C69.9335 19.7721 69.2327 19.9896 68.5802 20.3763C67.9036 20.7629 67.3961 21.2946 67.0336 21.9712H66.6228V20.1588H65.1245ZM85.3233 20.1588V37.2198H86.8941V32.1208L86.7974 30.1876H87.2324C87.5949 30.8642 88.1265 31.3959 88.8515 31.7825C89.5523 32.1933 90.3498 32.3867 91.2197 32.3867C92.2589 32.3867 93.2013 32.1208 94.0471 31.5892C94.8688 31.0575 95.5454 30.3084 96.0287 29.3418C96.512 28.3993 96.7537 27.3118 96.7537 26.0794C96.7537 24.8711 96.512 23.8078 96.0287 22.8412C95.5454 21.8746 94.8688 21.1254 94.0471 20.5938C93.2013 20.0621 92.2589 19.7721 91.2197 19.7721C90.3498 19.7721 89.5523 19.9896 88.8515 20.3763C88.1265 20.7871 87.5949 21.3187 87.2324 21.9954H86.8216V20.1588H85.3233ZM93.0563 30.4051C92.4039 30.8159 91.7272 31.0092 91.0022 31.0092C90.2531 31.0092 89.5523 30.8159 88.924 30.4051C88.2715 29.9942 87.764 29.4143 87.3774 28.6651C86.9907 27.9402 86.8216 27.0702 86.8216 26.0794C86.8216 25.1128 86.9907 24.2428 87.3774 23.4937C87.764 22.7687 88.2715 22.1887 88.924 21.7779C89.5523 21.3671 90.2531 21.1496 91.0022 21.1496C91.7272 21.1496 92.4039 21.3671 93.0563 21.7779C93.7088 22.1887 94.2163 22.7687 94.6029 23.5178C94.9896 24.267 95.1829 25.1128 95.1829 26.0794C95.1829 27.046 94.9896 27.916 94.6029 28.6651C94.2163 29.4143 93.7088 29.9942 93.0563 30.4051ZM101.378 31.565C102.296 32.1208 103.311 32.3867 104.471 32.3867C105.607 32.3867 106.622 32.1208 107.54 31.565C108.459 31.0092 109.159 30.2359 109.667 29.2693C110.174 28.3026 110.44 27.2393 110.44 26.0794C110.44 24.9194 110.174 23.8561 109.667 22.8895C109.159 21.9229 108.459 21.1737 107.54 20.6179C106.622 20.0621 105.607 19.7721 104.471 19.7721C103.311 19.7721 102.296 20.0621 101.378 20.6179C100.46 21.1737 99.7589 21.9229 99.2514 22.8895C98.744 23.8561 98.5023 24.9194 98.5023 26.0794C98.5023 27.2393 98.744 28.3026 99.2514 29.2693C99.7589 30.2359 100.46 31.0092 101.378 31.565ZM106.622 30.4051C105.945 30.8159 105.245 31.0092 104.471 31.0092C103.698 31.0092 102.973 30.8159 102.296 30.4051C101.62 30.0184 101.064 29.4384 100.677 28.6893C100.266 27.9643 100.073 27.0944 100.073 26.0794C100.073 25.0886 100.266 24.2186 100.677 23.4695C101.064 22.7445 101.62 22.1645 102.296 21.7537C102.973 21.3671 103.698 21.1496 104.471 21.1496C105.245 21.1496 105.945 21.3671 106.622 21.7537C107.299 22.1645 107.83 22.7445 108.241 23.4695C108.628 24.2186 108.845 25.0886 108.845 26.0794C108.845 27.0944 108.628 27.9643 108.241 28.6893C107.83 29.4384 107.299 30.0184 106.622 30.4051ZM111.253 20.1588L114.95 32H116.666L119.904 21.6812L123.167 32H124.907L128.628 20.1588H127.033L124.206 29.8734H123.892L120.847 20.1588H119.083L116.038 29.8976H115.724L112.872 20.1588H111.253ZM132.22 31.5892C133.09 32.1208 134.105 32.3867 135.217 32.3867C136.425 32.3867 137.44 32.1208 138.31 31.5409C139.18 30.985 139.808 30.3084 140.219 29.4868L138.914 28.8343C138.141 30.2842 136.932 31.0092 135.289 31.0092C134.588 31.0092 133.912 30.84 133.283 30.5017C132.655 30.1634 132.123 29.6559 131.713 28.9793C131.278 28.3026 131.036 27.3843 130.988 26.2244H140.557C140.557 26.1519 140.581 26.0311 140.581 25.8377C140.581 24.6536 140.34 23.6145 139.905 22.6962C139.47 21.7779 138.817 21.0771 137.996 20.5454C137.174 20.038 136.183 19.7721 135.048 19.7721C133.936 19.7721 132.945 20.0621 132.099 20.6421C131.229 21.2221 130.577 21.9712 130.118 22.9378C129.659 23.9045 129.441 24.9678 129.441 26.1036C129.441 27.3118 129.683 28.3993 130.166 29.3418C130.649 30.3084 131.35 31.0575 132.22 31.5892ZM138.914 25.0161H131.084C131.326 23.7595 131.809 22.817 132.51 22.1404C133.187 21.4879 134.033 21.1496 135.048 21.1496C135.893 21.1496 136.594 21.3429 137.174 21.7296C137.754 22.1162 138.165 22.5754 138.431 23.107C138.697 23.6628 138.866 24.2911 138.914 25.0161ZM142.979 20.1588V32H144.574V25.3544C144.574 24.6778 144.719 24.0253 145.033 23.397C145.323 22.7929 145.734 22.3095 146.265 21.947C146.797 21.5846 147.353 21.3912 147.981 21.3912C148.634 21.3912 149.141 21.4879 149.479 21.6571V19.9655C149.189 19.8688 148.779 19.7963 148.271 19.7963C147.546 19.7963 146.869 20.0138 146.241 20.4246C145.613 20.8596 145.154 21.4154 144.912 22.1404H144.477V20.1588H142.979ZM151.548 17.0414C151.789 17.2831 152.079 17.4039 152.418 17.4039C152.756 17.4039 153.046 17.2831 153.288 17.0414C153.529 16.7997 153.65 16.5098 153.65 16.1714C153.65 15.8331 153.529 15.5431 153.288 15.3015C153.046 15.0598 152.756 14.939 152.418 14.939C152.079 14.939 151.789 15.0598 151.548 15.3015C151.306 15.5431 151.185 15.8331 151.185 16.1714C151.185 16.5098 151.306 16.7997 151.548 17.0414ZM151.644 20.1588V32H153.215V20.1588H151.644ZM156.43 20.1588V32H158.025V25.3061C158.025 24.6294 158.17 23.9528 158.46 23.3003C158.75 22.672 159.185 22.1404 159.717 21.7537C160.249 21.3671 160.877 21.1496 161.578 21.1496C162.544 21.1496 163.318 21.4396 163.898 21.9954C164.478 22.5754 164.768 23.4453 164.768 24.6536V32H166.363V24.3395C166.363 22.9378 166 21.8262 165.275 21.0046C164.55 20.1829 163.511 19.7721 162.109 19.7721C161.336 19.7721 160.587 19.9896 159.91 20.3763C159.209 20.7871 158.678 21.3187 158.34 21.9712H157.929V20.1588H156.43ZM170.865 36.6398C171.735 37.2923 172.871 37.6065 174.248 37.6065C175.94 37.6065 177.293 37.1231 178.308 36.1323C179.323 35.1415 179.855 33.6916 179.855 31.7583V20.1588H178.381V21.9229H177.946C177.535 21.2462 176.979 20.7388 176.302 20.3521C175.602 19.9655 174.828 19.7721 173.958 19.7721C172.943 19.7721 172.049 20.038 171.228 20.5696C170.406 21.1012 169.754 21.8262 169.27 22.7687C168.787 23.7353 168.545 24.7986 168.545 26.0069C168.545 27.2393 168.787 28.3268 169.27 29.2693C169.754 30.2117 170.406 30.9367 171.228 31.4684C172.049 32 172.943 32.2417 173.958 32.2417C174.828 32.2417 175.602 32.0725 176.302 31.6858C176.979 31.2992 177.535 30.7917 177.97 30.1151H178.381V31.7342C178.381 33.16 177.994 34.2716 177.269 35.0449C176.544 35.8424 175.529 36.229 174.248 36.229C173.354 36.229 172.581 36.0115 171.928 35.5282C171.276 35.0449 170.841 34.5132 170.623 33.8849L169.149 34.5374C169.391 35.3107 169.971 36.0115 170.865 36.6398ZM176.327 30.2842C175.698 30.6709 174.997 30.8642 174.248 30.8642C173.475 30.8642 172.774 30.6709 172.146 30.2842C171.518 29.8976 171.01 29.3418 170.648 28.5926C170.261 27.8677 170.092 26.9977 170.092 26.0069C170.092 25.0403 170.261 24.1703 170.648 23.4453C171.01 22.7204 171.518 22.1404 172.146 21.7537C172.774 21.3671 173.475 21.1496 174.248 21.1496C174.997 21.1496 175.698 21.3429 176.327 21.7296C176.955 22.1162 177.438 22.6962 177.825 23.4212C178.187 24.1461 178.381 25.0161 178.381 26.0069C178.381 26.9977 178.187 27.8677 177.825 28.5926C177.438 29.3176 176.955 29.8976 176.327 30.2842Z" fill="#EAF1E9"/>
<path d="M190.57 18.415C191.125 18.415 191.609 18.2216 191.995 17.8108C192.382 17.4242 192.6 16.9408 192.6 16.3609C192.6 15.8051 192.382 15.3217 191.995 14.9351C191.609 14.5484 191.125 14.3309 190.57 14.3309C189.99 14.3309 189.506 14.5484 189.12 14.9351C188.709 15.3217 188.516 15.8051 188.516 16.3609C188.516 16.9408 188.709 17.4242 189.12 17.8108C189.506 18.2216 189.99 18.415 190.57 18.415ZM188.975 19.7682V32.0928H192.14V19.7682H188.975ZM195.436 19.7682V32.0928H198.602V25.8097C198.602 24.8189 198.844 23.9972 199.375 23.3206C199.907 22.6681 200.584 22.3298 201.454 22.3298C202.179 22.3298 202.734 22.5473 203.145 22.9823C203.532 23.4173 203.749 24.0456 203.749 24.8189V32.0928H206.915V24.4322C206.915 22.8856 206.529 21.6532 205.755 20.7349C204.982 19.8407 203.846 19.3816 202.372 19.3816C201.575 19.3816 200.85 19.5749 200.173 19.9132C199.496 20.2516 198.965 20.7349 198.602 21.3149H198.409V19.7682H195.436ZM209.903 19.7682V32.0928H213.069V25.8097C213.069 24.8189 213.31 23.9972 213.842 23.3206C214.374 22.6681 215.05 22.3298 215.92 22.3298C216.645 22.3298 217.201 22.5473 217.612 22.9823C217.998 23.4173 218.216 24.0456 218.216 24.8189V32.0928H221.382V24.4322C221.382 22.8856 220.995 21.6532 220.222 20.7349C219.448 19.8407 218.313 19.3816 216.838 19.3816C216.041 19.3816 215.316 19.5749 214.639 19.9132C213.963 20.2516 213.431 20.7349 213.069 21.3149H212.875V19.7682H209.903ZM230.266 32.4794C231.522 32.4794 232.634 32.2136 233.649 31.6336C234.64 31.0536 235.413 30.2803 235.969 29.2895C236.525 28.2988 236.815 27.1871 236.815 25.9305C236.815 24.7222 236.525 23.6106 235.969 22.5956C235.413 21.6048 234.64 20.8315 233.649 20.2516C232.634 19.6716 231.522 19.3816 230.266 19.3816C228.985 19.3816 227.849 19.6716 226.858 20.2516C225.843 20.8315 225.07 21.6048 224.514 22.5956C223.958 23.6106 223.693 24.7222 223.693 25.9305C223.693 27.1871 223.958 28.2988 224.514 29.2895C225.07 30.2803 225.843 31.0536 226.858 31.6336C227.849 32.2136 228.985 32.4794 230.266 32.4794ZM230.266 29.5554C229.637 29.5554 229.082 29.4104 228.574 29.1204C228.042 28.8304 227.632 28.4196 227.317 27.8638C227.003 27.308 226.858 26.6555 226.858 25.9305C226.858 25.2055 227.003 24.5772 227.317 24.0214C227.632 23.4898 228.042 23.0548 228.574 22.7648C229.082 22.4748 229.637 22.3298 230.266 22.3298C230.87 22.3298 231.426 22.4748 231.957 22.7648C232.465 23.0548 232.876 23.4898 233.19 24.0214C233.48 24.5772 233.649 25.2055 233.649 25.9305C233.649 26.6796 233.48 27.3321 233.19 27.8638C232.876 28.4196 232.465 28.8304 231.957 29.1204C231.426 29.4104 230.87 29.5554 230.266 29.5554ZM237.505 19.7682L242.725 32.0928H245.867L251.135 19.7682H247.583L244.417 27.7913H244.223L241.106 19.7682H237.505ZM256.388 32.4794C257.161 32.4794 257.862 32.3344 258.466 32.0203C259.07 31.7303 259.553 31.3195 259.94 30.8362H260.133V32.0928H263.251V24.5047C263.251 22.8373 262.743 21.5565 261.777 20.6865C260.786 19.8166 259.36 19.3816 257.475 19.3816C256.412 19.3816 255.421 19.5991 254.527 20.0099C253.608 20.4449 252.859 21.0249 252.279 21.7982L254.309 23.3931C254.648 22.9581 255.107 22.6198 255.638 22.354C256.17 22.0882 256.75 21.9432 257.33 21.9432C258.176 21.9432 258.852 22.1607 259.36 22.5715C259.867 23.0065 260.133 23.5381 260.133 24.2147V24.7464C259.215 24.3839 258.127 24.1906 256.871 24.1906C255.953 24.1906 255.107 24.3597 254.358 24.6981C253.584 25.0364 253.004 25.5197 252.569 26.148C252.134 26.7763 251.917 27.5013 251.917 28.3229C251.917 29.5795 252.328 30.5703 253.173 31.3436C253.995 32.1169 255.083 32.4794 256.388 32.4794ZM257.137 30.0145C256.46 30.0145 255.953 29.8695 255.614 29.5554C255.252 29.2412 255.083 28.8304 255.083 28.3229C255.083 27.1146 255.904 26.4863 257.547 26.4863C258.442 26.4863 259.312 26.6796 260.133 27.0663C260.133 27.8638 259.843 28.5646 259.312 29.1446C258.78 29.7245 258.055 30.0145 257.137 30.0145ZM271.529 32.2861C272.302 32.2861 273.027 32.1653 273.728 31.8753V28.7821C273.389 28.9754 273.123 29.1204 272.93 29.1929C272.737 29.2895 272.471 29.3137 272.181 29.3137C271.625 29.3137 271.239 29.1929 271.021 28.9271C270.731 28.6612 270.61 28.2021 270.61 27.5738V22.4748H273.631V19.7682H270.61V16.2884H267.445V19.7682H265.294V22.4748H267.445V28.1538C267.445 29.507 267.807 30.522 268.58 31.247C268.894 31.5853 269.305 31.827 269.837 32.0203C270.344 32.2136 270.9 32.2861 271.529 32.2861ZM278.171 18.415C278.726 18.415 279.21 18.2216 279.596 17.8108C279.983 17.4242 280.2 16.9408 280.2 16.3609C280.2 15.8051 279.983 15.3217 279.596 14.9351C279.21 14.5484 278.726 14.3309 278.171 14.3309C277.591 14.3309 277.107 14.5484 276.721 14.9351C276.31 15.3217 276.116 15.8051 276.116 16.3609C276.116 16.9408 276.31 17.4242 276.721 17.8108C277.107 18.2216 277.591 18.415 278.171 18.415ZM276.576 19.7682V32.0928H279.741V19.7682H276.576ZM288.816 32.4794C290.072 32.4794 291.184 32.2136 292.199 31.6336C293.19 31.0536 293.963 30.2803 294.519 29.2895C295.075 28.2988 295.365 27.1871 295.365 25.9305C295.365 24.7222 295.075 23.6106 294.519 22.5956C293.963 21.6048 293.19 20.8315 292.199 20.2516C291.184 19.6716 290.072 19.3816 288.816 19.3816C287.535 19.3816 286.399 19.6716 285.408 20.2516C284.393 20.8315 283.62 21.6048 283.064 22.5956C282.508 23.6106 282.243 24.7222 282.243 25.9305C282.243 27.1871 282.508 28.2988 283.064 29.2895C283.62 30.2803 284.393 31.0536 285.408 31.6336C286.399 32.2136 287.535 32.4794 288.816 32.4794ZM288.816 29.5554C288.187 29.5554 287.632 29.4104 287.124 29.1204C286.592 28.8304 286.182 28.4196 285.867 27.8638C285.553 27.308 285.408 26.6555 285.408 25.9305C285.408 25.2055 285.553 24.5772 285.867 24.0214C286.182 23.4898 286.592 23.0548 287.124 22.7648C287.632 22.4748 288.187 22.3298 288.816 22.3298C289.42 22.3298 289.976 22.4748 290.507 22.7648C291.015 23.0548 291.426 23.4898 291.74 24.0214C292.03 24.5772 292.199 25.2055 292.199 25.9305C292.199 26.6796 292.03 27.3321 291.74 27.8638C291.426 28.4196 291.015 28.8304 290.507 29.1204C289.976 29.4104 289.42 29.5554 288.816 29.5554ZM297.551 19.7682V32.0928H300.717V25.8097C300.717 24.8189 300.958 23.9972 301.49 23.3206C302.022 22.6681 302.698 22.3298 303.568 22.3298C304.293 22.3298 304.849 22.5473 305.26 22.9823C305.646 23.4173 305.864 24.0456 305.864 24.8189V32.0928H309.03V24.4322C309.03 22.8856 308.643 21.6532 307.87 20.7349C307.096 19.8407 305.961 19.3816 304.486 19.3816C303.689 19.3816 302.964 19.5749 302.287 19.9132C301.611 20.2516 301.079 20.7349 300.717 21.3149H300.523V19.7682H297.551Z" fill="#FA336C"/>
<path d="M316.705 32.4794C317.672 32.4794 318.542 32.3103 319.34 31.9719C320.137 31.6336 320.765 31.1745 321.224 30.5703C321.684 29.9662 321.925 29.2654 321.925 28.4679C321.925 27.5496 321.611 26.7763 320.983 26.148C320.354 25.5197 319.436 25.0605 318.228 24.7464L316.415 24.3114C315.304 24.0214 314.772 23.5864 314.772 23.0065C314.772 22.7165 314.917 22.4506 315.255 22.2573C315.57 22.064 316.005 21.9432 316.56 21.9432C317.624 21.9432 318.397 22.3781 318.88 23.2481L321.587 22.064C320.717 20.2757 319.025 19.3816 316.488 19.3816C315.594 19.3816 314.772 19.5507 314.047 19.8407C313.322 20.1549 312.742 20.5899 312.307 21.1457C311.872 21.7257 311.679 22.354 311.679 23.0548C311.679 24.0214 311.993 24.8189 312.67 25.4472C313.322 26.0755 314.144 26.5105 315.159 26.7521L316.609 27.0663C317.31 27.2355 317.841 27.4288 318.204 27.6221C318.542 27.8154 318.735 28.1296 318.735 28.5162C318.735 28.9512 318.542 29.2412 318.155 29.4345C317.769 29.6279 317.285 29.7004 316.705 29.7004C316.077 29.7004 315.521 29.5554 315.038 29.2654C314.555 28.9754 314.192 28.5162 313.951 27.9363L311.123 29.1687C311.486 30.1595 312.138 30.957 313.056 31.5611C313.975 32.1894 315.207 32.4794 316.705 32.4794Z" fill="#FA336C" fill-opacity="0.7"/>
<path d="M37.8902 44.8506H14.4456L0 30.0667V0.938599H23.4446L37.8902 15.7225V44.8506ZM15.8327 41.5352H34.541V17.0758L22.0237 4.25399H3.31539V28.7135L15.8327 41.5352Z" fill="white"/>
<path d="M37.8902 44.8498L34.541 41.5344V17.0749L37.8902 15.7217V44.8498Z" fill="#2AD6DD"/>
<path d="M3.31539 28.7135L0 30.0667V0.938599L3.31539 4.22016V28.7135Z" fill="#2AD6DD"/>
<path d="M34.5409 17.075L22.0236 4.25326L23.4445 0.937866L37.8901 15.7218L34.5409 17.075Z" fill="#F9336C"/>
<path d="M14.4456 44.8498L0 30.0659L3.31539 28.7126L15.8327 41.5344L14.4456 44.8498Z" fill="#F9336C"/>
<path d="M3.31539 41.5344H0V44.8498H3.31539V41.5344Z" fill="white"/>
<path d="M7.81484 41.5344H4.49945V44.8498H7.81484V41.5344Z" fill="white"/>
<path d="M3.31539 37.0349H0V40.3503H3.31539V37.0349Z" fill="white"/>
<path d="M34.6846 4.23096H38V0.915566L34.6846 0.915566V4.23096Z" fill="white"/>
<path d="M30.1984 4.23096H33.5138V0.915566L30.1984 0.915566V4.23096Z" fill="white"/>
<path d="M34.6846 8.74109H38V5.4257H34.6846V8.74109Z" fill="white"/>
<path d="M15.968 36.0544V35.547L17.5919 33.8893C17.761 33.7201 17.8964 33.551 18.0317 33.4157C18.1332 33.2803 18.2347 33.145 18.2685 33.0097C18.3362 32.8744 18.3362 32.739 18.3362 32.6037C18.3362 32.4346 18.3023 32.2993 18.2347 32.1978C18.167 32.0963 18.0655 31.9948 17.9302 31.9271C17.7949 31.8595 17.6595 31.8256 17.4904 31.8256C17.3212 31.8256 17.1859 31.8595 17.0506 31.9271C16.9153 31.9948 16.8138 32.0963 16.7461 32.2316C16.6785 32.3669 16.6446 32.5022 16.6446 32.6714H15.968C15.968 32.3669 16.0357 32.1301 16.171 31.8933C16.3063 31.6903 16.4755 31.5211 16.7123 31.3858C16.9491 31.2505 17.2197 31.2167 17.5242 31.2167C17.8287 31.2167 18.0993 31.2843 18.3023 31.3858C18.5391 31.5211 18.7083 31.6565 18.8436 31.8595C18.9789 32.0624 19.0466 32.2993 19.0466 32.5361C19.0466 32.7052 19.0128 32.8744 18.9451 33.0435C18.8774 33.2127 18.776 33.4157 18.6068 33.6186C18.4376 33.8216 18.2008 34.0923 17.9302 34.3629L16.9829 35.344V35.3778H19.1481V35.9868H15.968V36.0544Z" fill="white"/>
<path d="M21.4486 36.1216C21.0764 36.1216 20.772 36.0201 20.5013 35.8172C20.2307 35.6142 20.0277 35.3435 19.8924 34.9714C19.7571 34.5993 19.6894 34.1595 19.6894 33.652C19.6894 33.1445 19.7571 32.7047 19.8924 32.3326C20.0277 31.9605 20.2307 31.6898 20.5013 31.4868C20.772 31.2839 21.0764 31.1824 21.4486 31.1824C21.8207 31.1824 22.1252 31.2839 22.3958 31.4868C22.6665 31.6898 22.8695 31.9605 23.0048 32.3326C23.1401 32.7047 23.2078 33.1445 23.2078 33.652C23.2078 34.1595 23.1401 34.6331 23.0048 34.9714C22.8695 35.3435 22.6665 35.6142 22.3958 35.8172C22.159 36.0201 21.8207 36.1216 21.4486 36.1216ZM21.4486 35.5127C21.7869 35.5127 22.0237 35.3435 22.1929 35.0391C22.362 34.7346 22.4635 34.261 22.4635 33.6858C22.4635 33.2799 22.4297 32.9416 22.3282 32.6709C22.2605 32.4003 22.1252 32.1973 21.956 32.062C21.7869 31.9266 21.6177 31.859 21.4147 31.859C21.0764 31.859 20.8396 32.0281 20.6705 32.3326C20.5013 32.6371 20.3998 33.1107 20.3998 33.6858C20.3998 34.0918 20.4337 34.4301 20.5352 34.7007C20.6028 34.9714 20.7381 35.1744 20.9073 35.3097C21.0764 35.445 21.2456 35.5127 21.4486 35.5127Z" fill="white"/>
<path d="M23.8505 36.0538V35.5464L25.4744 33.8887C25.6435 33.7195 25.7789 33.5504 25.9142 33.415C26.0157 33.2797 26.1172 33.1444 26.151 33.0091C26.2187 32.8738 26.2187 32.7384 26.2187 32.6031C26.2187 32.434 26.1848 32.2986 26.1172 32.1972C26.0495 32.0957 25.948 31.9942 25.8127 31.9265C25.6774 31.8588 25.5421 31.825 25.3729 31.825C25.2037 31.825 25.0684 31.8588 24.9331 31.9265C24.7978 31.9942 24.6963 32.0957 24.6286 32.231C24.561 32.3663 24.5271 32.5016 24.5271 32.6708H23.8505C23.8505 32.3663 23.9182 32.1295 24.0535 31.8927C24.1888 31.6897 24.358 31.5205 24.5948 31.3852C24.8316 31.2499 25.1023 31.2161 25.4067 31.2161C25.7112 31.2161 25.9818 31.2837 26.1848 31.3852C26.4216 31.5205 26.5908 31.6559 26.7261 31.8588C26.8614 32.0618 26.9291 32.2986 26.9291 32.5355C26.9291 32.7046 26.8953 32.8738 26.8276 33.0429C26.76 33.2121 26.6585 33.415 26.4893 33.618C26.3202 33.821 26.0833 34.0917 25.8127 34.3623L24.8654 35.3434V35.3772H27.0306V35.9862H23.8505V36.0538Z" fill="white"/>
<path d="M29.5002 31.2838V36.0539H28.756V31.9943H28.7221L27.5719 32.7385V32.0619L28.756 31.2838H29.5002Z" fill="white"/>
<path d="M9.0666 17.5824C8.76212 17.5824 8.52531 17.4809 8.42382 17.278C8.2885 17.075 8.2885 16.8043 8.42382 16.4999L11.9084 8.78649C12.0099 8.51585 12.1452 8.34669 12.3143 8.2452C12.4835 8.14371 12.6526 8.07605 12.8894 8.07605C13.0924 8.07605 13.2616 8.14371 13.4307 8.2452C13.5999 8.34669 13.7352 8.54968 13.8367 8.78649L17.3212 16.4999C17.4566 16.8043 17.4566 17.075 17.3551 17.278C17.2198 17.4809 17.0168 17.5824 16.7123 17.5824C16.4755 17.5824 16.2725 17.5148 16.1372 17.4133C16.0019 17.3118 15.8665 17.1088 15.765 16.872L15.1223 15.3496H10.589L9.94619 16.872C9.8447 17.1426 9.70938 17.3118 9.57406 17.4133C9.47256 17.5148 9.30341 17.5824 9.0666 17.5824ZM12.8556 10.0044L11.1979 13.9626H14.581L12.8556 10.0044Z" fill="white"/>
<path d="M18.7083 17.5824C18.1331 17.5824 17.8625 17.278 17.8625 16.7028V8.95564C17.8625 8.38052 18.1331 8.07605 18.7083 8.07605C19.2834 8.07605 19.554 8.38052 19.554 8.95564V16.7028C19.554 17.278 19.2495 17.5824 18.7083 17.5824Z" fill="white"/>
<path d="M8.76208 27.4947C8.18697 27.4947 7.91632 27.2241 7.91632 26.649V19.4431C7.91632 18.8679 8.18697 18.5973 8.76208 18.5973H11.1979C12.6864 18.5973 13.8367 18.9694 14.6486 19.7475C15.4605 20.5256 15.8665 21.6082 15.8665 23.0291C15.8665 24.45 15.4605 25.5325 14.6486 26.3107C13.8367 27.0888 12.6864 27.4609 11.1979 27.4609H8.76208V27.4947ZM9.54019 26.1415H11.1302C13.1939 26.1415 14.2088 25.0928 14.2088 23.0291C14.2088 20.9654 13.1939 19.9167 11.1302 19.9167H9.54019V26.1415Z" fill="white"/>
<path d="M19.3848 27.6303C18.945 27.6303 18.5391 27.5288 18.2008 27.3597C17.8625 27.1905 17.5918 26.9537 17.3888 26.6492C17.1858 26.3447 17.0844 26.0064 17.0844 25.6681C17.0844 25.2283 17.1858 24.8562 17.4227 24.5856C17.6595 24.3149 18.0316 24.1458 18.5729 24.0104C19.1142 23.9089 19.8246 23.8413 20.7042 23.8413H21.144V23.5706C21.144 23.1647 21.0425 22.8602 20.8734 22.6572C20.7042 22.4881 20.3997 22.3866 19.9599 22.3866C19.7231 22.3866 19.4525 22.4204 19.1818 22.4881C18.9112 22.5557 18.6067 22.6572 18.3022 22.7925C18.0993 22.894 17.9301 22.894 17.7948 22.8264C17.6595 22.7587 17.558 22.6572 17.5241 22.4881C17.4903 22.3189 17.4903 22.1836 17.558 22.0144C17.6256 21.8453 17.761 21.7438 17.9301 21.6761C18.3022 21.507 18.6744 21.4055 19.0465 21.3378C19.4187 21.2702 19.7231 21.2363 20.0276 21.2363C20.941 21.2363 21.5838 21.4393 22.0236 21.8453C22.4634 22.2512 22.6664 22.894 22.6664 23.7736V26.7845C22.6664 27.3258 22.4296 27.5965 21.9221 27.5965C21.4147 27.5965 21.1778 27.3258 21.1778 26.7845V26.5139C21.0425 26.8522 20.8057 27.1228 20.5012 27.3258C20.1968 27.5288 19.8246 27.6303 19.3848 27.6303ZM19.7231 26.5477C20.1291 26.5477 20.4674 26.4124 20.738 26.1079C21.0087 25.8373 21.144 25.4651 21.144 25.0253V24.7547H20.7042C19.9261 24.7547 19.351 24.8224 19.0465 24.9239C18.742 25.0592 18.5729 25.2622 18.5729 25.6005C18.5729 25.8711 18.6744 26.1079 18.8774 26.2771C19.1142 26.4462 19.3848 26.5477 19.7231 26.5477Z" fill="white"/>
<path d="M25.7787 29.8631C25.5081 29.8631 25.3051 29.7616 25.1697 29.5586C25.0683 29.3557 25.0683 29.1188 25.1697 28.8482L25.8802 27.2582L23.715 22.2851C23.6135 22.0144 23.6135 21.7776 23.715 21.5408C23.8165 21.3378 24.0533 21.2363 24.4255 21.2363C24.6285 21.2363 24.7638 21.2702 24.8991 21.3717C25.0006 21.4731 25.1359 21.6423 25.2036 21.8791L26.726 25.6343L28.2822 21.8453C28.3836 21.6085 28.4851 21.4393 28.6205 21.3717C28.7558 21.2702 28.9249 21.2363 29.1279 21.2363C29.3986 21.2363 29.6015 21.3378 29.703 21.5408C29.8045 21.7438 29.8045 21.9806 29.703 22.2512L26.6245 29.2542C26.523 29.491 26.3876 29.6601 26.2862 29.7278C26.1508 29.8293 25.9817 29.8631 25.7787 29.8631Z" fill="white"/>
</svg>
