<svg width="122" height="196" viewBox="0 0 122 196" fill="none" xmlns="http://www.w3.org/2000/svg">
<g opacity="0.1">
<path opacity="0.5" d="M163.2 195.204C153.685 195.204 142.32 192.286 129.633 186.717C107.166 176.64 82.3207 158.606 59.5898 135.799C16.5069 92.3071 -16.0035 33.1681 8.57756 8.50474C33.1586 -16.1586 92.1003 16.4607 135.183 59.6878C178.266 102.915 210.777 162.054 186.195 186.717C180.381 192.286 172.716 195.204 163.2 195.204ZM31.5727 18.5822C27.0794 18.5822 23.6434 19.643 21.7932 21.7646C16.5069 27.0685 18.0928 40.8588 25.7579 57.8314C35.0088 78.2516 51.6605 101.324 72.8055 122.54C93.9504 143.755 116.681 160.463 137.033 169.745C153.949 177.435 167.694 178.761 172.98 173.723C178.266 168.419 176.68 154.628 169.015 137.656C159.764 117.236 143.113 94.1635 121.968 72.9477C100.823 51.7319 78.0917 34.7593 57.4753 25.4774C47.4315 20.969 38.4449 18.5822 31.5727 18.5822Z" fill="#FA336C"/>
<path d="M31.3084 5.32184C56.6824 5.32184 96.8579 28.6593 131.483 63.4002C153.156 85.1464 171.394 110.34 181.174 132.352C194.389 161.789 189.103 176.109 182.231 183.005C177.737 187.513 171.13 189.9 162.936 189.9C153.949 189.9 143.377 187.248 131.483 181.944C109.545 172.131 85.2281 154.363 63.0259 132.086C41.3523 110.075 23.3791 84.8812 13.5995 62.8698C0.383877 33.4328 5.67012 19.1121 12.5422 12.217C17.0356 7.70862 23.3791 5.32184 31.3084 5.32184ZM163.2 181.944C169.279 181.944 173.773 180.353 176.945 177.17C184.081 170.01 183.024 154.894 174.301 135.269C164.786 114.053 147.87 90.7156 126.197 68.9694C104.523 47.2231 80.9991 29.9853 60.1185 20.7033C49.0174 15.9298 39.2378 13.2778 31.5727 13.2778C25.4936 13.2778 21.0002 14.869 17.8285 18.0513C10.6921 25.2117 11.7493 40.328 20.4716 59.9526C29.9869 81.1685 46.9029 104.506 68.5765 126.252C90.2501 147.998 113.774 165.236 134.655 174.518C145.756 179.292 155.535 181.944 163.2 181.944ZM31.3084 0.0178833C22.3218 0.0178833 14.3924 2.66986 8.57756 8.50422C-16.0035 33.1676 16.5069 92.3068 59.5898 135.534C82.3207 158.341 107.166 176.375 129.633 186.452C142.32 192.021 153.685 194.938 163.2 194.938C172.716 194.938 180.645 192.021 186.195 186.452C210.777 161.789 178.266 102.65 135.183 59.4222C102.408 26.8029 60.3828 0.0178833 31.3084 0.0178833ZM163.2 176.64C156.592 176.64 147.342 174.253 137.298 169.745C116.946 160.463 93.9504 143.755 72.8055 122.539C51.6605 101.324 34.7445 78.2513 25.4936 57.5658C17.8285 40.5932 16.5069 26.8029 21.7932 21.7641C23.6434 19.6425 27.0794 18.5817 31.5727 18.5817C38.1805 18.5817 47.4315 20.9685 57.4753 25.4769C77.8274 34.7588 100.823 51.4663 121.968 72.6821C143.113 93.898 160.029 116.97 169.279 137.39C176.945 154.363 178.266 168.153 173.244 173.457C170.865 175.579 167.694 176.64 163.2 176.64Z" fill="#FA336C"/>
<g opacity="0.5">
<g opacity="0.5">
<path opacity="0.5" d="M31.5727 195.204C22.0575 195.204 14.1281 192.286 8.57756 186.717C-16.0035 162.054 16.5069 102.915 59.5898 59.6878C102.673 16.4607 161.614 -16.1586 186.195 8.50474C210.777 33.1681 178.266 92.3071 135.183 135.534C112.452 158.341 87.607 176.375 65.1404 186.452C52.4534 192.286 41.088 195.204 31.5727 195.204ZM163.2 18.5822C156.592 18.5822 147.342 20.969 137.298 25.4774C116.946 34.7593 93.9504 51.4667 72.8055 72.6825C51.6605 93.8983 34.7445 116.97 25.4936 137.391C17.8285 154.363 16.5069 168.153 21.5289 173.457C26.8151 178.761 40.5594 177.17 57.4753 169.479C77.8274 160.198 100.823 143.49 121.968 122.274C143.113 101.059 159.764 77.9864 169.015 57.5662C176.68 40.5936 178.002 26.8034 172.98 21.4994C170.865 19.643 167.694 18.5822 163.2 18.5822Z" fill="#1287FD"/>
</g>
</g>
<path d="M172.785 0.0180054V5.32195C180.714 5.32195 187.322 7.70872 191.815 12.2171C198.688 19.1122 203.974 33.4328 190.758 62.8697C180.979 84.8811 162.741 109.81 141.067 131.821C118.865 154.098 94.5485 171.866 72.6106 181.678C60.7166 186.982 50.1441 189.634 41.1575 189.634C32.9638 189.634 26.356 187.247 21.8627 182.739C14.9906 175.844 9.70431 161.523 22.9199 132.086C32.6995 110.075 50.937 85.1463 72.6106 63.1349C107.236 28.6593 147.411 5.32195 172.785 5.32195V0.0180054ZM40.8932 181.943C48.5582 181.943 58.3378 179.291 69.1746 174.518C90.3195 164.971 113.579 147.998 135.253 126.252C156.926 104.506 174.107 80.9031 183.357 59.9526C192.08 40.328 193.137 24.9465 186.001 18.0514C183.093 14.869 178.336 13.2779 172.521 13.2779C164.856 13.2779 155.076 15.9298 144.239 20.7034C123.094 30.2505 99.8348 47.2231 78.1612 68.9693C56.4876 90.7154 39.3073 114.318 30.0564 135.269C21.334 154.893 20.2768 170.275 27.4132 177.17C30.3207 180.352 34.814 181.943 40.8932 181.943ZM172.785 0.0180054C143.711 0.0180054 101.685 26.8029 68.9102 59.6874C25.8274 102.914 -6.68305 162.053 17.898 186.717C23.4485 192.286 31.3779 195.203 40.8932 195.203C50.4084 195.203 61.7738 192.286 74.4608 186.717C96.9273 176.639 121.773 158.606 144.504 135.799C187.586 92.3066 220.097 33.1676 195.516 8.50431C189.701 2.66998 181.772 0.0180054 172.785 0.0180054ZM40.8932 176.639C36.3998 176.639 32.9638 175.579 31.1136 173.457C25.8274 168.153 27.4132 154.363 35.0783 137.39C44.3292 116.97 60.9809 93.8978 82.1259 72.682C103.271 51.4662 126.002 34.7588 146.354 25.4769C156.662 20.9686 165.649 18.5818 172.521 18.5818C177.014 18.5818 180.45 19.6426 182.3 21.7642C187.586 27.0681 186.001 40.8584 178.336 57.831C169.085 78.2512 152.433 101.323 131.288 122.539C110.143 143.755 87.4121 160.462 66.7957 169.744C56.7519 174.253 47.7653 176.639 40.8932 176.639Z" fill="#1287FD"/>
<path d="M87.6078 87.7655L87.6078 107.39L107.167 107.39L107.167 87.7655L87.6078 87.7655Z" fill="#FA336C"/>
</g>
</svg>
