<svg width="83" height="89" viewBox="0 0 83 89" fill="none" xmlns="http://www.w3.org/2000/svg">
<g opacity="0.5">
<path opacity="0.5" d="M44.7938 2.17875C46.4188 2.19251 48.0393 2.74796 49.2925 4.02258C51.7989 6.57184 51.7653 10.5442 49.2175 12.87L17.3473 44.7421L49.2193 76.6124C51.7258 79.1616 51.6921 83.134 49.1444 85.4598C46.5952 87.9663 42.6228 87.9326 40.297 85.3849L3.94759 49.1429C2.69437 47.8683 2.16492 46.4192 2.18022 44.6136C2.19398 42.9886 2.92999 41.3697 4.02406 40.1149L40.2645 3.94611C41.5391 2.6929 43.1687 2.16498 44.7938 2.17875Z" fill="#1287FD"/>
</g>
<g opacity="0.5">
<path opacity="0.5" d="M8.55181 38.5281L74.8235 38.3672C78.2542 38.3962 81.1202 41.1291 81.0896 44.7403C81.0606 48.171 78.3277 51.037 74.7165 51.0064L8.44628 50.9868C5.01564 50.9577 2.14962 48.2248 2.18021 44.6136C2.20774 41.3636 4.94061 38.4975 8.55181 38.5281Z" fill="#2AD7DE"/>
</g>
<path d="M44.7938 2.17875C46.4188 2.19251 48.0393 2.74796 49.2925 4.02258C51.7989 6.57184 51.7653 10.5442 49.2175 12.87L17.3473 44.7421L49.2193 76.6124C51.7258 79.1616 51.6921 83.134 49.1444 85.4598C46.5952 87.9663 42.6228 87.9326 40.297 85.3849L3.94759 49.1429C2.69437 47.8683 2.16493 46.4192 2.18022 44.6136C2.19398 42.9886 2.92999 41.3697 4.02406 40.1149L40.2645 3.94611C41.5391 2.6929 43.1687 2.16498 44.7938 2.17875Z" stroke="#1287FD" stroke-width="2" stroke-miterlimit="10"/>
<path d="M8.55182 38.5281L74.8235 38.3672C78.2542 38.3962 81.1202 41.1291 81.0896 44.7403C81.0606 48.171 78.3277 51.037 74.7165 51.0064L8.44629 50.9868C5.01564 50.9577 2.14962 48.2248 2.18021 44.6136C2.20774 41.3636 4.94061 38.4975 8.55182 38.5281Z" stroke="#2AD7DE" stroke-width="2" stroke-miterlimit="10"/>
</svg>
