<svg width="95" height="95" viewBox="0 0 95 95" fill="none" xmlns="http://www.w3.org/2000/svg">
<g opacity="0.2">
<g opacity="0.5">
<path opacity="0.5" d="M40.5361 85.6455L39.9125 9.35449C39.9125 5.40481 43.0306 2.07877 47.1882 2.07877C51.1379 2.07877 54.4639 5.19694 54.4639 9.35449L55.0875 85.6455C55.0875 89.5952 51.9694 92.9212 47.8118 92.9212C43.8621 92.9212 40.5361 89.8031 40.5361 85.6455Z" fill="#FA336C"/>
</g>
<path d="M40.5361 85.6455L39.9125 9.35449C39.9125 5.40481 43.0306 2.07877 47.1882 2.07877C51.1379 2.07877 54.4639 5.19694 54.4639 9.35449L55.0875 85.6455C55.0875 89.5952 51.9694 92.9212 47.8118 92.9212C43.8621 92.9212 40.5361 89.8031 40.5361 85.6455Z" stroke="#FA336C" stroke-width="2" stroke-miterlimit="10"/>
<g opacity="0.5">
<path opacity="0.5" d="M85.6455 54.4639L9.35445 55.0875C5.40477 55.0875 2.07874 51.9694 2.07874 47.8118C2.07874 43.8621 5.1969 40.5361 9.35445 40.5361L85.6455 39.9125C89.5951 39.9125 92.9212 43.0306 92.9212 47.1882C92.9212 51.1378 89.803 54.4639 85.6455 54.4639Z" fill="#2AD7DE"/>
</g>
<path d="M85.6455 54.4639L9.35445 55.0875C5.40477 55.0875 2.07874 51.9694 2.07874 47.8118C2.07874 43.8621 5.1969 40.5361 9.35445 40.5361L85.6455 39.9125C89.5951 39.9125 92.9212 43.0306 92.9212 47.1882C92.9212 51.1378 89.803 54.4639 85.6455 54.4639Z" stroke="#2AD7DE" stroke-width="2" stroke-miterlimit="10"/>
</g>
</svg>
