<svg width="12" height="10" viewBox="0 0 12 10" fill="none" xmlns="http://www.w3.org/2000/svg">
<path d="M6 9L10 5L6 1" stroke="#187CFA" stroke-width="1.5"/>
<path d="M10 5L0 5" stroke="#187CFA" stroke-width="1.5"/>
</svg>
