<svg width="33" height="35" viewBox="0 0 33 35" fill="none" xmlns="http://www.w3.org/2000/svg">
<path d="M1 6.63173C1 5.48563 3.90973 4.55688 7.49625 4.55688C11.0828 4.55688 13.9925 5.48563 13.9925 6.63173" stroke="#187CFA" stroke-width="1.2" stroke-miterlimit="10" stroke-linecap="round" stroke-linejoin="round"/>
<path d="M13.9925 17.5989C13.9925 18.745 11.0828 19.6737 7.49625 19.6737C3.90973 19.6737 1 18.745 1 17.5989V6.63184C1 7.77794 3.90973 8.70668 7.49625 8.70668C11.0828 8.70668 13.9925 7.77794 13.9925 6.63184V17.5989Z" stroke="#187CFA" stroke-width="1.2" stroke-miterlimit="10" stroke-linecap="round" stroke-linejoin="round"/>
<path d="M13.9925 10.2874C13.9925 11.4335 11.0828 12.3622 7.49625 12.3622C3.90973 12.3622 1 11.4335 1 10.2874" stroke="#187CFA" stroke-width="1.2" stroke-miterlimit="10" stroke-linecap="round" stroke-linejoin="round"/>
<path d="M13.9925 13.9429C13.9925 15.089 11.0828 16.0177 7.49625 16.0177C3.90973 16.0177 1 15.089 1 13.9429" stroke="#187CFA" stroke-width="1.2" stroke-miterlimit="10" stroke-linecap="round" stroke-linejoin="round"/>
<path d="M29.3962 32.0735H13.9534C13.1037 32.0735 12.4121 31.3818 12.4121 30.5321V21.9561C12.4121 21.1064 13.1037 20.4148 13.9534 20.4148H29.3962C30.2459 20.4148 30.9375 21.1064 30.9375 21.9561V30.5321C30.9375 31.3818 30.2459 32.0735 29.3962 32.0735Z" stroke="#187CFA" stroke-width="1.2" stroke-miterlimit="10" stroke-linecap="round" stroke-linejoin="round"/>
<path d="M30.6525 34H12.7001C11.9146 34 11.2773 33.3627 11.2773 32.5772V32.1721H32.0752V32.5772C32.0752 33.3627 31.4379 34 30.6525 34Z" stroke="#187CFA" stroke-width="1.2" stroke-miterlimit="10" stroke-linecap="round" stroke-linejoin="round"/>
<path d="M14.7812 24.1197V22.5388H16.3621" stroke="#187CFA" stroke-width="1.2" stroke-miterlimit="10" stroke-linecap="round" stroke-linejoin="round"/>
<path d="M26.9844 22.5388H28.5652V24.1197" stroke="#187CFA" stroke-width="1.2" stroke-miterlimit="10" stroke-linecap="round" stroke-linejoin="round"/>
<path d="M28.5652 28.22V29.8008H26.9844" stroke="#187CFA" stroke-width="1.2" stroke-miterlimit="10" stroke-linecap="round" stroke-linejoin="round"/>
<path d="M16.3621 29.8008H14.7812V28.22" stroke="#187CFA" stroke-width="1.2" stroke-miterlimit="10" stroke-linecap="round" stroke-linejoin="round"/>
<path d="M1.9375 21.5706C1.9375 25.0385 4.74842 27.8247 8.22132 27.8247H8.53749V29.0499L10.7358 26.8812L8.53749 25.0286V26.2538H8.22132C5.61788 26.2538 3.50846 24.1987 3.50846 21.5953" stroke="#187CFA" stroke-width="1.2" stroke-miterlimit="10" stroke-linecap="round" stroke-linejoin="round"/>
<path d="M21.6741 27.7262C22.479 27.7262 23.1315 27.0737 23.1315 26.2689C23.1315 25.464 22.479 24.8115 21.6741 24.8115C20.8693 24.8115 20.2168 25.464 20.2168 26.2689C20.2168 27.0737 20.8693 27.7262 21.6741 27.7262Z" stroke="#187CFA" stroke-width="1.2" stroke-miterlimit="10" stroke-linecap="round" stroke-linejoin="round"/>
<path d="M26.9612 16.4628C27.7661 16.4628 28.4186 15.8103 28.4186 15.0054C28.4186 14.2006 27.7661 13.5481 26.9612 13.5481C26.1564 13.5481 25.5039 14.2006 25.5039 15.0054C25.5039 15.8103 26.1564 16.4628 26.9612 16.4628Z" stroke="#187CFA" stroke-width="1.2" stroke-miterlimit="10" stroke-linecap="round" stroke-linejoin="round"/>
<path d="M18.1663 18.4386C18.9712 18.4386 19.6236 17.7861 19.6236 16.9813C19.6236 16.1764 18.9712 15.5239 18.1663 15.5239C17.3615 15.5239 16.709 16.1764 16.709 16.9813C16.709 17.7861 17.3615 18.4386 18.1663 18.4386Z" stroke="#187CFA" stroke-width="1.2" stroke-miterlimit="10" stroke-linecap="round" stroke-linejoin="round"/>
<path d="M21.0316 7.47155C21.8364 7.47155 22.4889 6.81908 22.4889 6.01422C22.4889 5.20935 21.8364 4.55688 21.0316 4.55688C20.2267 4.55688 19.5742 5.20935 19.5742 6.01422C19.5742 6.81908 20.2267 7.47155 21.0316 7.47155Z" stroke="#187CFA" stroke-width="1.2" stroke-miterlimit="10" stroke-linecap="round" stroke-linejoin="round"/>
<path d="M14.7581 3.91467C15.563 3.91467 16.2154 3.2622 16.2154 2.45733C16.2154 1.65247 15.563 1 14.7581 1C13.9533 1 13.3008 1.65247 13.3008 2.45733C13.3008 3.2622 13.9533 3.91467 14.7581 3.91467Z" stroke="#187CFA" stroke-width="1.2" stroke-miterlimit="10" stroke-linecap="round" stroke-linejoin="round"/>
<path d="M26.3722 16.3391L21.6989 24.8114L18.1914 18.4387" stroke="#187CFA" stroke-width="1.2" stroke-miterlimit="10" stroke-linecap="round" stroke-linejoin="round"/>
<path d="M18.1914 15.5238L20.4886 7.36768" stroke="#187CFA" stroke-width="1.2" stroke-miterlimit="10" stroke-linecap="round" stroke-linejoin="round"/>
<path d="M20.4877 4.66061L16.0762 3.08472" stroke="#187CFA" stroke-width="1.2" stroke-miterlimit="10" stroke-linecap="round" stroke-linejoin="round"/>
</svg>
