<svg width="31" height="28" viewBox="0 0 31 28" fill="none" xmlns="http://www.w3.org/2000/svg">
<path d="M15.2492 1C8.09583 1 2.29407 6.80176 2.29407 13.9551V14.6021H1L4.24237 19.1386L6.83052 14.6021H5.53644V13.9551C5.53644 8.59189 9.88597 4.23518 15.2564 4.23518C18.7144 4.23518 21.7555 6.04688 23.4809 8.77163" stroke="#187CFA" stroke-width="1.2" stroke-miterlimit="10" stroke-linecap="round" stroke-linejoin="round"/>
<path d="M21.7832 2.76147C22.2361 3.02748 22.6675 3.31505 23.0773 3.63138" stroke="#187CFA" stroke-width="1.2" stroke-miterlimit="10" stroke-linecap="round" stroke-linejoin="round"/>
<path d="M19.209 1.61816C19.6332 1.75476 20.0429 1.91293 20.4455 2.08547" stroke="#187CFA" stroke-width="1.2" stroke-miterlimit="10" stroke-linecap="round" stroke-linejoin="round"/>
<path d="M16.5781 1.0647C16.9879 1.10783 17.3905 1.16535 17.7859 1.24443" stroke="#187CFA" stroke-width="1.2" stroke-miterlimit="10" stroke-linecap="round" stroke-linejoin="round"/>
<path d="M15.3077 26.9103C22.461 26.9103 28.2124 21.1086 28.2124 13.9552V13.3082H29.5065L26.2641 8.77173L23.676 13.3082H24.9701V13.9552C24.9701 19.3184 20.7356 23.6751 15.3652 23.6751C11.9071 23.6751 8.86606 21.8634 7.14062 19.1387" stroke="#187CFA" stroke-width="1.2" stroke-miterlimit="10" stroke-linecap="round" stroke-linejoin="round"/>
<path d="M8.7804 25.1487C8.32748 24.8827 7.89612 24.5951 7.48633 24.2788" stroke="#187CFA" stroke-width="1.2" stroke-miterlimit="10" stroke-linecap="round" stroke-linejoin="round"/>
<path d="M11.3518 26.2991C10.9276 26.1625 10.5178 26.0043 10.1152 25.8318" stroke="#187CFA" stroke-width="1.2" stroke-miterlimit="10" stroke-linecap="round" stroke-linejoin="round"/>
<path d="M13.9832 26.8455C13.5734 26.8024 13.1708 26.7449 12.7754 26.6658" stroke="#187CFA" stroke-width="1.2" stroke-miterlimit="10" stroke-linecap="round" stroke-linejoin="round"/>
</svg>
