<svg width="28" height="20" viewBox="0 0 28 20" fill="none" xmlns="http://www.w3.org/2000/svg">
<path d="M24.3906 16.0773C28.0126 12.4553 28.0126 6.57873 24.3906 2.95068" stroke="#187CFA" stroke-width="1.2" stroke-miterlimit="10" stroke-linecap="round" stroke-linejoin="round"/>
<path d="M22.2832 13.9626C24.7384 11.5074 24.7384 7.52083 22.2832 5.06567" stroke="#187CFA" stroke-width="1.2" stroke-miterlimit="10" stroke-linecap="round" stroke-linejoin="round"/>
<path d="M20.168 11.8476C21.4563 10.5593 21.4563 8.46874 20.168 7.17432" stroke="#187CFA" stroke-width="1.2" stroke-miterlimit="10" stroke-linecap="round" stroke-linejoin="round"/>
<path d="M20.168 11.8476C21.4563 10.5593 21.4563 8.46874 20.168 7.17432" stroke="#187CFA" stroke-width="1.2" stroke-miterlimit="10" stroke-linecap="round" stroke-linejoin="round"/>
<path d="M11.7937 14.6673C13.0691 14.6673 14.103 12.5315 14.103 9.89676C14.103 7.26207 13.0691 5.12622 11.7937 5.12622C10.5183 5.12622 9.48438 7.26207 9.48438 9.89676C9.48438 12.5315 10.5183 14.6673 11.7937 14.6673Z" stroke="#187CFA" stroke-width="1.2" stroke-miterlimit="10" stroke-linecap="round" stroke-linejoin="round"/>
<path d="M11.793 18.7938C14.7734 18.7938 17.1895 14.8105 17.1895 9.89691C17.1895 4.98328 14.7734 1 11.793 1C8.81257 1 6.39648 4.98328 6.39648 9.89691C6.39648 14.8105 8.81257 18.7938 11.793 18.7938Z" stroke="#187CFA" stroke-width="1.2" stroke-miterlimit="10" stroke-linecap="round" stroke-linejoin="round"/>
<path d="M11.793 1H6.39649C3.41869 1 1 4.98659 1 9.90299C1 14.8194 3.41262 18.7999 6.39649 18.7999H11.793" stroke="#187CFA" stroke-width="1.2" stroke-miterlimit="10" stroke-linecap="round" stroke-linejoin="round"/>
<path d="M11.7932 5.13257V9.84842L10.1523 13.2577" stroke="#187CFA" stroke-width="1.2" stroke-miterlimit="10" stroke-linecap="round" stroke-linejoin="round"/>
<path d="M11.793 9.84839L13.6647 12.6986" stroke="#187CFA" stroke-width="1.2" stroke-miterlimit="10" stroke-linecap="round" stroke-linejoin="round"/>
<path d="M2.36133 9.87256H5.09603" stroke="#187CFA" stroke-width="1.2" stroke-miterlimit="10" stroke-linecap="round" stroke-linejoin="round"/>
<path d="M2.54297 7.8064H5.09536" stroke="#187CFA" stroke-width="1.2" stroke-miterlimit="10" stroke-linecap="round" stroke-linejoin="round"/>
<path d="M3.08984 5.74023H5.45992" stroke="#187CFA" stroke-width="1.2" stroke-miterlimit="10" stroke-linecap="round" stroke-linejoin="round"/>
<path d="M4.18555 3.67383H6.25177" stroke="#187CFA" stroke-width="1.2" stroke-miterlimit="10" stroke-linecap="round" stroke-linejoin="round"/>
<path d="M4.18555 16.0713H6.25177" stroke="#187CFA" stroke-width="1.2" stroke-miterlimit="10" stroke-linecap="round" stroke-linejoin="round"/>
<path d="M3.08984 14.0049H5.45992" stroke="#187CFA" stroke-width="1.2" stroke-miterlimit="10" stroke-linecap="round" stroke-linejoin="round"/>
<path d="M2.54297 11.9387H5.09536" stroke="#187CFA" stroke-width="1.2" stroke-miterlimit="10" stroke-linecap="round" stroke-linejoin="round"/>
</svg>
