<svg width="24" height="24" viewBox="0 0 24 24" fill="none" xmlns="http://www.w3.org/2000/svg">
<path d="M16.4018 12.4546C15.8231 12.4515 15.2566 12.6204 14.774 12.9397C14.2914 13.2591 13.9146 13.7146 13.6912 14.2484C13.4679 14.7822 13.4081 15.3704 13.5195 15.9382C13.6308 16.5061 13.9084 17.028 14.3168 17.438C14.7253 17.8479 15.2462 18.1272 15.8137 18.2406C16.3811 18.354 16.9695 18.2964 17.5041 18.0749C18.0387 17.8535 18.4956 17.4782 18.8166 16.9968C19.1377 16.5154 19.3085 15.9495 19.3075 15.3708C19.3075 14.5992 19.0017 13.859 18.4571 13.3124C17.9124 12.7658 17.1734 12.4574 16.4018 12.4546ZM16.4018 17.1246C16.0542 17.1277 15.7136 17.0275 15.4232 16.8367C15.1327 16.6458 14.9055 16.373 14.7704 16.0528C14.6352 15.7326 14.5983 15.3795 14.6642 15.0383C14.7301 14.697 14.8959 14.3831 15.1405 14.1362C15.3852 13.8894 15.6976 13.7208 16.0383 13.6519C16.3789 13.5829 16.7323 13.6167 17.0537 13.749C17.3751 13.8813 17.6499 14.1061 17.8433 14.3948C18.0368 14.6836 18.14 15.0232 18.14 15.3708C18.14 15.8332 17.9574 16.277 17.6319 16.6055C17.3063 16.9339 16.8642 17.1205 16.4018 17.1246Z" fill="#187CFA"/>
<path d="M7.58144 12.4546C7.00278 12.4515 6.43624 12.6204 5.95367 12.9397C5.4711 13.2591 5.09425 13.7146 4.8709 14.2484C4.64755 14.7822 4.58778 15.3704 4.69915 15.9382C4.81053 16.5061 5.08804 17.028 5.49649 17.438C5.90494 17.8479 6.42593 18.1272 6.99338 18.2406C7.56083 18.354 8.14918 18.2964 8.6838 18.0749C9.21842 17.8535 9.67524 17.4782 9.99631 16.9968C10.3174 16.5154 10.4882 15.9495 10.4872 15.3708C10.4872 14.5992 10.1814 13.859 9.63677 13.3124C9.09212 12.7658 8.35305 12.4574 7.58144 12.4546ZM7.58144 17.1246C7.23392 17.1277 6.89331 17.0275 6.60285 16.8367C6.31239 16.6458 6.08518 16.373 5.95004 16.0528C5.81491 15.7326 5.77795 15.3795 5.84385 15.0383C5.90976 14.697 6.07555 14.3831 6.3202 14.1362C6.56485 13.8894 6.87732 13.7208 7.21795 13.6519C7.55858 13.5829 7.91201 13.6167 8.2334 13.749C8.55478 13.8813 8.82961 14.1061 9.02302 14.3948C9.21644 14.6836 9.3197 15.0232 9.31972 15.3708C9.31973 15.8332 9.13709 16.277 8.81154 16.6055C8.48599 16.9339 8.04388 17.1205 7.58144 17.1246Z" fill="#187CFA"/>
<path d="M15.1791 20.8193C15.1791 20.974 15.118 21.1223 15.0092 21.2321C14.9003 21.3419 14.7525 21.4043 14.5979 21.4057H9.40902C9.32774 21.4134 9.24575 21.404 9.1683 21.3781C9.09085 21.3523 9.01966 21.3105 8.95928 21.2556C8.89889 21.2006 8.85065 21.1337 8.81764 21.059C8.78463 20.9843 8.76758 20.9036 8.76758 20.8219C8.76758 20.7403 8.78463 20.6595 8.81764 20.5849C8.85065 20.5102 8.89889 20.4432 8.95928 20.3883C9.01966 20.3333 9.09085 20.2916 9.1683 20.2658C9.24575 20.2399 9.32774 20.2305 9.40902 20.2382H14.5979C14.752 20.2382 14.8999 20.2994 15.0088 20.4084C15.1178 20.5174 15.1791 20.6652 15.1791 20.8193Z" fill="#187CFA"/>
<path d="M22.4419 12.6829V10.1611C22.4419 8.27755 20.7763 6.74683 18.7267 6.74683H5.2771C3.20154 6.74683 1.55667 8.27755 1.55667 10.1611V12.6829C1.13706 12.8272 0.767509 13.0885 0.491668 13.4361C0.215827 13.7837 0.0452203 14.2029 0 14.6443V16.8859C0.0452203 17.3273 0.215827 17.7466 0.491668 18.0941C0.767509 18.4417 1.13706 18.703 1.55667 18.8473V23.4135C1.55802 23.5686 1.62023 23.717 1.7299 23.8266C1.83957 23.9363 1.98792 23.9985 2.14301 23.9999H21.8608C22.0154 23.9985 22.1632 23.9361 22.272 23.8263C22.3809 23.7165 22.4419 23.5681 22.4419 23.4135V18.8473C22.8615 18.703 23.2311 18.4417 23.5069 18.0941C23.7828 17.7466 23.9534 17.3273 23.9986 16.8859V14.6443C23.9534 14.2029 23.7828 13.7837 23.5069 13.4361C23.2311 13.0885 22.8615 12.8272 22.4419 12.6829ZM22.8311 16.8859C22.8311 17.3322 22.1098 17.7992 21.8608 17.7992H21.2744V22.8324H2.72417V17.7992H2.14301C1.88875 17.7992 1.1675 17.3322 1.1675 16.8859V14.6443C1.1675 14.1981 1.88875 13.7363 2.14301 13.7363H2.72417V10.1611C2.72417 8.92097 3.87091 7.91433 5.2771 7.91433H18.7163C19.3514 7.87732 19.9754 8.09263 20.4526 8.51341C20.9297 8.93419 21.2214 9.52638 21.2641 10.1611V13.7363H21.8504C22.0995 13.7363 22.8207 14.1981 22.8207 14.6443L22.8311 16.8859Z" fill="#187CFA"/>
<path d="M21.8613 13.7363H21.2749V10.1612C21.2322 9.52452 20.9391 8.9307 20.4597 8.50963C19.9803 8.08856 19.3536 7.87453 18.7168 7.91438H5.27757C3.87138 7.91438 2.72464 8.92103 2.72464 10.1612V13.7363H2.14348C1.88922 13.7363 1.16797 14.1981 1.16797 14.6444V16.886C1.16797 17.3322 1.88922 17.7992 2.14348 17.7992H2.72464V22.8324H21.2749V17.7992H21.8613C22.1103 17.7992 22.8316 17.3322 22.8316 16.886V14.6444C22.8316 14.1981 22.1103 13.7363 21.8613 13.7363ZM4.67047 15.3708C4.67252 14.7955 4.84499 14.2337 5.16609 13.7564C5.4872 13.2791 5.94254 12.9076 6.47463 12.6888C7.00671 12.4701 7.59169 12.4139 8.15567 12.5274C8.71966 12.6409 9.23737 12.919 9.64344 13.3265C10.0495 13.734 10.3257 14.2527 10.4372 14.8171C10.5487 15.3815 10.4904 15.9662 10.2698 16.4976C10.0492 17.0289 9.67608 17.4829 9.1976 17.8023C8.71912 18.1217 8.15673 18.2922 7.58144 18.2922C7.19848 18.2915 6.81941 18.2154 6.46586 18.0682C6.11232 17.921 5.79123 17.7056 5.52092 17.4344C5.25061 17.1631 5.03638 16.8412 4.89046 16.4872C4.74454 16.1331 4.66979 15.7538 4.67047 15.3708ZM14.5968 21.4055H9.40792C9.32664 21.4132 9.24465 21.4038 9.1672 21.3779C9.08976 21.3521 9.01856 21.3103 8.95818 21.2554C8.89779 21.2004 8.84955 21.1335 8.81654 21.0588C8.78353 20.9841 8.76648 20.9034 8.76648 20.8217C8.76648 20.7401 8.78353 20.6593 8.81654 20.5847C8.84955 20.51 8.89779 20.443 8.95818 20.3881C9.01856 20.3331 9.08976 20.2914 9.1672 20.2656C9.24465 20.2397 9.32664 20.2303 9.40792 20.238H14.5968C14.7421 20.2517 14.8771 20.3191 14.9754 20.4271C15.0736 20.535 15.1281 20.6758 15.1281 20.8217C15.1281 20.9677 15.0736 21.1084 14.9754 21.2164C14.8771 21.3243 14.7421 21.3918 14.5968 21.4055ZM16.4025 18.2922C15.8241 18.2952 15.2578 18.1265 14.7753 17.8074C14.2929 17.4883 13.916 17.0331 13.6925 16.4996C13.469 15.9661 13.4089 15.3782 13.5199 14.8105C13.6308 14.2428 13.9078 13.7208 14.3158 13.3107C14.7237 12.9006 15.2442 12.6208 15.8113 12.5068C16.3784 12.3928 16.9666 12.4497 17.5013 12.6704C18.036 12.891 18.4932 13.2655 18.8149 13.7462C19.1366 14.2269 19.3083 14.7924 19.3083 15.3708C19.3083 16.1429 19.0027 16.8836 18.4582 17.431C17.9137 17.9784 17.1746 18.288 16.4025 18.2922Z" fill="#DBEBFF"/>
<path d="M13.5262 0.624008C13.2586 0.358758 12.9261 0.168365 12.5619 0.0718477C12.1977 -0.0246694 11.8145 -0.0239314 11.4507 0.0739865C11.0968 0.172266 10.7746 0.360675 10.5154 0.620794C10.2561 0.880913 10.0689 1.20384 9.97183 1.55801C9.87444 1.92188 9.87397 2.30491 9.97046 2.66903C10.0669 3.03314 10.257 3.36567 10.5218 3.63356C10.7821 3.88296 11.1018 4.06159 11.4507 4.15245V7.354H12.6182V4.20434C12.9624 4.09839 13.274 3.90657 13.5236 3.64695C13.7733 3.38732 13.9527 3.06844 14.0451 2.72032C14.1498 2.35606 14.1569 1.9707 14.0659 1.6028C13.9748 1.2349 13.7887 0.897379 13.5262 0.624008ZM12.0162 3.11467C11.8231 3.1157 11.634 3.05936 11.4729 2.9528C11.3118 2.84624 11.1859 2.69424 11.1113 2.51608C11.0367 2.33793 11.0166 2.14162 11.0537 1.95205C11.0907 1.76248 11.1832 1.58818 11.3194 1.45123C11.4557 1.31428 11.6295 1.22086 11.8188 1.18279C12.0082 1.14473 12.2046 1.16374 12.3832 1.23742C12.5617 1.3111 12.7144 1.43613 12.8218 1.59666C12.9292 1.7572 12.9866 1.94601 12.9866 2.13916C12.9866 2.26815 12.961 2.39585 12.9113 2.51489C12.8617 2.63392 12.7889 2.74193 12.6972 2.83265C12.6055 2.92337 12.4967 2.99501 12.3772 3.04342C12.2576 3.09183 12.1297 3.11605 12.0007 3.11467H12.0162Z" fill="#187CFA"/>
</svg>
