<svg width="49" height="45" viewBox="0 0 49 45" fill="none" xmlns="http://www.w3.org/2000/svg">
<path d="M46.631 45H2.36896C1.0598 45 0 43.9064 0 42.5615V2.43855C0 1.09358 1.0598 0 2.36896 0H46.631C47.9402 0 49 1.09358 49 2.43855V42.5615C49 43.9064 47.9402 45 46.631 45ZM2.36896 2.26257C2.30662 2.26257 2.24427 2.33799 2.24427 2.43855V42.5615C2.24427 42.662 2.30662 42.7374 2.36896 42.7374H46.631C46.6934 42.7374 46.7557 42.662 46.7557 42.5615V2.43855C46.7557 2.33799 46.6934 2.26257 46.631 2.26257H2.36896Z" fill="#187CFA"/>
<path d="M47.1297 12.1932H13.3409C12.7175 12.1932 12.2188 11.6904 12.2188 11.0619C12.2188 10.4335 12.7175 9.93066 13.3409 9.93066H47.1297C47.7531 9.93066 48.2518 10.4335 48.2518 11.0619C48.2518 11.6904 47.7531 12.1932 47.1297 12.1932Z" fill="#187CFA"/>
<path d="M7.48119 12.1932H1.99518C1.37177 12.1932 0.873047 11.6904 0.873047 11.0619C0.873047 10.4335 1.37177 9.93066 1.99518 9.93066H7.48119C8.1046 9.93066 8.60333 10.4335 8.60333 11.0619C8.60333 11.6904 8.1046 12.1932 7.48119 12.1932Z" fill="#187CFA"/>
<path d="M27.4304 9.27682C25.6724 9.27682 24.251 7.84386 24.251 6.07152C24.251 4.29917 25.6724 2.86621 27.4304 2.86621C29.1884 2.86621 30.6098 4.29917 30.6098 6.07152C30.6098 7.84386 29.1884 9.27682 27.4304 9.27682ZM27.4304 5.12878C26.9192 5.12878 26.4953 5.55615 26.4953 6.07152C26.4953 6.58688 26.9192 7.01425 27.4304 7.01425C27.9416 7.01425 28.3655 6.58688 28.3655 6.07152C28.3655 5.55615 27.9416 5.12878 27.4304 5.12878Z" fill="#187CFA"/>
<path d="M35.0358 9.27682C33.2778 9.27682 31.8564 7.84386 31.8564 6.07152C31.8564 4.29917 33.2778 2.86621 35.0358 2.86621C36.7939 2.86621 38.2152 4.29917 38.2152 6.07152C38.2152 7.84386 36.7939 9.27682 35.0358 9.27682ZM35.0358 5.12878C34.5246 5.12878 34.1007 5.55615 34.1007 6.07152C34.1007 6.58688 34.5246 7.01425 35.0358 7.01425C35.547 7.01425 35.971 6.58688 35.971 6.07152C35.971 5.55615 35.547 5.12878 35.0358 5.12878Z" fill="#187CFA"/>
<rect x="4" y="15" width="41" height="25.4556" rx="1" fill="#DBEBFF"/>
<path d="M42.5163 9.27682C40.7583 9.27682 39.3369 7.84386 39.3369 6.07152C39.3369 4.29917 40.7583 2.86621 42.5163 2.86621C44.2743 2.86621 45.6957 4.29917 45.6957 6.07152C45.6957 7.84386 44.2743 9.27682 42.5163 9.27682ZM42.5163 5.12878C42.0051 5.12878 41.5812 5.55615 41.5812 6.07152C41.5812 6.58688 42.0051 7.01425 42.5163 7.01425C43.0275 7.01425 43.4514 6.58688 43.4514 6.07152C43.4514 5.55615 43.0275 5.12878 42.5163 5.12878Z" fill="#187CFA"/>
<path d="M18.4903 33.7751C18.3407 33.7751 18.1911 33.7499 18.0415 33.6745L7.4809 29.0111C7.08192 28.8351 6.80762 28.4329 6.80762 27.9804C6.80762 27.5405 7.05698 27.1256 7.45596 26.9371L18.0165 22.0474C18.5776 21.7835 19.2509 22.0349 19.5002 22.6005C19.7621 23.1662 19.5127 23.8449 18.9516 24.0963L10.6728 27.9301L18.9392 31.5754C19.5127 31.8268 19.7621 32.493 19.5127 33.0712C19.3381 33.5237 18.9267 33.7751 18.4903 33.7751Z" fill="#187CFA"/>
<path d="M30.0105 33.7754C29.5741 33.7754 29.1627 33.524 28.9881 33.0966C28.7388 32.5184 29.0006 31.8522 29.5617 31.6008L37.8281 27.9555L29.5492 24.1217C28.9881 23.8578 28.7388 23.1916 29.0006 22.6259C29.2624 22.0603 29.9232 21.8089 30.4843 22.0728L41.0449 26.9625C41.4438 27.1511 41.7057 27.5533 41.6932 28.0058C41.6932 28.4457 41.4314 28.848 41.0199 29.0365L30.4594 33.6999C30.3097 33.7376 30.1601 33.7754 30.0105 33.7754Z" fill="#187CFA"/>
<path d="M22.5672 36.5783C22.4799 36.5783 22.3926 36.5657 22.3178 36.5531C21.7193 36.4149 21.3328 35.7989 21.4825 35.1956L25.0359 19.697C25.173 19.0936 25.7715 18.7039 26.3824 18.8548C26.9809 18.9931 27.3674 19.609 27.2178 20.2123L23.6644 35.6984C23.5397 36.2263 23.0784 36.5783 22.5672 36.5783Z" fill="#187CFA"/>
</svg>
