<svg width="51" height="46" viewBox="0 0 51 46" fill="none" xmlns="http://www.w3.org/2000/svg">
<rect x="1" y="1" width="33.287" height="43.1674" rx="2" fill="#DBEBFF" stroke="#187CFA" stroke-width="2"/>
<rect x="4.93945" y="4.93945" width="25.4066" height="1.41148" fill="white"/>
<rect x="4.93945" y="8.46777" width="25.4066" height="1.41148" fill="white"/>
<rect x="4.93945" y="11.998" width="11.2918" height="1.41148" fill="white"/>
<rect x="19.0547" y="11.998" width="11.2918" height="1.41148" fill="white"/>
<rect x="4.93945" y="15.5264" width="11.2918" height="1.41148" fill="white"/>
<rect x="19.0547" y="15.5264" width="11.2918" height="1.41148" fill="white"/>
<rect x="4.93945" y="24.7012" width="25.4066" height="1.41148" fill="white"/>
<rect x="4.93945" y="28.2295" width="25.4066" height="1.41148" fill="white"/>
<rect x="4.93945" y="31.7578" width="25.4066" height="1.41148" fill="white"/>
<rect x="4.93945" y="35.2861" width="25.4066" height="1.41148" fill="white"/>
<rect x="4.93945" y="38.8145" width="25.4066" height="1.41148" fill="white"/>
<path fill-rule="evenodd" clip-rule="evenodd" d="M40.2973 32.4095C37.7987 34.2193 34.7269 35.2863 31.4058 35.2863C23.0258 35.2863 16.2324 28.4929 16.2324 20.1129C16.2324 11.7328 23.0258 4.93945 31.4058 4.93945C39.7859 4.93945 46.5792 11.7328 46.5792 20.1129C46.5792 24.1536 44.9998 27.8253 42.4246 30.5445L51.0005 39.1204L49.0044 41.1165L40.2973 32.4095ZM43.8211 20.1113C43.8211 26.9677 38.2629 32.5259 31.4065 32.5259C24.5501 32.5259 18.9919 26.9677 18.9919 20.1113C18.9919 13.2549 24.5501 7.69673 31.4065 7.69673C38.2629 7.69673 43.8211 13.2549 43.8211 20.1113Z" fill="#187CFA"/>
</svg>
