<svg width="10" height="12" viewBox="0 0 10 12" fill="none" xmlns="http://www.w3.org/2000/svg">
<path d="M1 6L5 10L9 6" stroke="#187CFA" stroke-width="1.5"/>
<path d="M5 10L5 0" stroke="#187CFA" stroke-width="1.5"/>
</svg>
