<svg width="59" height="53" viewBox="0 0 59 53" fill="none" xmlns="http://www.w3.org/2000/svg">
<rect y="0.746826" width="40.8228" height="52.2532" rx="4.08228" fill="#DBEBFF"/>
<rect x="5.71509" y="6.46191" width="29.3924" height="1.63291" fill="white"/>
<rect x="5.71509" y="10.5442" width="29.3924" height="1.63291" fill="white"/>
<rect x="5.71509" y="14.6265" width="13.0633" height="1.63291" fill="white"/>
<rect x="22.0444" y="14.6265" width="13.0633" height="1.63291" fill="white"/>
<rect x="5.71509" y="18.7087" width="13.0633" height="1.63291" fill="white"/>
<rect x="22.0444" y="18.7087" width="13.0633" height="1.63291" fill="white"/>
<rect x="5.71509" y="29.3228" width="29.3924" height="1.63291" fill="white"/>
<rect x="5.71509" y="33.405" width="29.3924" height="1.63291" fill="white"/>
<rect x="5.71509" y="37.4873" width="29.3924" height="1.63291" fill="white"/>
<rect x="5.71509" y="41.5696" width="29.3924" height="1.63291" fill="white"/>
<rect x="5.71509" y="45.6519" width="29.3924" height="1.63291" fill="white"/>
<path fill-rule="evenodd" clip-rule="evenodd" d="M46.6172 38.2426C43.727 40.3357 40.1738 41.5696 36.3324 41.5696C26.6377 41.5696 18.7786 33.7104 18.7786 24.0157C18.7786 14.321 26.6377 6.46191 36.3324 6.46191C46.0271 6.46191 53.8862 14.321 53.8862 24.0157C53.8862 28.691 52.0585 32.9394 49.0785 36.0853L59.0002 46.007L56.691 48.3163L46.6172 38.2426ZM50.6949 24.0157C50.6949 31.9477 44.2647 38.3779 36.3326 38.3779C28.4006 38.3779 21.9704 31.9477 21.9704 24.0157C21.9704 16.0836 28.4006 9.65343 36.3326 9.65343C44.2647 9.65343 50.6949 16.0836 50.6949 24.0157Z" fill="#187CFA"/>
</svg>
