<svg width="70" height="71" viewBox="0 0 70 71" fill="none" xmlns="http://www.w3.org/2000/svg">
<path d="M36.3423 62.865C36.066 62.865 35.7772 62.8603 35.4567 62.8493L35.2768 62.8445C35.141 62.8382 35.0052 62.8319 34.8679 62.8241L34.7542 62.8178C34.6248 62.8099 34.4969 62.8004 34.3675 62.791C34.0865 62.7705 33.8339 62.7469 33.5908 62.7217L33.4898 62.7107C33.3241 62.6933 33.1599 62.6729 32.9941 62.6524L32.9452 62.6461L32.7968 62.6256C32.6674 62.6083 32.5379 62.5894 32.4085 62.5705C32.3264 62.5579 32.2459 62.5453 32.1638 62.5311C32.0454 62.5122 31.9397 62.4949 31.8339 62.476C31.7329 62.4587 31.6303 62.4398 31.5292 62.4209C31.444 62.4051 31.3587 62.3894 31.2735 62.372C31.1551 62.3484 31.0367 62.3248 30.9183 62.2996L30.7368 62.2602C30.5979 62.2303 30.459 62.1988 30.3201 62.1657L30.2411 62.1468C29.1756 61.8932 28.1148 61.5688 27.0871 61.1813L27.0319 61.1609C26.8835 61.1057 26.7367 61.0475 26.5899 60.9892L26.522 60.9624L26.4573 60.9356C26.3279 60.8837 26.2 60.8301 26.0721 60.7766C26.0058 60.7482 25.9395 60.7199 25.8748 60.6915C25.7643 60.6427 25.6538 60.5954 25.5433 60.545C25.4754 60.5135 25.406 60.482 25.3381 60.4505C25.3381 60.4505 25.1281 60.3545 25.0839 60.334L25.0034 60.2946C24.9356 60.2631 24.8693 60.23 24.803 60.197L24.6625 60.1277C24.612 60.1025 24.5614 60.0788 24.5109 60.0536L24.3104 59.9497C21.3427 58.4267 18.7286 56.3918 16.5423 53.8985C14.2234 51.2557 12.4838 48.2112 11.3725 44.8502C11.1831 44.2769 11.4262 43.6437 11.9503 43.3445C12.0245 43.3019 12.1034 43.2673 12.1855 43.2389C12.3086 43.198 12.4365 43.1759 12.5643 43.1744H12.5864C13.1389 43.1744 13.6267 43.5272 13.8003 44.0501C13.8903 44.3241 13.9945 44.6171 14.1176 44.9462C14.4996 45.9653 14.9511 46.9575 15.4563 47.8946C15.461 47.9025 15.4657 47.9104 15.4705 47.9183C17.7404 52.1062 21.2007 55.4814 25.4754 57.6785L25.6112 57.7494C25.6759 57.7825 25.7406 57.814 25.8053 57.8455L25.9332 57.9085C25.99 57.9368 26.0484 57.9652 26.1069 57.9935C26.1858 58.0313 26.2663 58.0691 26.3468 58.1054L26.3894 58.1258C26.4573 58.1573 26.5252 58.1888 26.5931 58.2188C26.6925 58.2644 26.7935 58.307 26.8946 58.3511C26.953 58.3763 27.013 58.4015 27.0714 58.4267C27.1882 58.4755 27.305 58.5243 27.4218 58.5716L27.5323 58.6157C27.6712 58.6708 27.8054 58.7243 27.9412 58.7747L27.9838 58.7905C28.912 59.1401 29.8702 59.4331 30.8315 59.663L30.9057 59.6804C31.0288 59.7087 31.1535 59.7371 31.2782 59.7638L31.4472 59.8001C31.5529 59.8221 31.6587 59.8442 31.7644 59.8646C31.8434 59.8804 31.9207 59.8946 31.9996 59.9103C32.0896 59.9276 32.1796 59.9434 32.2712 59.9591C32.369 59.9765 32.4669 59.9922 32.5648 60.008C32.6405 60.0206 32.7147 60.0316 32.7905 60.0442C32.9105 60.0615 33.0305 60.0788 33.1504 60.0946L33.3209 60.1182C33.474 60.1371 33.6287 60.156 33.7834 60.1733L33.8592 60.1812C34.0455 60.2001 34.2333 60.219 34.4196 60.2332C34.6027 60.2489 34.7874 60.26 34.9705 60.271C35.0147 60.2741 35.1757 60.2804 35.1757 60.2804C35.2878 60.2867 35.3983 60.2915 35.5104 60.2946C35.6067 60.2978 35.703 60.3009 35.7977 60.3025C35.8845 60.3041 35.9697 60.3056 36.0566 60.3072C36.1434 60.3088 36.2318 60.3088 36.3202 60.3088C36.3202 60.3088 36.5254 60.3088 36.598 60.3072C36.7148 60.3056 36.8316 60.3041 36.9485 60.3009L37.1316 60.2946C37.2579 60.2899 37.3841 60.2852 37.5104 60.2789L37.6493 60.271C37.7883 60.2631 37.9287 60.2552 38.0677 60.2442L38.1071 60.2411C38.7528 60.1922 39.411 60.1151 40.0614 60.0111L40.1987 59.9891C40.3203 59.9686 40.4418 59.9465 40.5634 59.9245L40.756 59.8898C40.8665 59.8694 40.977 59.8457 41.0875 59.8237C41.1632 59.8079 41.2374 59.7922 41.3132 59.7764C41.4158 59.7544 41.5184 59.7323 41.621 59.7087C41.7063 59.6898 41.7915 59.6693 41.8752 59.6489C41.9699 59.6268 42.063 59.6032 42.1562 59.5796C42.2524 59.5544 42.3487 59.5292 42.445 59.504C42.445 59.504 42.6297 59.4551 42.696 59.4362C42.8097 59.4047 42.9233 59.3717 43.037 59.337C43.037 59.337 43.1933 59.2913 43.2359 59.2787C43.4174 59.2236 43.5974 59.1669 43.7773 59.1071C44.0189 59.0283 44.273 58.9385 44.5761 58.8267C44.655 58.7984 44.7324 58.7669 44.8113 58.7369L44.8776 58.7117C45.0339 58.6519 45.1886 58.5905 45.3433 58.5275C45.4727 58.4739 45.6037 58.4204 45.7316 58.3652C45.8153 58.329 45.8974 58.2928 45.9794 58.2566L46.0442 58.2282C49.3781 56.7383 52.3663 54.4608 54.6837 51.6416L54.731 51.5849C54.8099 51.4904 54.8873 51.3943 54.9631 51.2982C55.0199 51.2258 55.0767 51.1533 55.132 51.0809L55.1714 51.0289C55.2883 50.8777 55.4035 50.7233 55.5171 50.5674L55.544 50.5296C55.5866 50.4729 55.6276 50.4146 55.6687 50.3564C55.8281 50.1327 55.9686 49.928 56.0996 49.7311L56.1328 49.6823C56.2906 49.4444 56.4485 49.1956 56.6016 48.9436L56.6506 48.8617C56.7768 48.6522 56.9047 48.4349 57.0278 48.2144L57.1194 48.049C57.2299 47.849 57.3372 47.6489 57.4414 47.4458L57.5235 47.2851C57.6545 47.0268 57.7713 46.7843 57.8818 46.5464L57.8913 46.5275C58.0097 46.2708 58.1281 46.0015 58.2418 45.729L58.2938 45.6014C58.3822 45.3872 58.4675 45.1715 58.5496 44.9541C58.5733 44.8911 58.6364 44.7194 58.6364 44.7194C58.7043 44.532 58.7706 44.3446 58.8337 44.154L58.8558 44.0894C58.8858 44.0028 58.9158 43.9146 58.9426 43.828L58.99 43.6815C59.0531 43.4783 59.1147 43.2736 59.1747 43.0673C59.4273 42.1774 59.6293 41.2655 59.7761 40.3488L58.9237 41.2497C58.6838 41.5033 58.3444 41.6498 57.9939 41.6498C57.6672 41.6498 57.3546 41.5269 57.1162 41.3017C56.6032 40.8182 56.5795 40.0102 57.0641 39.4983L60.4312 35.9388L60.4407 35.9294C60.4628 35.9073 60.4849 35.8868 60.5086 35.8664C60.5181 35.8585 60.5259 35.849 60.5354 35.8412C60.5701 35.8128 60.6065 35.786 60.6428 35.7608L60.6649 35.7467C60.6917 35.7293 60.7248 35.7104 60.7596 35.6915L60.7911 35.6758C60.8243 35.66 60.8543 35.6474 60.8843 35.6348C60.8985 35.6301 60.9127 35.6238 60.9269 35.6191C60.9553 35.6081 60.9853 35.6002 61.0137 35.5923C61.0279 35.5876 61.0453 35.5844 61.0611 35.5797C61.0895 35.5734 61.1163 35.5687 61.1447 35.564C61.1684 35.5608 61.1842 35.5577 61.1984 35.5561C61.2268 35.5529 61.2552 35.5514 61.2821 35.5498C61.2994 35.5482 61.3531 35.5466 61.3531 35.5466H61.3657C61.3799 35.5466 61.4005 35.5482 61.421 35.5498C61.4462 35.5514 61.4605 35.5514 61.4747 35.5529L61.492 35.5545C61.5836 35.5655 61.6688 35.5844 61.7525 35.6112L61.7793 35.6207C61.8141 35.6333 61.8472 35.6459 61.8804 35.6616L61.9119 35.6774C61.9451 35.6947 61.9735 35.7089 62.0019 35.7262C62.013 35.7325 62.0272 35.7419 62.0414 35.7514C62.065 35.7671 62.0903 35.7845 62.114 35.8018C62.1313 35.8144 62.1424 35.8223 62.1535 35.8317C62.1771 35.8506 62.2008 35.8727 62.2245 35.8931C62.2371 35.9042 62.245 35.912 62.2529 35.9199C62.2845 35.9514 62.316 35.9861 62.3445 36.0207L62.3618 36.0428C62.3792 36.0648 62.3997 36.0932 62.4186 36.1231L62.4297 36.1388L64.9696 40.1708C65.3453 40.7662 65.1638 41.5553 64.5671 41.9301C64.3619 42.0577 64.1282 42.1254 63.8883 42.1254C63.4447 42.1254 63.0406 41.9018 62.8054 41.5285L62.3034 40.7315C62.144 41.7317 61.923 42.7286 61.6483 43.7067L61.6436 43.7272L61.6373 43.7492C61.5694 43.9886 61.4999 44.217 61.4289 44.4438C61.4289 44.4438 61.331 44.7541 61.3168 44.795C61.3058 44.8281 61.2931 44.8628 61.2821 44.8958L61.2568 44.9683C61.1874 45.1762 61.1132 45.3841 61.039 45.5904C61.039 45.5904 60.9711 45.7747 60.9427 45.8519C60.8527 46.0881 60.758 46.3291 60.6601 46.5669L60.6017 46.7102C60.4754 47.0126 60.346 47.3087 60.2134 47.5954L60.2071 47.6111C60.0871 47.8726 59.9561 48.1419 59.8061 48.4364L59.7177 48.6081C59.6025 48.8318 59.4809 49.0601 59.3578 49.2838L59.2599 49.4602C59.1194 49.709 58.9758 49.9563 58.8321 50.1926L58.7879 50.2682C58.6143 50.5532 58.4375 50.832 58.2623 51.095L58.2528 51.1092C58.0949 51.347 57.9292 51.5864 57.7429 51.8479L57.6893 51.9266C57.5961 52.0574 57.5014 52.1849 57.4051 52.3141L57.3814 52.3456C57.2441 52.5299 57.0926 52.7252 56.9173 52.9457L56.8842 52.9882C53.8975 56.7351 49.9274 59.5906 45.4033 61.2443L45.2817 61.2884C45.0481 61.3719 44.8145 61.4554 44.5777 61.5326C44.2414 61.6428 43.902 61.7483 43.5674 61.8444C41.2059 62.5217 38.7749 62.865 36.3423 62.865Z" fill="#187CFA"/>
<path d="M61.3484 35.8681C61.3515 35.8681 61.3531 35.8681 61.3563 35.8681C61.3752 35.8681 61.3942 35.8697 61.4131 35.8713C61.4226 35.8713 61.432 35.8713 61.4415 35.8728C61.4431 35.8728 61.4447 35.8728 61.4463 35.8744C61.5173 35.8823 61.5867 35.8965 61.6515 35.9185C61.6578 35.9201 61.6657 35.9232 61.672 35.9264C61.6972 35.9358 61.7225 35.9453 61.7462 35.9563C61.7556 35.961 61.7651 35.9658 61.7746 35.9705C61.7967 35.9815 61.8172 35.9925 61.8377 36.0051C61.8472 36.0114 61.8583 36.0177 61.8677 36.024C61.8867 36.0366 61.9056 36.0492 61.923 36.0634C61.9324 36.0713 61.9419 36.0776 61.9514 36.0855C61.9703 36.1012 61.9877 36.117 62.0051 36.1327C62.013 36.139 62.0208 36.1453 62.0272 36.1532C62.0508 36.1768 62.0745 36.202 62.095 36.2288C62.0982 36.2335 62.1014 36.2367 62.1045 36.2414C62.1219 36.265 62.1392 36.2886 62.155 36.3138C62.1566 36.317 62.1582 36.3186 62.1598 36.3217L64.6981 40.3506C64.9807 40.7994 64.8449 41.3932 64.395 41.6751C64.2356 41.7744 64.0588 41.8232 63.8836 41.8232C63.5631 41.8232 63.2506 41.6641 63.0674 41.3743L62.1061 39.8497C61.9451 41.1302 61.6878 42.3965 61.3342 43.6439C61.3326 43.6486 61.3326 43.6533 61.331 43.6581C61.3279 43.6675 61.3247 43.677 61.3231 43.6864C61.2584 43.9132 61.1905 44.1385 61.1195 44.3637C61.1037 44.4157 61.0863 44.4676 61.0706 44.5196C61.05 44.5826 61.0311 44.6472 61.009 44.7102C60.99 44.7669 60.9679 44.8236 60.949 44.8803C60.8795 45.0866 60.8069 45.2913 60.7327 45.4945C60.7012 45.5811 60.6696 45.6662 60.638 45.7528C60.548 45.9891 60.4565 46.2253 60.3602 46.4584C60.3413 46.5057 60.3223 46.5529 60.3034 46.6002C60.1802 46.8947 60.0524 47.1861 59.9198 47.4743C59.9166 47.479 59.915 47.4838 59.9119 47.4901C59.7856 47.7641 59.653 48.0366 59.5172 48.3043C59.4888 48.361 59.4588 48.4177 59.4304 48.4744C59.3152 48.6997 59.1968 48.9217 59.0752 49.1422C59.0437 49.2005 59.0105 49.2588 58.979 49.317C58.8416 49.5612 58.7011 49.8022 58.5575 50.04C58.5417 50.0652 58.5275 50.0904 58.5133 50.114C58.3444 50.3896 58.1723 50.6621 57.9939 50.9314C57.9892 50.9377 57.986 50.944 57.9813 50.9503C57.8187 51.1945 57.6514 51.4354 57.4809 51.6748C57.4619 51.7 57.4462 51.7268 57.4272 51.7536C57.3357 51.8827 57.2409 52.0087 57.1462 52.1363C57.1383 52.1458 57.132 52.1568 57.1241 52.1678C56.9742 52.3694 56.8195 52.5663 56.6648 52.7616C56.6537 52.7758 56.6427 52.7883 56.6332 52.8025C53.6686 56.5211 49.7822 59.3183 45.2896 60.961C45.2501 60.9752 45.2091 60.991 45.1681 61.0051C44.9376 61.0886 44.7055 61.1689 44.4719 61.2461C44.1404 61.3548 43.8073 61.4572 43.4743 61.5532C41.1364 62.2226 38.748 62.5597 36.3391 62.5597C36.0471 62.5597 35.7566 62.5534 35.4646 62.5439C35.4236 62.5423 35.3825 62.5423 35.3415 62.5408C35.3367 62.5408 35.3336 62.5408 35.3288 62.5408C35.3146 62.5408 35.302 62.5408 35.2878 62.5392C35.1536 62.5345 35.0194 62.5266 34.8853 62.5187C34.8474 62.5171 34.8095 62.5156 34.7732 62.5124C34.6453 62.5045 34.5175 62.4951 34.3896 62.4856C34.1339 62.4667 33.8781 62.4447 33.624 62.4179C33.5908 62.4148 33.5577 62.41 33.5245 62.4069C33.362 62.3896 33.1978 62.3707 33.0352 62.3486C33.0194 62.347 33.002 62.3455 32.9863 62.3423C32.9373 62.336 32.8884 62.3281 32.8394 62.3218C32.7116 62.3045 32.5837 62.2872 32.4559 62.2667C32.3706 62.2541 32.2869 62.2399 32.2017 62.2273C32.0959 62.21 31.9918 62.1927 31.8876 62.1754C31.7865 62.158 31.6871 62.1391 31.5861 62.1218C31.5024 62.1061 31.4172 62.0903 31.3335 62.073C31.2167 62.0494 31.0983 62.0257 30.9815 62.0021C30.9215 61.9895 30.8615 61.9769 30.8015 61.9627C30.6642 61.9328 30.5268 61.9029 30.3895 61.8698C30.3643 61.8635 30.3374 61.8572 30.3122 61.8509C29.2561 61.5989 28.2158 61.2808 27.1961 60.8965C27.1787 60.8902 27.1598 60.8823 27.1424 60.876C26.9956 60.8209 26.8504 60.7642 26.7051 60.7059C26.683 60.6964 26.6609 60.6886 26.6388 60.6807C26.6167 60.6712 26.5962 60.6634 26.5741 60.6539C26.4478 60.6019 26.32 60.55 26.1937 60.4964C26.1274 60.4681 26.0627 60.4397 25.9979 60.4114C25.889 60.3641 25.7801 60.3169 25.6712 60.2665C25.5907 60.2302 25.5102 60.1924 25.4312 60.1562C25.3602 60.1231 25.2892 60.0916 25.2181 60.0586C25.1913 60.046 25.1644 60.0318 25.1376 60.0192C25.0539 59.9798 24.9719 59.9389 24.8882 59.8979C24.8093 59.8585 24.7288 59.8207 24.6498 59.7814C24.6309 59.7719 24.6135 59.7625 24.5962 59.753C24.5488 59.7294 24.5014 59.7042 24.4525 59.679C21.5227 58.1764 18.9402 56.1667 16.7775 53.7003C14.487 51.0905 12.768 48.0822 11.6693 44.7606C11.524 44.3196 11.7151 43.8487 12.1034 43.6266C12.1586 43.5951 12.2186 43.5683 12.2818 43.5478C12.3765 43.5163 12.4728 43.5006 12.5675 43.499C12.5738 43.499 12.5785 43.499 12.5848 43.499C12.989 43.499 13.3647 43.7557 13.4988 44.1589C13.5999 44.4645 13.7088 44.7669 13.8209 45.0677C14.2092 46.1025 14.6622 47.1026 15.1816 48.0633C15.1847 48.0681 15.1879 48.0728 15.1911 48.0791C17.4879 52.3143 21.0397 55.7651 25.3286 57.9685C25.3744 57.9922 25.4202 58.0158 25.466 58.0394C25.5544 58.0851 25.6443 58.1276 25.7343 58.1717C25.8117 58.2095 25.889 58.2489 25.9679 58.2851C26.0579 58.3276 26.1479 58.3702 26.2395 58.4111C26.3136 58.4458 26.3878 58.4804 26.462 58.5135C26.5631 58.5592 26.6657 58.6033 26.7667 58.6474C26.8267 58.6726 26.8851 58.6993 26.9451 58.7245C27.0635 58.7749 27.1819 58.8238 27.3003 58.8726C27.3397 58.8883 27.3776 58.9041 27.4171 58.9198C27.5528 58.975 27.6902 59.0269 27.8259 59.0789C27.8401 59.0852 27.8559 59.0899 27.8701 59.0962C28.8173 59.4522 29.7802 59.7467 30.7557 59.9798C30.781 59.9861 30.8062 59.9924 30.8315 59.9987C30.9562 60.0286 31.0825 60.0554 31.2088 60.0838C31.2656 60.0964 31.3224 60.109 31.3808 60.1216C31.4882 60.1436 31.5955 60.1657 31.7013 60.1861C31.7802 60.2019 31.8592 60.2176 31.9397 60.2318C32.0312 60.2491 32.1228 60.2649 32.2143 60.2806C32.3138 60.298 32.4132 60.3137 32.5127 60.3295C32.5885 60.3421 32.6642 60.3547 32.7416 60.3657C32.8631 60.3846 32.9847 60.4003 33.1062 60.4177C33.1631 60.4255 33.2199 60.4334 33.2783 60.4413C33.4346 60.4618 33.5908 60.4791 33.7471 60.4964C33.7724 60.4996 33.7976 60.5027 33.8229 60.5059C34.0123 60.5263 34.2017 60.5437 34.3912 60.5594C34.5774 60.5752 34.7637 60.5878 34.95 60.5972C35.0194 60.6019 35.0889 60.6035 35.1584 60.6067C35.272 60.613 35.3841 60.6177 35.4978 60.6208C35.5956 60.624 35.6919 60.6271 35.7898 60.6287C35.8766 60.6303 35.9634 60.6319 36.0518 60.6334C36.1434 60.635 36.2365 60.635 36.3281 60.635C36.3454 60.635 36.3612 60.635 36.3786 60.635C36.4528 60.635 36.527 60.635 36.6012 60.6334C36.7196 60.6319 36.838 60.6303 36.9564 60.6271C37.0179 60.6256 37.0795 60.624 37.141 60.6208C37.2689 60.6161 37.3968 60.6114 37.5246 60.6051C37.572 60.6035 37.6178 60.6004 37.6651 60.5972C37.8072 60.5893 37.9493 60.5815 38.0898 60.5704C38.104 60.5689 38.1166 60.5689 38.1308 60.5673C38.7938 60.5169 39.4536 60.4397 40.1119 60.3342C40.1577 60.3263 40.205 60.32 40.2508 60.3121C40.3739 60.2917 40.4971 60.2696 40.6202 60.2476C40.6849 60.235 40.7496 60.2239 40.8144 60.2113C40.9264 60.1893 41.0385 60.1672 41.1506 60.1436C41.2264 60.1279 41.3037 60.1121 41.3795 60.0948C41.4837 60.0727 41.5863 60.0491 41.6905 60.0255C41.7773 60.005 41.8625 59.9845 41.9494 59.9641C42.0441 59.9404 42.1388 59.9184 42.2335 59.8948C42.3314 59.8696 42.4277 59.8444 42.5255 59.8176C42.6108 59.7955 42.6944 59.7735 42.7797 59.7499C42.8949 59.7184 43.0102 59.6837 43.1254 59.6506C43.1917 59.6302 43.2596 59.6113 43.3259 59.5924C43.509 59.5372 43.6921 59.479 43.8736 59.4191C44.1467 59.3293 44.4151 59.2333 44.6834 59.1356C44.786 59.0978 44.8871 59.0584 44.9881 59.0191C45.146 58.9592 45.3022 58.8962 45.4585 58.8332C45.5911 58.7797 45.7221 58.7245 45.8532 58.6678C45.9589 58.6222 46.0631 58.5749 46.1689 58.5292C49.5975 56.9968 52.5842 54.702 54.9252 51.8544C55.0199 51.7378 55.1162 51.6229 55.2093 51.5047C55.2804 51.415 55.3498 51.3236 55.4209 51.2322C55.5392 51.0779 55.6561 50.922 55.7713 50.7645C55.8234 50.6936 55.8755 50.6227 55.926 50.5519C56.0744 50.3424 56.2212 50.1313 56.3633 49.9187C56.3743 49.9014 56.3869 49.8856 56.398 49.8683C56.5606 49.6226 56.7184 49.3722 56.8731 49.1202C56.8905 49.0918 56.9063 49.0635 56.9237 49.0367C57.0547 48.8193 57.1825 48.602 57.3057 48.3815C57.3372 48.3248 57.3688 48.2697 57.3988 48.213C57.5109 48.0114 57.6182 47.8066 57.724 47.6019C57.7524 47.5483 57.7808 47.4932 57.8077 47.4397C57.9324 47.1924 58.0539 46.9435 58.1707 46.6915C58.1739 46.6852 58.177 46.6789 58.1802 46.6726C58.3033 46.4049 58.4217 46.1356 58.5354 45.8647C58.5527 45.8221 58.5701 45.778 58.5875 45.7339C58.6774 45.5166 58.7627 45.2977 58.8464 45.0787C58.8763 45 58.9048 44.9212 58.9332 44.8425C59.0026 44.6519 59.0689 44.4613 59.1337 44.2692C59.17 44.1589 59.2078 44.0502 59.2441 43.9384C59.2599 43.8896 59.2757 43.8392 59.2915 43.7904C59.3562 43.584 59.4194 43.3762 59.4778 43.1683C59.8266 41.9413 60.0761 40.6923 60.2244 39.4308L58.6932 41.0499C58.5038 41.2499 58.2481 41.3507 57.9923 41.3507C57.7556 41.3507 57.5172 41.2641 57.3309 41.0892C56.9442 40.7254 56.9268 40.1175 57.2915 39.7316L60.6491 36.1815C60.6522 36.1784 60.6554 36.1752 60.6585 36.1721C60.6759 36.1548 60.6949 36.1374 60.7138 36.1201C60.7201 36.1138 60.7264 36.1075 60.7343 36.1012C60.7612 36.0792 60.788 36.0587 60.8164 36.0398C60.8196 36.0366 60.8243 36.0351 60.8274 36.0335C60.8527 36.0177 60.878 36.002 60.9048 35.9878C60.9143 35.9831 60.9222 35.9799 60.9316 35.9752C60.9537 35.9642 60.9758 35.9547 60.9979 35.9453C61.009 35.9406 61.02 35.9374 61.0311 35.9327C61.0516 35.9248 61.0737 35.9185 61.0958 35.9122C61.1084 35.9091 61.1195 35.9059 61.1321 35.9028C61.1526 35.898 61.1747 35.8949 61.1953 35.8902C61.2095 35.8886 61.2221 35.8854 61.2363 35.8839C61.2568 35.8807 61.2773 35.8807 61.2994 35.8791C61.3137 35.8791 61.3279 35.8776 61.3421 35.8776C61.3436 35.8681 61.3452 35.8681 61.3484 35.8681ZM61.3484 35.2381H61.3247L61.3105 35.2397C61.2963 35.2397 61.2837 35.2413 61.271 35.2413C61.2316 35.2428 61.1968 35.246 61.1621 35.2491C61.1416 35.2523 61.1211 35.2554 61.1005 35.2586C61.0595 35.2649 61.0248 35.2712 60.99 35.2791C60.9695 35.2838 60.949 35.2885 60.9285 35.2948C60.8922 35.3043 60.8574 35.3153 60.8211 35.3279C60.8022 35.3342 60.7848 35.3405 60.7675 35.3484C60.7296 35.3625 60.6933 35.3799 60.657 35.3972C60.6412 35.4051 60.627 35.4114 60.6128 35.4192C60.5733 35.4397 60.5338 35.4633 60.4944 35.487C60.4849 35.4933 60.4739 35.4996 60.4644 35.5059C60.4186 35.5358 60.3728 35.5704 60.3286 35.6067C60.3144 35.6177 60.3034 35.6287 60.2907 35.6397C60.2671 35.6602 60.2418 35.6838 60.2165 35.709C60.2071 35.7185 60.1976 35.7264 60.1897 35.7358L56.8305 39.2874C56.2275 39.9253 56.2559 40.9349 56.8952 41.5365C57.192 41.8169 57.5803 41.9697 57.9892 41.9697C58.4265 41.9697 58.8495 41.7886 59.1494 41.4704L59.2694 41.3428C59.1542 41.8957 59.02 42.4437 58.8669 42.984C58.8116 43.1761 58.7532 43.3746 58.6853 43.5903C58.6711 43.6344 58.6569 43.6785 58.6427 43.7226L58.638 43.7353C58.6111 43.8172 58.5843 43.8975 58.5575 43.9794L58.5306 44.0565C58.4659 44.2471 58.3996 44.4361 58.3349 44.6141L58.327 44.6361C58.3017 44.7054 58.2765 44.7763 58.2497 44.8456C58.1691 45.0567 58.0855 45.2724 57.9987 45.4835L57.9734 45.5481C57.9655 45.5685 57.956 45.5906 57.9481 45.6111C57.8345 45.882 57.7193 46.1466 57.6024 46.3986L57.593 46.4175C57.4856 46.6506 57.3704 46.8884 57.2394 47.1467C57.222 47.1798 57.2046 47.2128 57.1889 47.2459L57.1589 47.3042C57.0547 47.5058 56.9489 47.7058 56.8416 47.8995L56.8274 47.9263C56.8021 47.972 56.7768 48.0177 56.7516 48.0649C56.63 48.2823 56.5038 48.4965 56.379 48.7028L56.3522 48.7485L56.3301 48.7847C56.1786 49.032 56.0239 49.2777 55.8676 49.5124L55.8565 49.5281L55.8344 49.5612C55.7034 49.7581 55.5645 49.9596 55.4082 50.1786C55.3688 50.2337 55.3277 50.2904 55.2867 50.3455L55.2583 50.3849C55.1541 50.5282 55.042 50.6779 54.9173 50.8417L54.8794 50.8905C54.8242 50.9629 54.7689 51.0354 54.7121 51.1063C54.6363 51.2023 54.559 51.2952 54.4832 51.3897L54.4358 51.4465C52.1501 54.2279 49.2013 56.4754 45.9116 57.9449L45.8516 57.9717C45.7695 58.0079 45.6874 58.0441 45.6053 58.0804C45.4775 58.1355 45.348 58.189 45.2202 58.241C45.0686 58.3024 44.9155 58.3639 44.7624 58.4221L44.6913 58.4489C44.6156 58.4773 44.5414 58.5072 44.4656 58.5355C44.1657 58.6458 43.9163 58.734 43.6779 58.8127C43.509 58.8679 43.3338 58.923 43.1443 58.9813C43.1049 58.9939 43.0654 59.0049 43.0244 59.0159L42.9486 59.038C42.8365 59.071 42.7244 59.1041 42.6124 59.1356C42.5476 59.1529 42.4845 59.1703 42.4198 59.1876L42.3661 59.2018C42.2714 59.227 42.1767 59.2522 42.082 59.2758C41.9904 59.2994 41.8973 59.3215 41.8041 59.3435C41.7205 59.364 41.6368 59.3845 41.5531 59.4034C41.4521 59.427 41.3511 59.449 41.2501 59.4711C41.1759 59.4868 41.1017 59.5026 41.0275 59.5183C40.9186 59.5404 40.8096 59.5624 40.7007 59.5829C40.6518 59.5924 40.6028 59.6018 40.5539 59.6097L40.5113 59.6176C40.3913 59.6396 40.2713 59.6617 40.153 59.6806C40.1261 59.6853 40.1009 59.6884 40.0756 59.6932L40.0172 59.7026C39.3747 59.805 38.7259 59.8822 38.0882 59.9294L38.0629 59.931L38.0487 59.9326C37.9114 59.942 37.7725 59.9515 37.6351 59.9578L37.5783 59.9609L37.4978 59.9656C37.3731 59.9719 37.2484 59.9767 37.1237 59.9814L37.0953 59.983C37.0448 59.9845 36.9942 59.9861 36.9437 59.9877C36.8285 59.9908 36.7133 59.9924 36.598 59.994C36.527 59.994 36.4544 59.9956 36.3818 59.9956H36.3328C36.2428 59.9956 36.1544 59.9956 36.0645 59.994C35.9792 59.9924 35.8956 59.9908 35.8103 59.9893C35.7156 59.9877 35.6209 59.9845 35.5262 59.9814C35.4172 59.9782 35.3067 59.9719 35.1962 59.9672L35.1252 59.9641C35.081 59.9625 35.0368 59.9593 34.9926 59.9578C34.7953 59.9467 34.6185 59.9341 34.4496 59.92C34.2696 59.9058 34.0834 59.8885 33.8955 59.868L33.8624 59.8648L33.8213 59.8601C33.6682 59.8444 33.5167 59.8255 33.3651 59.8066C33.3304 59.8018 33.2957 59.7971 33.2593 59.7924L33.1978 59.7845C33.0794 59.7688 32.961 59.7514 32.8426 59.7341C32.7716 59.7231 32.7021 59.7121 32.6311 59.701L32.62 59.6995C32.5237 59.6837 32.4259 59.668 32.3296 59.6506C32.2412 59.6349 32.1512 59.6191 32.0628 59.6018C31.9854 59.5876 31.9081 59.5719 31.8307 59.5577C31.7266 59.5372 31.6224 59.5168 31.5182 59.4947C31.4756 59.4853 31.4345 59.4774 31.3935 59.4679L31.3509 59.4585C31.2293 59.4317 31.1062 59.4049 30.9846 59.3766L30.9483 59.3671L30.9104 59.3577C29.9617 59.1309 29.0162 58.8411 28.1006 58.4977L28.0801 58.4899L28.058 58.482C27.9238 58.4316 27.7912 58.3796 27.6586 58.3261L27.5449 58.2804C27.4281 58.2331 27.3129 58.1859 27.1976 58.1371C27.1392 58.1119 27.0824 58.0882 27.024 58.063C26.9246 58.0205 26.8251 57.9764 26.7272 57.9323C26.6625 57.9024 26.5962 57.8724 26.5315 57.8425L26.5094 57.8331L26.4873 57.8221C26.4068 57.7843 26.3263 57.748 26.2458 57.7087C26.1874 57.6819 26.1305 57.6535 26.0737 57.6252L26.02 57.5984L25.9553 57.5669C25.889 57.5354 25.8243 57.5023 25.758 57.4693C25.7327 57.4567 25.7091 57.4441 25.6854 57.4315L25.6238 57.4C21.4059 55.2327 17.9914 51.9016 15.7514 47.7704C15.7451 47.7594 15.7404 47.7499 15.7341 47.7405C15.2353 46.8175 14.7933 45.841 14.416 44.8393C14.2944 44.5149 14.1918 44.2251 14.1018 43.9542C13.8856 43.3005 13.2778 42.8627 12.588 42.8611H12.5596C12.4001 42.8643 12.2407 42.8911 12.0876 42.9415C11.985 42.9745 11.8855 43.0186 11.794 43.0722C11.1405 43.4454 10.8374 44.2361 11.0742 44.9511C12.1997 48.3531 13.9598 51.4339 16.3071 54.1082C18.5203 56.6314 21.1659 58.6915 24.17 60.2318L24.2252 60.2602C24.2552 60.2759 24.2852 60.2917 24.3152 60.3074L24.3325 60.3169L24.3704 60.3358C24.4225 60.3625 24.4746 60.3877 24.5267 60.4129L24.6135 60.4555L24.6672 60.4822C24.7335 60.5153 24.8014 60.5484 24.8677 60.5799L24.8977 60.5941C24.915 60.6019 24.9324 60.6114 24.9498 60.6193C24.9955 60.6413 25.0413 60.6618 25.0855 60.6823L25.1676 60.7201L25.2008 60.7358C25.2718 60.7689 25.3428 60.802 25.4139 60.8335C25.5244 60.8839 25.6364 60.9327 25.7485 60.9815C25.8164 61.0099 25.8827 61.0398 25.949 61.0681C26.0784 61.1233 26.2079 61.1768 26.3373 61.2288L26.361 61.2382L26.4036 61.2556L26.4478 61.2729L26.4715 61.2823C26.6199 61.3422 26.7699 61.4005 26.9198 61.4572L26.9545 61.4698L26.9751 61.4776C28.0153 61.8698 29.0888 62.1974 30.1669 62.4541L30.1969 62.462L30.2459 62.473C30.3864 62.5061 30.5268 62.5376 30.6673 62.5675L30.7021 62.5754C30.7526 62.5864 30.8015 62.5975 30.852 62.6085C30.972 62.6337 31.092 62.6573 31.2119 62.6809C31.2972 62.6983 31.384 62.714 31.4692 62.7298C31.5719 62.7487 31.6745 62.7676 31.7786 62.7849C31.886 62.8038 31.9933 62.8211 32.1007 62.8384L32.1244 62.8416C32.2033 62.8542 32.2806 62.8668 32.3596 62.8794C32.4906 62.8999 32.6216 62.9172 32.7526 62.9345L32.811 62.9424C32.841 62.9471 32.8726 62.9518 32.9026 62.955L32.9389 62.9597L32.9531 62.9613C33.1189 62.9833 33.2862 63.0022 33.4535 63.0196L33.493 63.0243C33.5135 63.0274 33.534 63.029 33.5561 63.0306C33.8008 63.0558 34.0581 63.0794 34.3407 63.0999H34.3501C34.478 63.1093 34.6059 63.1188 34.7337 63.1267C34.7574 63.1282 34.7811 63.1298 34.8048 63.1298L34.8505 63.1314C34.9879 63.1393 35.1252 63.1471 35.2625 63.1519L35.2925 63.1534H35.3036H35.3178C35.3431 63.155 35.3683 63.155 35.3936 63.155L35.4425 63.1566C35.7677 63.1676 36.0613 63.1723 36.3391 63.1723C38.8017 63.1723 41.2611 62.8258 43.6479 62.1407C43.9889 62.0431 44.3314 61.9375 44.6692 61.8257C44.8855 61.7548 45.1112 61.6761 45.3812 61.5784L45.4064 61.569L45.5059 61.5328C50.0837 59.8585 54.1028 56.9684 57.1257 53.1758L57.1478 53.1474L57.1573 53.1349C57.3357 52.9096 57.4904 52.7112 57.6277 52.5269L57.6451 52.5033L57.6514 52.4954C57.7477 52.3663 57.844 52.2355 57.9387 52.1048C57.9513 52.0875 57.9639 52.0686 57.9766 52.0497L57.9939 52.0245C58.1802 51.763 58.3475 51.5205 58.5054 51.2826L58.5196 51.2622C58.6948 50.9976 58.8732 50.7157 59.05 50.4274C59.0595 50.4117 59.0689 50.3959 59.0784 50.3786L59.0958 50.3503C59.2394 50.1124 59.3846 49.8636 59.5283 49.61C59.5567 49.5596 59.5851 49.5076 59.6135 49.4572L59.6277 49.432C59.7509 49.2084 59.874 48.9784 59.9924 48.7485L60.0224 48.6902C60.0429 48.6524 60.0618 48.613 60.0824 48.5736C60.2323 48.276 60.3649 48.0035 60.4881 47.7389L60.496 47.7247C60.6286 47.4365 60.7612 47.1357 60.889 46.8301C60.9016 46.8002 60.9127 46.7719 60.9253 46.7419L60.9474 46.6852C61.0469 46.4427 61.1432 46.1985 61.2316 45.9623C61.2616 45.8851 61.29 45.8064 61.3184 45.7292L61.3294 45.6993C61.4052 45.4929 61.4794 45.2803 61.5504 45.0693C61.5583 45.0472 61.5662 45.0252 61.5741 45.0031C61.5867 44.9669 61.5994 44.9323 61.612 44.896C61.6262 44.8551 61.6388 44.8125 61.6515 44.77L61.6736 44.6992L61.683 44.6692C61.6972 44.6267 61.7099 44.5826 61.7241 44.5401C61.7983 44.3022 61.8693 44.0691 61.9324 43.8471L61.9403 43.8187L61.9467 43.7967L61.9498 43.7856C62.1535 43.0643 62.3271 42.3319 62.4676 41.5948L62.5339 41.7003C62.8275 42.1665 63.3326 42.4453 63.8851 42.4453C64.1851 42.4453 64.4787 42.3603 64.7328 42.2012C65.4779 41.735 65.7021 40.7506 65.2348 40.0072L62.6965 35.9784L62.6823 35.9563L62.6744 35.9469C62.6539 35.9154 62.6318 35.8854 62.6097 35.8571C62.6018 35.8476 62.5955 35.8366 62.5876 35.8272C62.5528 35.7846 62.5149 35.7421 62.4755 35.7027C62.4628 35.6901 62.4502 35.6775 62.4376 35.6665C62.4108 35.6413 62.3808 35.6145 62.3508 35.5893C62.3366 35.5783 62.3224 35.5673 62.3081 35.5563C62.2734 35.5311 62.2434 35.509 62.2119 35.4885C62.1945 35.4775 62.1771 35.4665 62.1613 35.457C62.1282 35.4381 62.0935 35.4192 62.0587 35.4019C62.0414 35.3925 62.0272 35.3862 62.013 35.3799C61.9751 35.3625 61.9356 35.3468 61.893 35.331C61.8788 35.3263 61.8661 35.3216 61.8535 35.3169C61.7509 35.2822 61.6467 35.2586 61.5394 35.246L61.5347 35.2444L61.5062 35.2413C61.4857 35.2397 61.4668 35.2381 61.4478 35.2381C61.4194 35.2365 61.391 35.235 61.3626 35.2334H61.3594L61.3484 35.2381Z" fill="#187CFA"/>
<path d="M11.3086 37.7046C11.2913 37.7046 11.2786 37.703 11.2644 37.703H11.2486C11.2297 37.703 11.2107 37.7014 11.1918 37.6999L11.1713 37.6967C11.0829 37.6873 10.9961 37.6668 10.9108 37.64L10.884 37.6306C10.8493 37.618 10.8161 37.6054 10.783 37.5896L10.7514 37.5739C10.7182 37.5581 10.6898 37.5424 10.663 37.5266C10.6504 37.5187 10.6377 37.5109 10.6235 37.503C10.5967 37.4857 10.573 37.4683 10.5493 37.451C10.5351 37.4416 10.5241 37.4321 10.5114 37.4227C10.4862 37.4022 10.4625 37.3801 10.4388 37.3581C10.4278 37.3486 10.4199 37.3408 10.4104 37.3329C10.3773 37.2998 10.3473 37.2667 10.3189 37.2321L10.3015 37.21C10.2841 37.188 10.2636 37.1596 10.2431 37.1297L10.2352 37.1171L7.69212 33.082C7.51059 32.7937 7.45218 32.452 7.52795 32.1196C7.60372 31.7873 7.8042 31.5038 8.09466 31.3227C8.29829 31.1951 8.5335 31.1274 8.77344 31.1274C9.21702 31.1274 9.62113 31.351 9.85634 31.7243L10.3583 32.5213C10.5777 31.1463 10.9092 29.7839 11.3465 28.4593C12.1863 25.911 13.4065 23.5123 14.9741 21.3325C18.2306 16.8012 22.7643 13.4795 28.0872 11.7265C28.2861 11.6604 28.4866 11.599 28.6855 11.5375C28.7313 11.5234 28.9065 11.473 28.9065 11.473C29.0312 11.4367 29.1575 11.3989 29.2822 11.3643C29.3548 11.3438 29.4258 11.3249 29.4985 11.306L29.5774 11.2855C29.6784 11.2588 29.7779 11.232 29.8789 11.2068C29.9831 11.18 30.0873 11.1548 30.1914 11.1296C30.2846 11.1076 30.3793 11.0839 30.4724 11.0635C30.5861 11.0367 30.6997 11.0115 30.8134 10.9879C30.8955 10.9705 30.9791 10.9532 31.0612 10.9359C31.1844 10.9107 31.3075 10.8855 31.4322 10.8619L31.6406 10.8241C31.7763 10.7989 31.9121 10.7752 32.0478 10.7516L32.1962 10.728C32.9224 10.6114 33.6564 10.5248 34.3794 10.4713L34.4062 10.4697C34.5657 10.4587 34.7235 10.4492 34.8829 10.4398L35.0234 10.4319C35.1671 10.4256 35.3092 10.4193 35.4528 10.4146L35.647 10.4083C35.7796 10.4051 35.9106 10.402 36.0432 10.402C36.1205 10.4004 36.3258 10.4004 36.3258 10.4004C36.4315 10.4004 36.5357 10.4004 36.6415 10.402C36.733 10.4035 36.8246 10.4051 36.9161 10.4067C37.0266 10.4098 37.1371 10.4114 37.2461 10.4161L37.3297 10.4177C37.3897 10.4193 37.4497 10.4224 37.5097 10.4256C37.5097 10.4256 37.7891 10.4382 37.8443 10.4429C38.2516 10.4665 38.6636 10.4996 39.0693 10.5421L39.1798 10.5547C39.3424 10.5721 39.5034 10.591 39.666 10.6114L39.8681 10.6382C39.9959 10.6555 40.1238 10.6729 40.2501 10.6918C40.3306 10.7044 40.5121 10.7327 40.5121 10.7327C40.6163 10.75 40.7205 10.7674 40.8247 10.7847C40.9289 10.802 41.0315 10.8209 41.1341 10.8398C41.2177 10.8556 41.3014 10.8713 41.3835 10.8871C41.5035 10.9107 41.6234 10.9343 41.7434 10.9595L41.9218 10.9973C42.0623 11.0272 42.2028 11.0587 42.3433 11.0918L42.4143 11.1091C43.483 11.3643 44.5485 11.6903 45.5809 12.0778L45.6251 12.0935C45.7766 12.1502 45.9266 12.2101 46.0766 12.2699L46.1981 12.3187C46.3307 12.3723 46.4617 12.4274 46.5928 12.4825C46.6543 12.5093 46.7175 12.5361 46.779 12.5629C46.8943 12.6133 47.0079 12.6621 47.1216 12.7141C47.1816 12.7408 47.3536 12.8212 47.3536 12.8212L47.3884 12.8369C47.4799 12.8794 47.5699 12.9204 47.6599 12.9645C47.7214 12.9944 47.7814 13.0228 47.8414 13.0527L47.9882 13.1251C48.0419 13.1503 48.0956 13.1771 48.1492 13.2039L48.3276 13.2968C51.3048 14.8214 53.9252 16.8595 56.1178 19.359C58.4367 22.0018 60.1763 25.0463 61.2876 28.4074C61.395 28.7302 61.3697 29.0767 61.215 29.3807C61.0619 29.6847 60.7983 29.9115 60.4747 30.0186C60.3452 30.0611 60.2095 30.0832 60.0737 30.0832C59.5212 30.0832 59.0334 29.7319 58.8598 29.2075C58.4194 27.8766 57.8622 26.5835 57.2023 25.3629C57.1976 25.355 57.1928 25.3471 57.1881 25.3377C54.9165 21.1466 51.4532 17.7698 47.1737 15.5727L47.0474 15.5081C46.9811 15.475 46.9132 15.442 46.8469 15.4089C46.8469 15.4089 46.6085 15.2923 46.5533 15.2656C46.4681 15.2246 46.3828 15.1852 46.296 15.1459L46.266 15.1317C46.1997 15.1002 46.1318 15.0703 46.0655 15.0403C45.9645 14.9947 45.8635 14.9506 45.7624 14.9065L45.5872 14.8309C45.4704 14.782 45.3536 14.7332 45.2352 14.6844L45.1263 14.6403C44.9858 14.5852 44.8516 14.5316 44.7158 14.4796L44.6732 14.4639C43.7434 14.1142 42.7821 13.8197 41.8176 13.5898L41.7529 13.574C41.6266 13.5441 41.4987 13.5157 41.3724 13.489L41.213 13.4543C41.1041 13.4307 40.9967 13.4102 40.8878 13.3882C40.812 13.374 40.7379 13.3582 40.6621 13.3456C40.5689 13.3283 40.4758 13.311 40.3827 13.2952C40.288 13.2795 40.1932 13.2637 40.0985 13.248C40.018 13.2354 39.9407 13.2228 39.8649 13.2118C39.7481 13.1944 39.6329 13.1787 39.516 13.1629L39.3361 13.1377C39.1877 13.1188 39.0393 13.1015 38.8893 13.0858L38.7978 13.0747C38.6115 13.0558 38.4253 13.0385 38.239 13.0228C38.0559 13.0086 37.8728 12.996 37.6896 12.985C37.6391 12.9818 37.4718 12.9739 37.4718 12.9739C37.3645 12.9692 37.2571 12.9629 37.1498 12.9598C37.0519 12.9566 36.954 12.9535 36.8562 12.9519C36.7709 12.9503 36.6857 12.9487 36.602 12.9472C36.5104 12.9456 36.4173 12.9456 36.3258 12.9456C36.3258 12.9456 36.1316 12.9456 36.0574 12.9472C35.9422 12.9487 35.8285 12.9503 35.7133 12.9535C35.6564 12.955 35.5207 12.9598 35.5207 12.9598C35.3976 12.9645 35.2744 12.9692 35.1513 12.9739L34.9998 12.9818C34.864 12.9897 34.7298 12.9976 34.5956 13.007L34.5293 13.0117C34.0258 13.0495 33.5222 13.1047 33.0297 13.174L32.9666 12.8653L33.0108 13.1771C32.8766 13.196 32.744 13.2165 32.6098 13.2385L32.4551 13.2622C32.3367 13.2811 32.2199 13.3031 32.1015 13.3252L31.8995 13.363C31.7905 13.3834 31.6832 13.4055 31.5743 13.4275C31.4969 13.4433 31.418 13.459 31.3406 13.4764C31.2396 13.4984 31.1402 13.5205 31.0391 13.5425C30.9523 13.563 30.8655 13.5835 30.7787 13.6039C30.6855 13.626 30.594 13.648 30.5008 13.6717C30.403 13.6969 30.3067 13.7221 30.2088 13.7488L30.163 13.7614C30.0951 13.7788 30.0273 13.7977 29.961 13.8166C29.8473 13.8481 29.7321 13.8811 29.6184 13.9158C29.6184 13.9158 29.4621 13.9615 29.4211 13.9741C29.2411 14.0292 29.0596 14.0859 28.8797 14.1457C24.0745 15.7286 19.9813 18.7258 17.0436 22.8161C15.6292 24.7849 14.5257 26.9521 13.768 29.2531C13.3765 30.4423 13.0782 31.6676 12.8793 32.9056L13.7317 32.0047C13.9717 31.7511 14.3111 31.6046 14.6615 31.6046C14.9898 31.6046 15.3008 31.7275 15.5392 31.9527C16.0522 32.4346 16.0759 33.2442 15.5913 33.7561L12.2258 37.314L12.2116 37.3266C12.2005 37.3376 12.1831 37.3549 12.1658 37.3707C12.15 37.3849 12.1389 37.3959 12.1263 37.4069C12.1074 37.4227 12.0869 37.4384 12.0663 37.4542C12.049 37.4668 12.0395 37.4746 12.0284 37.4825C12.0032 37.4998 11.9779 37.5156 11.9527 37.5298C11.94 37.5376 11.9322 37.5424 11.9227 37.5471C11.8895 37.5644 11.8564 37.5802 11.8248 37.5959L11.8059 37.6038C11.648 37.6715 11.4791 37.7062 11.3055 37.7062H11.3086V37.7046Z" fill="#187CFA"/>
<path d="M36.3384 10.7091C36.4395 10.7091 36.5405 10.7091 36.6415 10.7107C36.7315 10.7123 36.823 10.7138 36.913 10.7154C37.0219 10.7186 37.1309 10.7201 37.2398 10.7249C37.2666 10.7264 37.295 10.7264 37.3219 10.7264C37.4103 10.7296 37.5002 10.7359 37.5886 10.739C37.6692 10.7438 37.7497 10.7469 37.8302 10.7516C38.2343 10.7753 38.6384 10.8083 39.0394 10.8493C39.0757 10.8524 39.112 10.8572 39.1483 10.8619C39.3093 10.8792 39.4687 10.8981 39.6297 10.9186C39.696 10.9265 39.7623 10.9375 39.8302 10.9454C39.9565 10.9627 40.0828 10.98 40.2091 10.9989C40.2959 11.0115 40.3811 11.0257 40.468 11.0399C40.5706 11.0572 40.6748 11.0729 40.7774 11.0918C40.88 11.1092 40.981 11.1281 41.0836 11.147C41.1657 11.1627 41.2478 11.1785 41.3314 11.1942C41.4498 11.2178 41.5682 11.2415 41.6866 11.2667C41.745 11.2793 41.8034 11.2919 41.8618 11.3045C42.0007 11.3344 42.1397 11.3659 42.2786 11.3974C42.3023 11.4021 42.3259 11.4084 42.348 11.4147C43.4088 11.6667 44.4523 11.9864 45.4752 12.3723C45.4894 12.3786 45.5052 12.3833 45.5194 12.3881C45.6693 12.4448 45.8177 12.503 45.9661 12.5613C45.9866 12.5692 46.0071 12.5771 46.0277 12.5849C46.0482 12.5928 46.0671 12.6023 46.0877 12.6101C46.2171 12.6621 46.3481 12.7172 46.476 12.7708C46.5376 12.7976 46.6007 12.8243 46.6623 12.8511C46.7743 12.8999 46.8864 12.9488 46.9985 12.9992C47.0758 13.0338 47.1516 13.07 47.229 13.1047C47.33 13.1519 47.431 13.1976 47.532 13.2464C47.611 13.2842 47.6899 13.3236 47.7673 13.3614C47.8493 13.4024 47.933 13.4417 48.0151 13.4827C48.034 13.4921 48.053 13.5032 48.0719 13.5126C48.1114 13.5331 48.1524 13.5536 48.1919 13.574C51.1312 15.0782 53.72 17.091 55.889 19.5638C58.1795 22.1735 59.8985 25.1818 60.9972 28.5035C61.1646 29.0075 60.8899 29.5508 60.3847 29.7162C60.2853 29.7493 60.1827 29.765 60.0832 29.765C59.6791 29.765 59.3034 29.5083 59.1692 29.1051C58.7194 27.7443 58.1558 26.4418 57.4865 25.2023C57.4833 25.196 57.4802 25.1912 57.477 25.1865C55.1755 20.9482 51.619 17.4974 47.3253 15.2924C47.2826 15.2703 47.24 15.2483 47.1974 15.2262C47.1058 15.1805 47.0143 15.1364 46.9227 15.0908C46.847 15.053 46.7712 15.0167 46.6954 14.9805C46.6039 14.9364 46.5123 14.8955 46.4207 14.8529C46.3481 14.8199 46.2739 14.7852 46.2013 14.7521C46.0987 14.7065 45.9977 14.6608 45.8951 14.6167C45.8367 14.5915 45.7767 14.5663 45.7183 14.5411C45.5999 14.4907 45.4815 14.4419 45.3615 14.393C45.3236 14.3773 45.2842 14.3615 45.2463 14.3474C45.1089 14.2922 44.9732 14.2387 44.8359 14.1867C44.8216 14.182 44.8074 14.1757 44.7932 14.171C43.8445 13.8134 42.8784 13.5189 41.8997 13.2858C41.8776 13.2811 41.8555 13.2748 41.8334 13.2701C41.7056 13.2401 41.5761 13.2118 41.4482 13.1834C41.3946 13.1724 41.3409 13.1598 41.2857 13.1488C41.1767 13.1252 41.0662 13.1031 40.9557 13.0826C40.88 13.0685 40.8026 13.0527 40.7268 13.0385C40.6321 13.0212 40.539 13.0039 40.4443 12.9881C40.348 12.9708 40.2517 12.9551 40.1554 12.9393C40.0765 12.9267 39.9975 12.9141 39.9186 12.9015C39.8018 12.8842 39.6834 12.8669 39.565 12.8511C39.5035 12.8432 39.4435 12.8338 39.3819 12.8259C39.2319 12.807 39.0804 12.7897 38.9289 12.7724C38.8973 12.7692 38.8673 12.7645 38.8357 12.7613C38.6479 12.7409 38.4584 12.7235 38.269 12.7078C38.0843 12.692 37.8981 12.681 37.7134 12.67C37.6407 12.6653 37.5666 12.6621 37.4924 12.659C37.3834 12.6542 37.2745 12.6479 37.1656 12.6448C37.0661 12.6416 36.9667 12.6385 36.8672 12.6369C36.7804 12.6353 36.6952 12.6338 36.6084 12.6322C36.5152 12.6306 36.4237 12.6306 36.3305 12.6306C36.3147 12.6306 36.299 12.6306 36.2832 12.6306C36.2074 12.6306 36.1316 12.6306 36.0559 12.6322C35.939 12.6338 35.8238 12.6353 35.707 12.6385C35.6423 12.6401 35.5776 12.6432 35.5128 12.6448C35.3881 12.6495 35.2634 12.6542 35.1387 12.6605C35.0866 12.6637 35.0361 12.6668 34.984 12.67C34.8467 12.6779 34.7109 12.6857 34.5736 12.6952C34.5515 12.6968 34.5278 12.6983 34.5057 12.7015C33.9974 12.7409 33.4907 12.7944 32.9871 12.8653C32.9808 12.8669 32.9745 12.8669 32.9682 12.8684C32.8324 12.8873 32.6982 12.9094 32.5625 12.9299C32.5104 12.9377 32.4583 12.9456 32.4062 12.9551C32.2862 12.9755 32.1679 12.996 32.0479 13.0181C31.98 13.0307 31.9105 13.0433 31.8427 13.0559C31.7337 13.0763 31.6232 13.0984 31.5143 13.122C31.4354 13.1378 31.3565 13.1551 31.2775 13.1724C31.1765 13.1945 31.0739 13.2165 30.9729 13.2401C30.8845 13.2606 30.7977 13.2811 30.7093 13.3031C30.6161 13.3252 30.5214 13.3488 30.4283 13.3724C30.3288 13.3976 30.2309 13.4244 30.1331 13.4496C30.0494 13.4717 29.9657 13.4937 29.8821 13.5173C29.7668 13.5488 29.65 13.5835 29.5348 13.6181C29.4685 13.637 29.4006 13.6559 29.3343 13.6764C29.1512 13.7315 28.9681 13.7898 28.7866 13.8497C23.9183 15.453 19.7698 18.4912 16.7926 22.635C15.3593 24.6305 14.2416 26.8245 13.4729 29.1571C12.9693 30.6864 12.6236 32.2535 12.4358 33.8411L13.967 32.222C14.1564 32.022 14.4121 31.9212 14.6678 31.9212C14.9046 31.9212 15.143 32.0078 15.3293 32.1827C15.716 32.5465 15.7334 33.1544 15.3687 33.5403L12.0111 37.0904C12.008 37.0935 12.0032 37.0967 12.0001 37.0998C11.9874 37.1124 11.9732 37.125 11.9606 37.1376C11.9511 37.1471 11.9417 37.1565 11.9306 37.1644C11.9164 37.177 11.9006 37.188 11.8848 37.2006C11.8754 37.2085 11.8659 37.2148 11.8548 37.2227C11.8359 37.2353 11.817 37.2463 11.798 37.2573C11.7901 37.262 11.7822 37.2668 11.7743 37.2715C11.7507 37.2841 11.7254 37.2967 11.7001 37.3077C11.697 37.3093 11.6923 37.3109 11.6891 37.3124C11.5723 37.3628 11.4444 37.3896 11.3102 37.3896C11.3071 37.3896 11.3055 37.3896 11.3023 37.3896C11.2913 37.3896 11.2802 37.388 11.2692 37.388C11.2518 37.388 11.2345 37.3865 11.2171 37.3849C11.2155 37.3849 11.2139 37.3849 11.2124 37.3833C11.1413 37.3754 11.0719 37.3613 11.0072 37.3392C10.9993 37.3361 10.9929 37.3345 10.9866 37.3313C10.9614 37.3219 10.9361 37.3124 10.9124 37.3014C10.903 37.2967 10.8935 37.292 10.884 37.2872C10.8619 37.2762 10.8414 37.2652 10.8209 37.2526C10.8114 37.2463 10.8004 37.24 10.7909 37.2337C10.7719 37.2211 10.753 37.2085 10.7356 37.1943C10.7262 37.1864 10.7167 37.1801 10.7072 37.1723C10.6883 37.1565 10.6709 37.1408 10.652 37.1234C10.6441 37.1171 10.6378 37.1108 10.6299 37.103C10.6062 37.0793 10.5825 37.0541 10.562 37.0274C10.5588 37.0242 10.5557 37.0195 10.5525 37.0148C10.5336 36.9911 10.5178 36.9675 10.5004 36.9423C10.4989 36.9392 10.4973 36.9376 10.4957 36.9344L7.95736 32.9056C7.6748 32.4567 7.81055 31.8629 8.26044 31.581C8.41988 31.4818 8.59668 31.433 8.7719 31.433C9.09235 31.433 9.40491 31.592 9.58802 31.8818L10.5494 33.4064C10.7562 31.7606 11.1224 30.1352 11.6465 28.5476C12.4768 26.0291 13.6812 23.6603 15.2298 21.5057C18.4469 17.0296 22.9269 13.7473 28.1851 12.0148C28.3824 11.9502 28.5798 11.8872 28.7771 11.8274C28.8497 11.8053 28.9223 11.7848 28.9965 11.7628C29.1196 11.7266 29.2443 11.6903 29.3675 11.6557C29.459 11.6305 29.5506 11.6053 29.6421 11.5817C29.7463 11.5533 29.8521 11.5265 29.9563 11.4998C30.0589 11.473 30.1615 11.4494 30.2641 11.4242C30.3572 11.4021 30.4488 11.3801 30.5419 11.358C30.654 11.3328 30.7661 11.3076 30.8797 11.2824C30.9618 11.2651 31.0423 11.2478 31.1244 11.2304C31.246 11.2052 31.3691 11.1816 31.4906 11.158C31.5601 11.1454 31.628 11.1328 31.6974 11.1202C31.8316 11.095 31.9658 11.0714 32.1 11.0493C32.1489 11.0414 32.1978 11.0336 32.2452 11.0257C32.9619 10.9107 33.6801 10.8257 34.4031 10.7721C34.4126 10.7721 34.4205 10.7705 34.4299 10.7705C34.5862 10.7595 34.7441 10.7501 34.9004 10.7406C34.9461 10.7375 34.9935 10.7343 35.0393 10.7327C35.1798 10.7264 35.3218 10.7201 35.4623 10.7154C35.5255 10.7138 35.5902 10.7107 35.6533 10.7091C35.7843 10.706 35.9138 10.7028 36.0448 10.7028C36.1222 10.7012 36.1979 10.7012 36.2753 10.7012C36.299 10.7107 36.3179 10.7091 36.3384 10.7091ZM36.3384 10.0791H36.2784C36.1995 10.0791 36.1206 10.0791 36.0417 10.0807C35.9075 10.0823 35.7749 10.0838 35.6407 10.0886C35.5823 10.0901 35.5255 10.0917 35.4671 10.0933H35.445C35.2997 10.098 35.1561 10.1027 35.0108 10.1106C34.9793 10.1122 34.9493 10.1138 34.9193 10.1153L34.8688 10.1185C34.7078 10.1279 34.5483 10.1374 34.3873 10.1484L34.3668 10.15C33.628 10.2051 32.8845 10.2933 32.1505 10.4099L32.0952 10.4177C32.0637 10.4225 32.0321 10.4272 32.0005 10.4335C31.8632 10.4555 31.7259 10.4807 31.5885 10.5059L31.5491 10.5138C31.4922 10.5248 31.4354 10.5343 31.377 10.5453C31.2523 10.5689 31.1276 10.5941 31.0013 10.6193C30.9176 10.6367 30.834 10.654 30.7503 10.6713C30.6351 10.6965 30.5198 10.7217 30.4046 10.7485C30.3099 10.7705 30.2152 10.7926 30.1204 10.8162C30.0147 10.8414 29.9105 10.8666 29.8047 10.8934C29.6974 10.9202 29.59 10.9485 29.4827 10.9784L29.4196 10.9958C29.3469 11.0147 29.2728 11.0351 29.2001 11.0556C29.0739 11.0903 28.946 11.1281 28.8197 11.1659L28.7408 11.1895C28.6918 11.2037 28.6445 11.2178 28.5956 11.232C28.3809 11.2966 28.1835 11.3596 27.9894 11.4226C22.6049 13.1976 18.016 16.5602 14.7215 21.1466C13.1366 23.3532 11.9006 25.7803 11.0514 28.3586C10.6962 29.439 10.4089 30.5431 10.1942 31.6598L10.1279 31.5542C9.83428 31.088 9.32913 30.8093 8.77664 30.8093C8.47671 30.8093 8.18309 30.8943 7.92894 31.0534C7.18386 31.5196 6.9597 32.504 7.42696 33.2474L9.9653 37.2762L9.9795 37.2983L9.9874 37.3077C10.0079 37.3376 10.03 37.3691 10.0521 37.3975C10.06 37.4069 10.0663 37.418 10.0742 37.4274C10.1089 37.4699 10.1468 37.5125 10.1863 37.5518C10.1989 37.5644 10.2116 37.5755 10.2242 37.5881C10.251 37.6133 10.281 37.64 10.3126 37.6652C10.3268 37.6763 10.341 37.6873 10.3552 37.6983C10.3884 37.7235 10.4199 37.7456 10.4515 37.766C10.4689 37.7771 10.4846 37.7865 10.502 37.7975C10.5352 37.818 10.5699 37.8353 10.6062 37.8542C10.6251 37.8637 10.6393 37.87 10.6536 37.8763C10.6899 37.8936 10.7293 37.9094 10.7719 37.9235C10.7862 37.9283 10.7988 37.933 10.8114 37.9377C10.914 37.9724 11.0182 37.9944 11.124 38.0086L11.1287 38.0102L11.1587 38.0133C11.1855 38.0165 11.2124 38.018 11.2392 38.018H11.2424C11.2629 38.0196 11.2834 38.0212 11.3023 38.0212H11.3055H11.315C11.5328 38.0212 11.7443 37.9771 11.9432 37.892L11.9606 37.8842L11.9732 37.8779C12.0127 37.8605 12.0506 37.8416 12.0853 37.8227C12.0995 37.8149 12.1137 37.807 12.1279 37.7975C12.1563 37.7802 12.1879 37.7613 12.2179 37.7408C12.2321 37.7314 12.2479 37.7204 12.2621 37.7078C12.2921 37.6857 12.3174 37.6668 12.341 37.6463C12.3552 37.6337 12.371 37.6211 12.3852 37.607C12.4073 37.5865 12.4263 37.5676 12.4452 37.5503C12.4547 37.5408 12.4657 37.5314 12.4752 37.5203L15.8328 33.9703C16.4358 33.3324 16.4074 32.3228 15.7681 31.7212C15.4713 31.4408 15.083 31.2881 14.6742 31.2881C14.2369 31.2881 13.8138 31.4692 13.5139 31.7873L13.3939 31.9149C13.5739 31.0487 13.8028 30.1919 14.079 29.3524C14.8273 27.0812 15.9149 24.944 17.3119 23.0004C20.2118 18.9653 24.2498 16.0074 28.9902 14.445C29.1591 14.3899 29.3327 14.3348 29.5237 14.2765C29.5632 14.2639 29.6027 14.2529 29.6437 14.2418L29.7195 14.2198C29.8316 14.1867 29.9452 14.1536 30.0573 14.1221C30.1204 14.1048 30.1852 14.0875 30.2483 14.0702L30.302 14.056C30.3983 14.0308 30.4946 14.004 30.5909 13.9804C30.6824 13.9568 30.7724 13.9347 30.864 13.9127C30.9492 13.8922 31.036 13.8717 31.1213 13.8512C31.2207 13.8292 31.3186 13.8071 31.418 13.7851C31.4954 13.7678 31.5712 13.752 31.6485 13.7363C31.7543 13.7142 31.8616 13.6922 31.969 13.6733C32.0242 13.6622 32.0779 13.6528 32.1331 13.6433L32.1694 13.637C32.2862 13.6166 32.4015 13.5945 32.5183 13.5756C32.5483 13.5709 32.5783 13.5662 32.6083 13.5614L32.6698 13.552C32.8009 13.5315 32.9335 13.5095 33.0645 13.4921L33.0834 13.489C33.568 13.4213 34.0653 13.3661 34.5625 13.3283L34.6004 13.3252L34.6288 13.3236C34.7614 13.3142 34.8956 13.3063 35.0282 13.2984L35.085 13.2953C35.1166 13.2937 35.1466 13.2921 35.1782 13.2905C35.2997 13.2842 35.4213 13.2795 35.5428 13.2764L35.5728 13.2748C35.6265 13.2732 35.6802 13.2716 35.7323 13.2701C35.8459 13.2669 35.958 13.2653 36.0716 13.2638C36.1443 13.2622 36.2185 13.2622 36.2926 13.2622H36.3384C36.4284 13.2622 36.5184 13.2622 36.6084 13.2638C36.692 13.2653 36.7757 13.2669 36.8594 13.2685C36.9556 13.2701 37.0519 13.2732 37.1498 13.2764C37.2556 13.2795 37.3613 13.2858 37.4671 13.2905L37.5397 13.2937C37.5871 13.2953 37.6344 13.2984 37.6818 13.3016C37.8791 13.3126 38.0559 13.3252 38.2232 13.3394C38.4016 13.3535 38.5879 13.3709 38.7742 13.3913L38.8168 13.3961L38.8657 13.4008C39.0125 13.4165 39.1593 13.4339 39.3061 13.4528C39.344 13.4575 39.3835 13.4622 39.4214 13.4685L39.4845 13.4764C39.5997 13.4921 39.7134 13.5079 39.8286 13.5252C39.906 13.5362 39.9818 13.5488 40.0591 13.5614C40.1538 13.5772 40.247 13.5914 40.3401 13.6087C40.4317 13.6244 40.5232 13.6418 40.6148 13.6575C40.689 13.6717 40.7632 13.6859 40.8373 13.7C40.9447 13.7205 41.0505 13.7426 41.1578 13.7646C41.1957 13.7725 41.2336 13.7804 41.2699 13.7882L41.3157 13.7977C41.4404 13.8245 41.5651 13.8528 41.6898 13.8827L41.7198 13.8906L41.7545 13.8985C42.7048 14.1253 43.6535 14.4151 44.5722 14.7616L44.5943 14.7695L44.6149 14.7773C44.749 14.8277 44.8816 14.8797 45.0142 14.9333L45.1263 14.9774C45.2431 15.0246 45.3584 15.0734 45.4752 15.1223C45.532 15.1459 45.5888 15.1711 45.6472 15.1963C45.7467 15.2404 45.8477 15.2829 45.9472 15.3286C46.0119 15.3569 46.0766 15.3869 46.1398 15.4168L46.1603 15.4262L46.184 15.4373C46.266 15.4751 46.3465 15.5129 46.4286 15.5507C46.4839 15.5774 46.5376 15.6042 46.5928 15.631L46.6496 15.6593L46.7128 15.6908C46.7807 15.7239 46.8485 15.757 46.9164 15.7916C46.9385 15.8027 46.9606 15.8137 46.9811 15.8247L47.0395 15.8546C51.2622 18.0218 54.6782 21.3545 56.9198 25.4889C56.9261 25.4999 56.9324 25.5094 56.9372 25.5204C57.5859 26.7221 58.1337 27.9947 58.5678 29.3067C58.7841 29.9603 59.3918 30.3982 60.0817 30.3982C60.2506 30.3982 60.4195 30.3714 60.5821 30.3179C60.9862 30.184 61.3145 29.9021 61.5055 29.5225C61.6965 29.1429 61.7297 28.7114 61.5955 28.3082C60.47 24.9062 58.7099 21.8255 56.3626 19.1511C54.1447 16.6217 51.4911 14.5584 48.4792 13.0165L48.4318 12.9913C48.4066 12.9787 48.3829 12.9661 48.3576 12.9535L48.3387 12.944L48.2992 12.9236C48.244 12.8952 48.1887 12.8684 48.1335 12.8417L48.0451 12.7991L47.9851 12.7692C47.9251 12.7393 47.8651 12.7094 47.8036 12.681C47.7088 12.6353 47.6141 12.5912 47.5178 12.5471L47.4926 12.5361L47.4547 12.5188C47.3884 12.4889 47.3237 12.4574 47.2574 12.429C47.1437 12.377 47.0285 12.3266 46.9132 12.2778L46.9022 12.2731C46.8422 12.2463 46.7822 12.2211 46.7207 12.1959C46.5881 12.1392 46.4555 12.0857 46.3229 12.0305L46.3023 12.0211L46.2629 12.0038L46.2218 11.988L46.1997 11.9801C46.0482 11.9203 45.8951 11.8604 45.7435 11.8022L45.7167 11.7927L45.6978 11.7864C44.6527 11.3927 43.5746 11.0635 42.4933 10.8052L42.4648 10.7989L42.4222 10.7879C42.2802 10.7548 42.1381 10.7233 41.996 10.6918L41.9613 10.6839C41.9123 10.6729 41.865 10.6634 41.8161 10.6524C41.6945 10.6272 41.573 10.602 41.4514 10.5784C41.3677 10.5626 41.2825 10.5453 41.1988 10.5296C41.0947 10.5107 40.9905 10.4918 40.8847 10.4729C40.7789 10.454 40.6732 10.4366 40.569 10.4209L40.5437 10.4162C40.4632 10.4036 40.3843 10.391 40.3038 10.3784C40.1743 10.3595 40.0465 10.3406 39.917 10.3232L39.8507 10.3138C39.805 10.3075 39.7592 10.3012 39.7118 10.2949C39.5477 10.2744 39.3835 10.2555 39.2193 10.2366L39.1751 10.2319C39.153 10.2287 39.1309 10.2272 39.1088 10.224C38.7 10.1815 38.2832 10.1468 37.8696 10.1232C37.8128 10.1201 37.756 10.1169 37.6992 10.1153L37.6218 10.1122L37.5318 10.1075C37.4703 10.1043 37.4103 10.1012 37.3487 10.098C37.3313 10.098 37.3124 10.0964 37.295 10.0964L37.2635 10.0949C37.153 10.0901 37.0409 10.0886 36.9288 10.0854C36.8357 10.0838 36.7425 10.0807 36.651 10.0807C36.5452 10.0807 36.441 10.0791 36.3384 10.0791Z" fill="#187CFA"/>
<path d="M42.5886 36.2414C42.4829 34.5734 41.7346 33.0457 40.4797 31.9416C39.3336 30.932 37.8624 30.3776 36.3344 30.3776C34.5364 30.3776 32.822 31.1478 31.6334 32.4929C29.346 35.0774 29.5939 39.037 32.1859 41.3192C33.3319 42.3287 34.8031 42.8831 36.3312 42.8831C38.1292 42.8831 39.8435 42.113 41.0322 40.7679C42.1403 39.5158 42.6928 37.9077 42.5886 36.2414ZM39.7741 39.6607C38.9027 40.6435 37.6477 41.2089 36.3312 41.2089C35.2136 41.2089 34.1354 40.8026 33.2956 40.0639C31.3998 38.3928 31.2182 35.4932 32.8915 33.6017C33.7629 32.6173 35.0178 32.0519 36.3344 32.0519C37.452 32.0519 38.5301 32.4582 39.3684 33.1969C40.2871 34.0064 40.8364 35.1247 40.9122 36.3453C40.988 37.5659 40.5839 38.744 39.7741 39.6607ZM42.5886 36.2414C42.4829 34.5734 41.7346 33.0457 40.4797 31.9416C39.3336 30.932 37.8624 30.3776 36.3344 30.3776C34.5364 30.3776 32.822 31.1478 31.6334 32.4929C29.346 35.0774 29.5939 39.037 32.1859 41.3192C33.3319 42.3287 34.8031 42.8831 36.3312 42.8831C38.1292 42.8831 39.8435 42.113 41.0322 40.7679C42.1403 39.5158 42.6928 37.9077 42.5886 36.2414ZM39.7741 39.6607C38.9027 40.6435 37.6477 41.2089 36.3312 41.2089C35.2136 41.2089 34.1354 40.8026 33.2956 40.0639C31.3998 38.3928 31.2182 35.4932 32.8915 33.6017C33.7629 32.6173 35.0178 32.0519 36.3344 32.0519C37.452 32.0519 38.5301 32.4582 39.3684 33.1969C40.2871 34.0064 40.8364 35.1247 40.9122 36.3453C40.988 37.5659 40.5839 38.744 39.7741 39.6607ZM54.2258 31.5746C54.1232 31.2155 53.7965 30.9667 53.4223 30.9635L49.9448 30.9478C49.6843 30.3272 49.3812 29.724 49.0387 29.1444L51.2534 26.6764C51.5186 26.3819 51.5391 25.9409 51.3023 25.6212C50.5241 24.5659 49.6259 23.5894 48.6377 22.7184C47.6432 21.8427 46.554 21.0726 45.4016 20.43C45.0749 20.2473 44.6676 20.304 44.4008 20.567L41.9304 23.0082C41.3068 22.7531 40.6644 22.5405 40.0108 22.3735L39.8293 19.0676C39.8072 18.6707 39.5089 18.3431 39.1158 18.2848C38.2002 18.1478 37.2657 18.0769 36.3375 18.0769C34.62 18.0769 32.9136 18.3132 31.264 18.7778C30.9041 18.8802 30.6547 19.2062 30.6531 19.5795L30.6373 23.0492C30.0138 23.3091 29.4092 23.6115 28.8298 23.9532L26.3562 21.7435C26.0595 21.4789 25.6175 21.4569 25.297 21.6931C24.2394 22.4743 23.2607 23.3689 22.3893 24.3549C21.5132 25.3439 20.7413 26.4307 20.0956 27.5805C19.9141 27.9065 19.9693 28.3144 20.233 28.579L22.6797 31.0454C22.424 31.6676 22.2109 32.3086 22.0436 32.9606L18.7302 33.1418C18.3324 33.1638 18.0056 33.4615 17.9456 33.8537C17.5541 36.4508 17.7262 39.1598 18.4397 41.6861C18.5423 42.0452 18.8691 42.2941 19.2432 42.2957L22.7208 42.313C22.9797 42.9335 23.2843 43.5368 23.6269 44.1179L21.4122 46.5828C21.147 46.8789 21.1264 47.3199 21.3632 47.6396C22.1446 48.6965 23.0412 49.673 24.0294 50.5424C25.0223 51.4165 26.11 52.1867 27.2623 52.8293C27.5891 53.012 27.9979 52.9568 28.2631 52.6938L30.7336 50.2526C31.3587 50.5077 32.0012 50.7203 32.6547 50.8873L32.8362 54.1932C32.8583 54.5901 33.1567 54.9161 33.5498 54.976C34.4653 55.113 35.3998 55.1823 36.328 55.1823C38.0439 55.1823 39.752 54.9476 41.4 54.483C41.7615 54.3806 42.0109 54.0546 42.0125 53.6798L42.0282 50.2116C42.6518 49.9517 43.2564 49.6493 43.8373 49.3076L46.3093 51.5173C46.6045 51.7819 47.0465 51.8024 47.367 51.5661C48.4262 50.7865 49.4049 49.8919 50.2763 48.9075C51.1508 47.9168 51.9227 46.8317 52.5683 45.6803C52.7515 45.3543 52.6962 44.9464 52.4326 44.6818L49.9858 42.2153C50.2415 41.5932 50.4546 40.9522 50.622 40.3001L53.9354 40.119C54.3332 40.097 54.6615 39.7993 54.7199 39.4071C55.1114 36.8099 54.9409 34.1009 54.2258 31.5746ZM53.1477 38.4842L49.9021 38.6621C49.5217 38.6826 49.2044 38.9551 49.1255 39.3252C48.9282 40.2639 48.6251 41.1821 48.2257 42.0547C48.0805 42.3713 48.1468 42.7445 48.393 42.9918L50.7861 45.4031C50.2684 46.2505 49.6748 47.0537 49.0166 47.7987C48.3741 48.5248 47.6669 49.1973 46.9092 49.8053L44.4892 47.6412C44.2051 47.3876 43.7883 47.3561 43.4695 47.5625C42.666 48.0854 41.8009 48.5201 40.8996 48.8555C40.5712 48.9768 40.3534 49.2887 40.3518 49.6367L40.336 53.0293C39.0258 53.3474 37.6793 53.5081 36.328 53.5081C35.7108 53.5081 35.0889 53.4734 34.4748 53.4057L34.2964 50.1691C34.2759 49.7895 34.0028 49.4729 33.6303 49.3942C32.691 49.1989 31.7707 48.8965 30.8962 48.4964C30.5789 48.3515 30.2048 48.4193 29.9569 48.6634L27.5402 51.0511C26.6909 50.5361 25.8858 49.9439 25.1392 49.2855C24.4114 48.6445 23.7374 47.9389 23.1281 47.1829L25.297 44.7684C25.5512 44.4849 25.5827 44.0691 25.3744 43.751C24.8503 42.9477 24.4146 42.0846 24.0799 41.1869C23.9584 40.8593 23.6458 40.6419 23.297 40.6403L19.8967 40.6246C19.4358 38.7204 19.3064 36.7233 19.5195 34.7766L22.7634 34.5986C23.1423 34.5782 23.4611 34.3057 23.5385 33.934C23.7374 32.9953 24.0405 32.0771 24.4399 31.2061C24.5851 30.8895 24.5188 30.5162 24.2725 30.269L21.8794 27.8576C22.3972 27.0103 22.9891 26.207 23.6474 25.4621C24.2915 24.736 24.9971 24.0635 25.7564 23.4555L28.1779 25.6196C28.4605 25.8731 28.8772 25.9046 29.1961 25.6983C29.9996 25.1738 30.8646 24.7392 31.766 24.4053C32.0943 24.284 32.3122 23.9737 32.3137 23.6241L32.3295 20.2315C33.6397 19.9134 34.9847 19.7527 36.3375 19.7527C36.9547 19.7527 37.5751 19.7874 38.1907 19.8535L38.3691 23.0917C38.3896 23.4713 38.6627 23.7879 39.0353 23.8666C39.9745 24.0635 40.8948 24.3659 41.7678 24.7644C42.0867 24.9093 42.4608 24.8431 42.7086 24.5974L45.1254 22.2081C45.9731 22.7247 46.7782 23.3169 47.5264 23.9753C48.2557 24.6163 48.9297 25.3219 49.5375 26.0779L47.367 28.4939C47.1144 28.7759 47.0828 29.1932 47.2896 29.5098C47.8153 30.3131 48.251 31.1762 48.5856 32.0739C48.7072 32.4015 49.0181 32.6189 49.3686 32.6204L52.7688 32.6362C53.2298 34.5388 53.3592 36.5375 53.1477 38.4842ZM40.4797 31.9416C39.3336 30.932 37.8624 30.3776 36.3344 30.3776C34.5364 30.3776 32.822 31.1478 31.6334 32.4929C29.346 35.0774 29.5939 39.037 32.1859 41.3192C33.3319 42.3287 34.8031 42.8831 36.3312 42.8831C38.1292 42.8831 39.8435 42.113 41.0322 40.7679C42.1403 39.5158 42.6928 37.9077 42.5886 36.2414C42.4829 34.5734 41.7346 33.0457 40.4797 31.9416ZM39.7741 39.6607C38.9027 40.6435 37.6477 41.2089 36.3312 41.2089C35.2136 41.2089 34.1354 40.8026 33.2956 40.0639C31.3998 38.3928 31.2182 35.4932 32.8915 33.6017C33.7629 32.6173 35.0178 32.0519 36.3344 32.0519C37.452 32.0519 38.5301 32.4582 39.3684 33.1969C40.2871 34.0064 40.8364 35.1247 40.9122 36.3453C40.988 37.5659 40.5839 38.744 39.7741 39.6607Z" fill="#DBEBFF"/>
<path d="M49.1247 39.3252C49.2037 38.9551 49.521 38.6826 49.9014 38.6621L53.1469 38.4842C53.3585 36.5375 53.229 34.5388 52.7681 32.6362L49.3678 32.6204C49.0174 32.6189 48.7064 32.4015 48.5849 32.0739C48.2502 31.1762 47.8145 30.3131 47.2889 29.5098C47.0821 29.1932 47.1136 28.7759 47.3662 28.4939L49.5367 26.0779C48.929 25.3219 48.2549 24.6163 47.5257 23.9753C46.7774 23.3169 45.9723 22.7247 45.1246 22.2081L42.7079 24.5974C42.46 24.8431 42.0859 24.9092 41.767 24.7643C40.8941 24.3659 39.9738 24.0635 39.0345 23.8666C38.662 23.7878 38.3889 23.4713 38.3684 23.0917L38.19 19.8535C37.5744 19.7873 36.954 19.7527 36.3368 19.7527C34.9839 19.7527 33.639 19.9133 32.3288 20.2315L32.313 23.624C32.3114 23.9737 32.0936 24.284 31.7652 24.4052C30.8639 24.7391 29.9988 25.1738 29.1953 25.6983C28.8765 25.9046 28.4597 25.8731 28.1772 25.6196L25.7556 23.4555C24.9963 24.0635 24.2907 24.736 23.6467 25.4621C22.9884 26.207 22.3964 27.0103 21.8787 27.8576L24.2718 30.269C24.518 30.5162 24.5843 30.8895 24.4391 31.2061C24.0397 32.0771 23.7366 32.9953 23.5377 33.934C23.4604 34.3057 23.1415 34.5782 22.7627 34.5986L19.5187 34.7766C19.3056 36.7233 19.435 38.7204 19.896 40.6246L23.2962 40.6403C23.6451 40.6419 23.9576 40.8593 24.0792 41.1869C24.4138 42.0846 24.8495 42.9477 25.3736 43.751C25.582 44.0691 25.5504 44.4849 25.2963 44.7684L23.1273 47.1829C23.7366 47.9389 24.4107 48.6445 25.1384 49.2855C25.8851 49.9439 26.6901 50.5361 27.5394 51.0511L29.9562 48.6634C30.204 48.4193 30.5782 48.3515 30.8954 48.4964C31.77 48.8965 32.6903 49.1989 33.6295 49.3942C34.0021 49.4729 34.2752 49.7895 34.2957 50.1691L34.4741 53.4057C35.0881 53.4734 35.7101 53.5081 36.3273 53.5081C37.6785 53.5081 39.0251 53.3474 40.3353 53.0293L40.3511 49.6367C40.3526 49.2887 40.5705 48.9768 40.8988 48.8555C41.8002 48.5201 42.6652 48.0854 43.4687 47.5625C43.7876 47.3561 44.2043 47.3876 44.4885 47.6412L46.9084 49.8053C47.6661 49.1973 48.3733 48.5248 49.0158 47.7987C49.6741 47.0537 50.2676 46.2505 50.7854 45.4031L48.3923 42.9918C48.146 42.7445 48.0797 42.3713 48.225 42.0547C48.6243 41.1821 48.9274 40.2639 49.1247 39.3252ZM43.9155 43.3084C41.9975 45.4787 39.2319 46.723 36.3289 46.723C33.8632 46.7214 31.4874 45.8252 29.6389 44.1967C25.4573 40.5159 25.0579 34.1261 28.747 29.9524C30.6666 27.7836 33.4322 26.5378 36.3368 26.5378C38.8009 26.5378 41.1767 27.4355 43.0252 29.0625C45.0505 30.8454 46.2596 33.3103 46.427 36.002C46.5959 38.6921 45.704 41.2877 43.9155 43.3084Z" fill="#E6F2FF"/>
<path d="M46.4275 36.002C46.2602 33.3103 45.051 30.8455 43.0257 29.0626C41.1772 27.4356 38.8015 26.5378 36.3373 26.5378C33.4328 26.5378 30.6671 27.7837 28.7476 29.9524C25.0585 34.1262 25.4579 40.516 29.6395 44.1968C31.488 45.8253 33.8637 46.7215 36.3294 46.723C39.2324 46.723 41.9981 45.4788 43.916 43.3084C45.7046 41.2877 46.5964 38.6921 46.4275 36.002ZM42.6579 42.1997C41.8576 43.1037 40.8805 43.8156 39.8007 44.3023C38.7226 44.7874 37.5402 45.0473 36.3294 45.0473C34.2741 45.0473 32.293 44.2991 30.7508 42.9415C27.2637 39.8702 26.9291 34.542 30.0073 31.0612C31.6079 29.2516 33.9158 28.2136 36.3373 28.2136C38.3926 28.2136 40.3737 28.9618 41.9144 30.3194C43.6035 31.8062 44.6122 33.8616 44.7511 36.106C44.8916 38.3503 44.1481 40.5144 42.6579 42.1997Z" fill="#DBEBFF"/>
</svg>
