<svg width="1440" height="790" viewBox="0 0 1440 790" fill="none" xmlns="http://www.w3.org/2000/svg">
<rect y="777" width="1440" height="13" fill="#DEE3FF"/>
<rect width="1440" height="777" fill="white"/>
<path d="M228.592 2H0V777H149.624H299.248C563.398 673.356 539.5 449 333.883 321.444C169.237 219.306 136.232 123.169 228.592 2Z" fill="#DCE2FF"/>
<path d="M126.812 403.671C118.232 408.502 114.299 415.122 115.014 421.563C115.193 422.815 116.981 423.531 118.947 423.352C119.662 423.352 120.377 422.994 120.913 422.815C121.628 422.457 121.986 421.921 121.986 421.205C121.45 415.838 124.667 410.47 131.817 406.355C138.789 402.24 148.262 400.451 157.558 400.809C158.63 400.809 159.524 400.63 160.239 400.272C160.775 399.914 161.133 399.556 161.133 399.199C161.49 397.946 160.06 396.873 157.915 396.873C146.654 396.336 135.392 398.662 126.812 403.671Z" fill="#1C37C6" fill-opacity="0.45"/>
<path d="M118.232 398.483C108.222 404.208 102.68 411.902 102.68 420.132C102.68 421.026 102.68 421.921 102.859 422.636C103.038 423.889 104.825 424.604 106.792 424.425C107.507 424.425 108.222 424.068 108.758 423.889C109.473 423.531 109.831 422.815 109.831 422.278C108.758 414.764 113.227 407.071 123.058 401.346C132.89 395.62 146.296 393.116 159.166 393.652C160.239 393.652 161.311 393.473 162.026 393.116C162.563 392.758 162.92 392.4 162.92 392.042C163.278 390.79 161.848 389.716 159.703 389.716C158.273 389.716 156.843 389.537 155.234 389.537C141.291 389.537 128.063 392.758 118.232 398.483Z" fill="#1C37C6" fill-opacity="0.45"/>
<path d="M144.151 413.691C141.649 415.122 140.04 417.09 139.682 418.879C139.325 420.132 141.291 421.384 143.615 421.205C144.33 421.205 145.045 420.847 145.581 420.668C146.117 420.31 146.475 419.953 146.654 419.416C146.832 418.342 147.726 417.269 149.156 416.553C150.586 415.659 152.374 415.301 154.161 415.122C154.876 415.122 155.591 414.764 156.128 414.585C156.664 414.227 157.021 413.87 157.021 413.512C157.379 412.259 155.413 411.007 153.089 411.186C149.871 411.365 146.654 412.259 144.151 413.691Z" fill="#1C37C6" fill-opacity="0.45"/>
<path d="M135.571 408.681C130.03 411.902 127.17 416.195 127.349 420.311C127.349 421.563 129.315 422.457 131.281 422.279C131.996 422.279 132.711 421.921 133.248 421.742C133.963 421.384 134.32 420.847 134.32 420.311C134.32 417.09 136.286 413.87 140.576 411.544C144.867 409.039 150.229 407.965 155.77 407.965C156.664 407.965 157.558 407.787 158.273 407.429C158.809 407.071 159.167 406.713 159.346 406.355C159.703 405.103 158.094 404.029 155.949 404.029C148.442 403.85 141.113 405.461 135.571 408.681Z" fill="#1C37C6" fill-opacity="0.45"/>
<path d="M307.649 557.871L322.843 566.817L338.216 557.871L335.892 556.44L323.022 563.954L310.151 556.44L307.649 557.871Z" fill="white"/>
<path d="M428.665 488.095L441.535 495.431L428.665 502.945L430.989 504.376L446.362 495.431L431.168 486.664L428.665 488.095Z" fill="white"/>
<path d="M128.717 453.744L143.911 462.689L146.414 461.258L133.543 453.744L146.414 446.408L143.911 444.977L128.717 453.744Z" fill="white"/>
<path d="M236.863 391.303L239.187 392.734L252.057 385.22L264.927 392.734L267.251 391.303L252.057 382.536L236.863 391.303Z" fill="white"/>
<path opacity="0.0178571" d="M145.519 442.83C141.051 445.335 138.548 449.271 138.548 453.386C138.548 457.501 141.051 461.258 145.341 463.763L298.175 552.683C301.75 554.83 306.576 555.903 311.581 555.903C315.156 555.903 318.731 555.367 321.77 554.114C323.021 553.756 324.094 553.22 325.166 552.504L387.73 516.542C392.199 514.038 394.701 510.102 394.701 506.165C394.701 502.05 392.199 498.293 387.909 495.788L234.896 406.69C231.321 404.543 226.495 403.469 221.49 403.469C217.915 403.469 214.339 404.006 211.479 405.258C210.228 405.616 209.156 406.153 208.083 406.868L145.519 442.83Z" fill="#FCFDFE"/>
<path d="M357.521 414.025C358.951 414.204 362.526 417.424 361.275 421.718C360.024 426.012 356.985 427.801 356.091 427.98C355.197 428.159 351.086 426.37 351.086 422.434C351.086 418.677 355.734 413.667 357.521 414.025Z" fill="url(#paint0_linear)"/>
<path d="M292.455 514.395C292.455 503.839 299.963 499.546 309.258 504.734C318.553 510.101 326.061 522.983 325.882 533.718C325.882 535.328 325.703 536.76 325.346 538.012L290.31 517.795C290.668 517.795 292.455 516.9 292.455 514.395Z" fill="url(#paint1_linear)"/>
<path d="M306.219 499.546C309.079 497.935 313.012 498.114 317.481 500.619C326.24 505.629 333.211 517.795 333.211 527.814C333.211 532.823 331.423 536.223 328.563 538.012L319.09 543.558C321.95 541.948 323.737 538.37 323.737 533.36C323.737 523.341 316.766 511.175 308.007 506.165C303.538 503.661 299.605 503.482 296.745 505.092L306.219 499.546Z" fill="url(#paint2_linear)"/>
<path d="M308.007 506.165C299.248 501.156 292.276 505.092 292.098 515.111C292.098 525.13 299.069 537.296 307.828 542.306C316.587 547.315 323.558 543.379 323.737 533.36C323.916 523.52 316.766 511.175 308.007 506.165Z" fill="#1C37C6"/>
<path d="M294.422 516.184C294.422 524.951 300.499 535.507 308.007 539.801C315.514 544.095 321.771 540.696 321.771 531.929C321.771 523.162 315.693 512.606 308.186 508.312C300.499 504.018 294.422 507.597 294.422 516.184ZM306.398 519.584C306.041 519.763 305.862 519.942 305.683 520.299C303.717 518.51 299.963 514.395 299.427 513.68C298.533 512.427 298.354 510.817 298.89 510.101C299.248 509.744 299.963 509.744 300.499 510.101C300.857 510.28 301.214 510.638 301.572 511.175C302.466 511.891 305.326 517.079 306.398 519.584ZM308.543 519.763C308.186 519.584 307.828 519.405 307.471 519.405C306.398 516.9 304.611 511.354 304.432 510.459C304.074 509.028 304.789 508.133 305.862 508.491C306.041 508.491 306.219 508.67 306.398 508.67C307.292 509.207 308.186 510.28 308.364 511.533C308.364 512.427 308.722 517.616 308.543 519.763ZM318.911 526.74C318.196 526.74 314.084 525.488 312.118 524.593C311.939 524.057 311.761 523.699 311.582 523.162C313.012 522.446 316.408 521.552 317.123 521.552C317.481 521.552 317.66 521.731 318.017 521.91C318.732 522.268 319.447 523.341 319.805 524.236C320.341 525.667 319.805 526.74 318.911 526.74ZM311.939 527.277C312.118 526.919 312.118 526.561 312.118 526.204C312.297 526.383 312.654 526.561 313.012 526.74C315.157 527.993 318.375 530.14 318.911 530.676C319.983 531.571 320.698 533.181 320.341 534.255C320.162 535.149 319.268 535.328 318.375 534.791C318.196 534.613 318.017 534.613 317.838 534.434C317.302 533.718 313.727 529.424 311.939 527.277ZM310.331 528.351C310.688 528.351 311.046 528.172 311.224 527.993C312.833 530.319 315.693 535.149 316.051 536.044C316.766 537.475 316.408 538.728 315.514 538.906C315.157 538.906 314.799 538.906 314.442 538.728C313.727 538.37 313.191 537.654 312.833 536.76C312.476 536.044 310.867 530.855 310.331 528.351ZM309.794 520.657C309.973 518.689 311.046 514.395 311.403 513.68C311.761 512.964 312.476 512.964 313.191 513.322C313.548 513.501 313.727 513.68 314.084 514.038C315.157 515.111 315.514 516.721 314.978 517.616C314.621 518.153 312.118 520.657 310.688 521.552C310.509 521.373 310.152 520.836 309.794 520.657ZM305.862 533.36C305.862 532.645 307.113 528.887 307.828 527.277C308.186 527.456 308.364 527.814 308.722 527.993C308.901 527.993 308.901 528.172 309.079 528.172C309.437 530.676 309.973 535.507 309.794 536.223C309.616 537.296 308.901 537.833 307.828 537.117C307.828 537.117 307.649 537.117 307.649 536.938C306.577 536.223 305.862 534.613 305.862 533.36ZM300.32 525.309C300.857 524.951 304.074 524.414 305.862 524.414C306.041 524.951 306.398 525.488 306.756 526.025C305.862 527.456 303.538 529.961 303.181 530.319C302.823 530.498 302.287 530.498 301.751 530.14C301.214 529.782 300.678 529.245 300.32 528.708C299.427 527.277 299.427 525.846 300.32 525.309ZM296.745 517.974C296.745 516.721 297.46 516.006 298.533 516.542H298.712C299.784 517.079 303.359 519.763 305.147 521.373C305.147 521.552 305.147 521.731 305.147 521.91C305.147 522.268 305.147 522.446 305.147 522.804C303.359 522.625 299.427 521.731 298.712 521.373C298.712 521.373 298.533 521.373 298.533 521.194C297.818 520.657 296.924 519.226 296.745 517.974Z" fill="url(#paint3_linear)"/>
<path d="M191.459 436.747C200.754 442.114 208.262 454.996 208.083 465.731C208.083 468.057 208.083 470.204 208.083 470.204L175.014 451.239C174.657 449.629 174.478 448.019 174.478 446.408C174.657 435.852 182.164 431.559 191.459 436.747Z" fill="url(#paint4_linear)"/>
<path d="M189.672 432.274C192.532 430.664 196.465 430.843 200.933 433.348C209.692 438.357 216.664 450.523 216.664 460.543C216.664 465.552 214.876 468.951 212.016 470.741L202.542 476.287C205.402 474.677 207.19 471.098 207.19 466.089C207.19 456.07 200.218 443.904 191.459 438.894C186.991 436.389 183.058 436.21 180.198 437.82L189.672 432.274Z" fill="url(#paint5_linear)"/>
<path d="M191.459 438.894C182.7 433.884 175.729 437.82 175.55 447.84C175.55 457.859 182.522 470.025 191.281 475.034C200.039 480.044 207.011 476.108 207.19 466.089C207.19 456.07 200.218 443.903 191.459 438.894Z" fill="url(#paint6_linear)"/>
<path d="M177.874 448.913C177.874 457.68 183.952 468.236 191.46 472.53C198.967 476.824 205.224 473.424 205.224 464.658C205.224 455.891 199.146 445.335 191.638 441.041C183.952 436.568 177.874 440.146 177.874 448.913ZM189.851 452.134C189.493 452.312 189.314 452.491 189.136 452.849C187.169 451.06 183.416 446.945 182.879 446.229C181.986 444.977 181.807 443.367 182.343 442.651C182.701 442.293 183.416 442.293 183.952 442.651C184.309 442.83 184.667 443.188 185.024 443.725C185.739 444.619 188.599 449.808 189.851 452.134ZM191.996 452.312C191.638 452.134 191.281 451.955 190.923 451.955C189.851 449.45 188.063 443.904 187.884 443.009C187.527 441.578 188.242 440.683 189.314 441.041C189.493 441.041 189.672 441.22 189.851 441.22C190.745 441.757 191.638 442.83 191.817 444.082C191.817 445.156 191.996 450.344 191.996 452.312ZM202.185 459.469C201.47 459.469 197.358 458.217 195.392 457.322C195.213 456.785 195.035 456.427 194.856 455.891C196.286 455.175 199.682 454.281 200.397 454.281C200.755 454.281 200.933 454.459 201.291 454.638C202.006 454.996 202.721 456.07 203.078 456.964C203.793 458.217 203.257 459.469 202.185 459.469ZM195.392 459.827C195.571 459.469 195.571 459.111 195.571 458.753C195.75 458.932 196.107 459.111 196.465 459.29C198.61 460.542 201.827 462.689 202.363 463.226C203.436 464.121 204.151 465.731 203.793 466.804C203.615 467.699 202.721 467.878 201.827 467.341C201.827 467.162 201.648 467.162 201.47 466.983C200.755 466.268 197.001 462.153 195.392 459.827ZM193.783 461.079C194.141 461.079 194.498 460.9 194.677 460.721C196.286 463.047 199.146 467.878 199.503 468.773C200.218 470.204 199.861 471.456 198.967 471.635C198.61 471.635 198.252 471.635 197.895 471.456C197.18 471.098 196.643 470.383 196.286 469.488C195.928 468.594 194.32 463.584 193.783 461.079ZM193.247 453.207C193.426 451.239 194.498 446.945 194.856 446.229C195.213 445.514 195.928 445.514 196.643 445.872C197.001 446.051 197.18 446.229 197.537 446.587C198.61 447.661 198.967 449.271 198.431 450.166C198.073 450.702 195.571 453.207 194.141 454.102C193.783 453.923 193.605 453.565 193.247 453.207ZM189.314 466.089C189.314 465.373 190.566 461.616 191.281 460.006C191.638 460.185 191.817 460.543 192.175 460.721C192.353 460.721 192.353 460.9 192.532 460.9C192.89 463.405 193.426 468.236 193.247 468.951C193.068 470.025 192.353 470.562 191.281 469.846C191.281 469.846 191.102 469.846 191.102 469.667C190.029 468.773 189.314 467.162 189.314 466.089ZM183.773 458.038C184.309 457.68 187.527 457.143 189.314 457.143C189.493 457.68 189.851 458.217 190.208 458.753C189.314 460.185 186.991 462.689 186.633 463.047C186.276 463.226 185.739 463.226 185.203 462.868C184.667 462.511 184.131 461.974 183.773 461.437C182.879 459.827 182.879 458.396 183.773 458.038ZM180.198 450.523C180.198 449.271 180.913 448.555 181.986 449.092H182.164C183.237 449.629 186.812 452.312 188.599 453.923C188.599 454.102 188.599 454.281 188.599 454.459C188.599 454.817 188.599 454.996 188.599 455.354C186.812 455.175 182.879 454.281 182.164 453.923C182.164 453.923 181.986 453.923 181.986 453.744C181.271 453.207 180.377 451.776 180.198 450.523Z" fill="url(#paint7_linear)"/>
<path d="M159.284 426.549C161.071 422.792 164.289 422.076 163.395 413.488C162.68 408.658 162.859 405.974 163.753 402.753C164.11 401.501 164.646 400.606 165.361 399.533C165.361 399.533 168.758 394.345 173.584 390.051C182.343 382.357 184.845 380.747 206.653 367.865C223.099 358.383 234.181 357.846 243.119 358.025C255.095 358.383 264.391 359.456 273.686 363.571C292.455 371.801 299.784 375.559 305.146 378.6C310.509 381.642 319.447 388.44 331.066 399.712C340.539 409.015 351.98 421.36 358.415 427.622C364.85 433.884 397.204 456.964 400.779 463.942C401.137 464.479 401.316 465.015 401.494 465.731L405.606 475.75C405.784 476.108 410.432 482.191 410.432 485.233C410.432 488.274 410.432 495.431 410.432 497.22C410.432 499.009 409.359 504.197 407.751 507.06C405.784 510.638 393.45 529.603 345.008 541.054C343.578 541.411 333.032 542.664 330.708 541.233C329.814 540.696 328.742 539.98 327.669 539.443C327.312 539.264 326.597 538.728 325.345 538.012C325.703 536.76 325.882 535.328 325.882 533.718C325.882 523.162 318.374 510.102 309.258 504.734C299.962 499.367 292.455 503.661 292.455 514.395C292.455 517.079 290.667 517.795 290.489 517.795L253.665 496.683L208.083 470.383C208.083 470.204 208.083 468.236 208.083 465.91C208.083 455.354 200.576 442.293 191.459 436.926C182.164 431.559 174.656 435.852 174.656 446.587C174.656 448.197 174.835 449.808 175.193 451.418C174.299 450.881 173.584 450.523 172.69 449.987C166.434 446.408 164.646 445.156 162.68 441.22C160.356 436.568 158.211 428.517 159.284 426.549Z" fill="url(#paint8_linear)"/>
<path d="M383.44 512.069C402.03 502.408 408.823 492.031 410.074 482.907C410.432 483.801 410.611 484.696 410.611 485.411C410.611 488.453 410.611 495.609 410.611 497.399C410.611 499.188 409.538 504.376 407.929 507.239C405.963 510.817 393.629 529.782 345.187 541.232C343.757 541.59 333.21 542.843 330.887 541.411C329.993 540.875 328.92 540.159 327.848 539.622C327.49 539.443 326.775 538.906 325.524 538.191C325.881 536.938 326.06 535.507 326.06 533.897C326.06 529.961 324.988 525.488 323.2 521.373C337.143 524.593 358.236 525.309 383.44 512.069Z" fill="url(#paint9_linear)"/>
<path d="M171.439 435.137C168.579 433.348 163.216 430.127 162.68 421.36C163.395 419.75 163.931 417.424 163.395 413.667C163.216 412.415 163.037 411.52 163.037 410.447C175.908 417.782 275.652 474.856 287.45 482.37C299.962 490.242 303.537 502.945 303.537 502.945C297.102 501.872 292.455 506.344 292.455 514.753C292.455 517.437 290.667 518.153 290.488 518.153L281.015 512.606C279.227 508.491 274.937 500.261 265.821 494.536C260.279 490.958 234.36 476.108 207.726 460.721C205.759 451.418 199.324 441.578 191.638 437.105C185.382 433.527 179.84 434.242 176.98 438.536C175.193 437.463 174.299 436.926 173.584 436.568C172.511 435.674 172.154 435.495 171.439 435.137Z" fill="url(#paint10_linear)"/>
<path d="M294.242 467.878C338.216 459.469 355.018 435.674 358.057 430.843C358.415 430.485 358.236 429.769 358.057 429.412C387.194 463.763 391.484 481.654 391.842 484.338C388.624 487.38 384.334 490.242 379.15 493.105C373.966 495.788 367.889 498.472 360.917 500.082C356.806 497.757 329.814 482.728 293.885 467.878C293.885 467.878 294.064 467.878 294.242 467.878Z" fill="url(#paint11_linear)"/>
<path d="M379.15 493.283C385.049 490.242 389.518 487.022 392.735 483.801L399.349 487.737C395.596 493.105 389.339 498.472 379.15 503.839C375.933 505.45 372.894 506.881 369.855 507.954L358.594 511.354C356.985 511.712 355.555 511.891 354.125 512.069L359.309 500.619C365.207 499.367 372 497.041 379.15 493.283Z" fill="url(#paint12_linear)"/>
<path d="M329.993 500.977C338.394 502.229 348.583 502.587 359.487 500.261C360.917 499.903 361.99 501.156 361.811 502.587C361.096 505.271 359.666 508.849 355.912 511.175C348.762 515.648 332.138 511.712 328.027 508.849C325.167 507.06 324.63 504.197 326.775 502.05C327.49 501.156 328.742 500.798 329.993 500.977Z" fill="white"/>
<path d="M400.064 462.689C400.779 463.584 404.176 469.13 404.712 473.066C405.427 478.613 402.388 483.801 398.634 488.453C395.774 492.031 390.948 487.022 391.663 484.875C400.422 476.824 401.494 469.13 400.064 462.689Z" fill="white"/>
<path d="M355.555 538.37C357.521 528.529 364.314 520.299 373.609 516.184C380.759 513.143 386.658 509.565 390.948 506.523C396.132 502.945 403.103 503.839 407.036 508.491C403.639 513.68 391.305 527.993 355.733 538.37C355.733 538.191 355.733 538.37 355.555 538.37Z" fill="url(#paint13_linear)"/>
<path d="M406.678 507.954C406.857 508.133 407.036 508.312 407.214 508.491C403.818 513.68 391.484 527.993 355.912 538.37C355.733 538.37 355.733 538.37 355.555 538.37C355.733 537.833 355.733 537.475 355.912 536.938C389.697 527.098 402.388 513.68 406.678 507.954Z" fill="url(#paint14_linear)"/>
<path d="M373.072 510.459C380.759 507.06 387.909 502.945 394.701 497.935C395.059 497.577 395.595 497.935 395.595 498.472V506.702C395.595 506.881 395.595 507.06 395.417 507.239C388.445 512.248 381.295 516.542 373.609 519.942C373.251 520.121 372.894 519.763 372.894 519.405V511.175C372.715 510.638 372.894 510.459 373.072 510.459Z" fill="white"/>
<path d="M400.422 469.667C399.35 478.613 392.199 486.485 379.15 493.462C367.71 499.367 356.27 502.408 345.009 502.408C342.864 502.408 340.718 502.229 338.395 502.05C327.669 500.977 320.341 497.399 317.481 495.967C317.123 495.788 316.944 495.609 316.766 495.609C308.543 491.852 301.035 487.2 296.388 484.159C292.813 481.833 291.025 477.718 291.74 473.603C292.098 471.635 292.634 469.846 293.17 468.057C295.673 460.9 297.281 459.29 297.281 459.29L297.639 459.648C297.639 459.648 296.03 461.437 293.528 468.415C292.813 470.204 292.455 472.172 292.098 473.961C291.383 477.897 293.17 482.012 296.566 484.159C301.393 487.2 308.722 491.673 316.944 495.609C317.123 495.788 317.481 495.788 317.659 495.967C327.133 500.619 336.428 502.408 345.009 502.408C358.236 502.408 370.034 498.114 378.972 493.462C392.021 486.664 398.992 478.792 400.065 470.025C400.422 467.341 400.065 464.657 399.35 462.332C399.528 462.689 399.886 462.868 400.065 463.047C400.601 464.836 400.78 467.162 400.422 469.667Z" fill="#1C37C6"/>
<path d="M171.081 435.495C168.221 433.705 163.037 430.485 162.144 422.076C162.322 421.897 162.322 421.539 162.501 421.36C163.216 430.127 168.4 433.348 171.26 435.137C171.975 435.673 172.332 435.852 173.226 436.389C173.941 436.747 174.835 437.284 176.623 438.357C176.623 438.536 176.444 438.536 176.444 438.715C174.656 437.642 173.763 437.105 173.048 436.747C172.332 436.031 171.975 435.852 171.081 435.495Z" fill="#1C37C6"/>
<path d="M190.029 436.031C190.208 436.031 190.387 436.21 190.566 436.21C187.348 417.066 188.063 410.089 189.135 407.763C191.996 401.501 196.643 398.281 203.972 397.923C212.552 397.565 223.814 403.29 234.896 409.552C235.075 409.731 235.433 409.91 235.611 409.91C235.254 410.805 233.288 415.814 232.215 426.907C231.142 438.715 230.427 441.22 229.534 444.261C229.355 445.156 228.997 445.872 228.819 446.945C227.746 451.239 226.674 465.373 228.104 476.466L208.441 465.015C208.441 465.194 208.441 465.194 208.441 465.373C208.441 465.373 208.441 465.373 208.441 465.552L228.282 477.003C228.461 478.792 228.819 480.402 229.176 482.012L229.712 482.37C229.355 480.76 228.997 479.149 228.819 477.36L285.483 510.102C285.662 512.07 285.841 513.68 286.02 514.753L286.556 514.932C286.377 513.68 286.198 512.248 286.02 510.102L292.991 514.217C292.991 514.217 292.991 514.217 292.991 514.038C292.991 513.859 292.991 513.859 292.991 513.68L286.02 509.565C285.662 504.913 285.483 498.114 286.02 489.884C286.735 480.939 287.986 475.75 288.88 472.172C289.416 470.025 289.774 468.594 289.595 467.52C289.237 465.015 272.971 442.83 266.178 433.527C260.279 425.654 244.549 414.025 235.79 409.015C224.707 402.753 213.267 396.849 204.687 397.207C197.179 397.565 192.353 400.785 189.493 407.226C187.169 411.162 187.527 421.003 190.029 436.031ZM235.79 410.447C244.728 415.814 259.564 426.728 265.106 434.242C279.406 453.744 288.165 466.447 288.522 468.057C288.701 469.13 288.344 470.562 287.807 472.53C286.913 475.929 285.662 481.118 284.947 490.242C284.411 498.293 284.59 504.913 284.947 509.744L228.282 477.003C226.852 465.91 227.925 451.597 228.997 447.482C229.355 446.408 229.534 445.514 229.712 444.798C230.606 441.757 231.5 439.252 232.573 427.443C233.645 416.53 235.433 411.341 235.79 410.447Z" fill="#1C37C6"/>
<path d="M290.31 513.143C290.846 501.156 298.89 496.325 309.258 502.229C319.626 508.312 328.206 522.983 328.206 534.97C328.206 536.581 328.027 538.012 327.848 539.264C327.491 539.086 326.776 538.549 325.524 537.833C325.882 536.581 326.061 535.149 326.061 533.539C326.061 522.983 318.553 509.923 309.437 504.555C300.141 499.188 292.634 503.482 292.634 514.217C292.634 516.721 291.025 517.437 290.668 517.616C290.31 516.363 290.31 514.753 290.31 513.143Z" fill="url(#paint15_linear)"/>
<path d="M191.638 434.421C202.006 440.325 210.05 453.565 210.229 466.804C210.229 468.594 210.229 470.204 210.05 471.456L208.083 470.383C208.083 470.204 208.083 468.236 208.083 465.91C208.083 455.354 200.576 442.293 191.459 436.926C182.164 431.558 174.657 435.852 174.657 446.587C174.657 448.197 174.835 449.808 175.193 451.418C174.657 451.06 174.12 450.702 173.584 450.523C173.227 448.734 173.048 447.124 173.048 445.335C173.048 433.169 181.449 428.517 191.638 434.421Z" fill="url(#paint16_linear)"/>
<path d="M163.752 402.932C162.68 406.153 162.859 409.552 163.395 413.488C168.579 415.277 169.115 414.92 171.26 413.488C174.478 411.162 172.869 408.121 171.618 407.405C170.188 406.511 166.612 404.543 163.752 402.932Z" fill="white"/>
<path d="M236.863 417.067C237.041 415.277 238.829 414.92 240.259 415.814C246.515 420.108 255.453 426.728 260.637 432.095C264.391 436.031 271.898 447.303 277.976 456.07C280.121 459.111 281.551 461.437 283.338 464.3C285.126 467.162 281.73 470.562 278.87 468.773L235.433 442.651C235.433 442.651 235.79 425.654 236.863 417.067Z" fill="url(#paint17_linear)"/>
<path d="M270.647 432.453C306.934 425.118 322.843 405.258 326.418 400.249C326.775 399.533 327.848 399.533 328.384 400.07L357.879 429.412C358.236 429.769 358.415 430.485 358.057 431.022C355.018 435.852 338.216 459.827 294.242 468.057C293.706 468.236 293.349 467.878 292.991 467.52L269.932 434.421C269.396 433.527 269.753 432.632 270.647 432.453Z" fill="url(#paint18_linear)"/>
<path d="M168.221 395.776C168.758 394.345 172.69 389.514 177.874 385.936C183.415 381.999 187.169 379.495 206.296 368.223C212.195 364.645 217.915 362.319 222.741 360.709C222.384 360.888 186.454 380.926 185.56 384.325C184.667 387.904 185.56 388.44 187.169 393.092C188.063 395.597 188.778 399.354 185.382 402.575C181.092 405.974 165.004 403.827 168.221 395.776Z" fill="url(#paint19_linear)"/>
<path d="M203.257 400.964C212.552 400.607 223.992 406.868 229.355 410.089C231.5 411.341 232.394 411.878 231.858 414.204C229.176 424.402 228.104 437.999 228.104 437.999L190.744 415.099C190.387 414.92 190.208 414.383 190.208 414.025C190.387 408.479 194.319 401.322 203.257 400.964Z" fill="url(#paint20_linear)"/>
<path d="M237.757 449.987C240.08 451.239 241.868 453.744 241.868 455.533C241.868 457.322 240.08 457.68 237.757 456.427C235.433 455.175 233.645 452.67 233.645 450.881C233.645 449.092 235.433 448.555 237.757 449.987Z" fill="url(#paint21_linear)"/>
<path d="M234.003 449.808C233.288 449.271 232.573 449.629 232.573 450.702C232.573 451.597 233.288 452.67 234.003 453.207C234.003 453.207 234.182 453.207 234.182 453.386L240.438 456.428C240.974 456.785 241.332 456.428 241.332 455.891C241.332 455.354 240.974 454.638 240.438 454.281L234.182 450.166C234.182 449.987 234.182 449.808 234.003 449.808Z" fill="url(#paint22_linear)"/>
<path d="M197.001 426.549C199.325 427.801 201.112 430.306 201.112 432.095C201.112 433.884 199.325 434.242 197.001 432.99C194.677 431.737 192.889 429.233 192.889 427.443C192.889 425.654 194.677 425.118 197.001 426.549Z" fill="url(#paint23_linear)"/>
<path d="M193.426 426.37C192.711 425.833 191.996 426.191 191.996 427.265C191.996 428.159 192.711 429.233 193.426 429.769C193.426 429.769 193.605 429.769 193.605 429.948L199.861 432.99C200.397 433.348 200.755 432.99 200.755 432.453C200.755 431.916 200.397 431.201 199.861 430.843L193.605 426.728C193.426 426.37 193.426 426.37 193.426 426.37Z" fill="url(#paint24_linear)"/>
<path d="M276.546 461.079C278.87 461.079 280.836 462.868 282.266 465.015C282.266 465.015 285.841 468.415 286.735 469.13C287.629 469.846 287.45 472.888 284.947 472.53C283.339 472.351 282.087 470.741 281.551 469.846C280.657 470.383 279.406 471.098 277.797 471.635C272.971 473.245 265.463 470.025 265.463 466.983C265.642 464.121 273.329 461.079 276.546 461.079Z" fill="url(#paint25_linear)"/>
<path d="M292.812 425.475C313.548 416.53 323.737 404.006 326.418 400.07C326.776 399.354 327.848 399.354 328.384 399.891L357.879 429.233C358.236 429.59 358.415 430.306 358.057 430.843C357.7 431.38 357.342 432.095 356.627 432.99C349.12 430.306 316.408 420.108 292.812 425.475Z" fill="url(#paint26_linear)"/>
<path d="M192.711 558.86C210.765 548.483 240.081 548.483 257.956 558.86C275.831 569.237 275.831 586.234 257.777 596.611C239.723 606.988 210.408 606.988 192.532 596.611C174.478 586.234 174.478 569.416 192.711 558.86Z" fill="url(#paint27_radial)" style="mix-blend-mode:multiply"/>
<path d="M225.141 587.13C250.611 587.058 271.225 575.064 271.183 560.341C271.142 545.618 250.46 533.741 224.99 533.814C199.519 533.886 178.905 545.88 178.947 560.603C178.988 575.326 199.67 587.202 225.141 587.13Z" fill="#1C37C6"/>
<path d="M218.987 544.011L222.741 546.158C230.428 550.63 230.249 557.787 222.563 562.26L220.954 563.154L212.731 558.324L203.793 577.467L237.042 572.279L228.64 567.448L230.249 566.554C242.225 559.755 242.225 548.483 230.428 541.685L226.674 539.538L218.987 544.011Z" fill="white"/>
<path d="M104.585 508.765C122.64 498.388 151.955 498.388 169.83 508.765C187.706 519.142 187.706 536.138 169.652 546.515C151.598 556.892 122.282 556.892 104.407 546.515C86.5314 536.138 86.5314 519.142 104.585 508.765Z" fill="url(#paint28_radial)" style="mix-blend-mode:multiply"/>
<path d="M104.586 491.231C86.5316 501.608 86.5316 518.605 104.407 528.982C122.282 539.359 151.598 539.359 169.652 528.982C187.706 518.605 187.885 501.608 169.831 491.231C151.955 480.675 122.64 480.675 104.586 491.231Z" fill="url(#paint29_linear)"/>
<path d="M91 510.375C91 511.627 91.1788 512.88 91.5363 514.132L98.8651 509.838L121.746 530.055L111.735 532.381C113.523 533.097 115.31 533.634 117.098 534.17L148.38 527.014C149.452 529.698 150.167 532.56 150.525 535.602C153.742 535.065 156.96 534.17 159.999 533.276C159.105 528.087 156.96 522.72 153.742 517.889C151.061 513.774 147.665 510.017 143.732 506.976L156.96 499.282L182.7 514.311C183.058 513.059 183.237 511.806 183.237 510.733L160.356 497.493L170.545 491.589C170.366 491.41 170.188 491.41 169.83 491.231C168.936 490.694 167.864 490.158 166.97 489.621L140.693 504.829C139.8 504.292 138.906 503.576 138.012 503.039L124.248 495.167L144.09 483.717C141.945 483.538 139.8 483.359 137.655 483.359L120.673 493.199L111.557 487.832C109.054 488.726 106.73 489.979 104.585 491.231C104.406 491.231 104.228 491.41 104.049 491.589L113.88 497.314L91 510.375ZM102.44 507.87L117.455 499.282L131.041 507.155C137.118 510.733 143.375 516.816 147.129 524.33L126.214 529.161L102.44 507.87Z" fill="url(#paint30_linear)"/>
<path d="M131.935 515.206C145.756 515.206 156.96 510.319 156.96 504.292C156.96 498.264 145.756 493.378 131.935 493.378C118.113 493.378 106.909 498.264 106.909 504.292C106.909 510.319 118.113 515.206 131.935 515.206Z" fill="url(#paint31_radial)"/>
<path d="M113.523 488.369V494.094L153.921 505.186V499.461L113.523 488.369Z" fill="#1C37C6"/>
<path d="M113.523 488.369L153.921 499.461L135.152 476.023L133.544 484.075C133.365 484.969 132.65 485.864 131.577 486.4C130.505 486.937 129.075 487.474 127.466 487.474L113.523 488.369Z" fill="white"/>
<path d="M119.422 520.036C119.422 522.899 124.784 530.055 124.784 530.055C124.784 530.055 130.147 522.899 130.147 520.036C130.147 517.174 127.823 514.669 124.784 514.669C121.745 514.669 119.422 517.174 119.422 520.036ZM122.282 520.036C122.282 518.605 123.354 517.531 124.784 517.531C126.214 517.531 127.287 518.605 127.287 520.036C127.287 521.468 126.214 522.541 124.784 522.541C123.354 522.541 122.282 521.468 122.282 520.036Z" fill="#1C37C6"/>
<path opacity="0.5" d="M634.5 552.5L400.5 462.5C400.5 462.5 405 480.5 379.5 493C354 505.5 325.5 506 325.5 506L427 776.5L634.5 552.5Z" fill="white"/>
<path d="M395.379 540.757C394.843 541.115 394.485 541.473 394.306 542.01C393.949 543.441 395.915 544.694 398.418 544.515C401.993 544.157 405.389 543.262 408.249 541.652C410.93 540.042 412.539 538.074 413.075 535.927C413.433 534.495 411.288 533.243 408.785 533.422C408.07 533.422 407.355 533.78 406.64 533.959C406.104 534.317 405.746 534.674 405.568 535.211C405.21 536.285 404.316 537.537 402.886 538.432C401.278 539.326 399.49 539.863 397.345 540.042C396.809 540.221 395.915 540.4 395.379 540.757Z" fill="#939FE4"/>
<path d="M391.268 555.965C390.731 556.323 390.374 556.681 390.195 557.218C389.838 558.47 391.446 559.722 393.591 559.722C405.568 560.08 417.723 557.754 427.018 552.387C436.135 547.02 440.425 540.042 439.71 533.064C439.531 531.812 437.565 530.917 435.42 531.096C434.526 531.096 433.811 531.454 433.275 531.633C432.56 531.991 432.202 532.706 432.202 533.243C432.738 538.968 429.342 544.873 421.656 549.166C414.148 553.639 403.959 555.607 393.949 555.25C392.876 555.428 391.983 555.607 391.268 555.965Z" fill="#939FE4"/>
<path d="M393.234 548.451C392.698 548.809 392.34 549.167 392.162 549.703C391.804 550.956 393.592 552.208 395.737 552.208C403.602 552.208 411.467 550.598 417.544 547.02C423.622 543.62 426.482 538.968 426.482 534.496C426.482 533.243 424.516 532.17 422.192 532.349C421.298 532.349 420.583 532.707 420.047 532.885C419.332 533.243 418.975 533.78 418.975 534.496C418.975 537.895 416.829 541.294 412.361 543.978C407.892 546.662 401.814 547.914 395.915 547.914C395.022 547.735 393.949 548.093 393.234 548.451Z" fill="#939FE4"/>
<path d="M389.122 563.659C388.586 564.016 388.229 564.374 388.05 564.911C387.692 566.163 389.301 567.237 391.446 567.416C393.055 567.416 394.664 567.595 396.094 567.595C411.288 567.595 425.409 564.195 436.134 557.933C446.86 551.671 452.759 543.441 452.937 534.675C452.937 533.78 452.937 532.885 452.759 531.991C452.58 530.738 450.613 529.844 448.468 530.023C447.575 530.023 446.86 530.381 446.323 530.56C445.608 530.917 445.072 531.633 445.251 532.349C446.323 540.4 441.497 548.63 430.951 554.892C420.225 560.975 405.925 563.837 391.982 563.122C390.91 562.943 389.837 563.301 389.122 563.659Z" fill="#939FE4"/>
<mask id="mask0" mask-type="alpha" maskUnits="userSpaceOnUse" x="1164" y="413" width="276" height="364">
<rect x="1164" y="413" width="276" height="364" fill="#C4C4C4"/>
</mask>
<g mask="url(#mask0)">
<path d="M1516.7 1112.4C1692.71 1112.4 1835.4 969.713 1835.4 793.7C1835.4 617.687 1692.71 475 1516.7 475C1340.69 475 1198 617.687 1198 793.7C1198 969.713 1340.69 1112.4 1516.7 1112.4Z" stroke="#1A66EA" stroke-opacity="0.2" stroke-width="3" stroke-miterlimit="10"/>
<path d="M1516.7 1056.46C1661.82 1056.46 1779.46 938.82 1779.46 793.7C1779.46 648.58 1661.82 530.938 1516.7 530.938C1371.58 530.938 1253.94 648.58 1253.94 793.7C1253.94 938.82 1371.58 1056.46 1516.7 1056.46Z" stroke="#1A66EA" stroke-opacity="0.2" stroke-width="3" stroke-miterlimit="10"/>
<path d="M1516.7 1085.16C1677.67 1085.16 1808.16 954.667 1808.16 793.7C1808.16 632.733 1677.67 502.244 1516.7 502.244C1355.73 502.244 1225.24 632.733 1225.24 793.7C1225.24 954.667 1355.73 1085.16 1516.7 1085.16Z" stroke="#1A66EA" stroke-opacity="0.2" stroke-width="3" stroke-miterlimit="10" stroke-dasharray="12 12"/>
</g>
<path d="M1261.3 92.7274L1211.71 119.564L1154.29 90.9935L1202.12 66.1656L1261.3 92.7274Z" stroke="#FEAD5E" stroke-width="2" stroke-miterlimit="10" stroke-linejoin="round"/>
<path d="M1258.98 159.687L1242.18 168.871L1208.18 187.597L1153.26 155.974L1154.29 90.9933L1211.71 119.564L1261.3 92.7272L1259.93 133.186L1258.98 159.687Z" stroke="#FEAD5E" stroke-width="2" stroke-miterlimit="10" stroke-linejoin="round"/>
<path d="M1304.15 170.188C1299.65 187.251 1282.3 197.371 1265.24 192.879C1253.24 189.718 1244.76 180.219 1242.18 168.871L1258.98 159.687L1259.93 133.186C1266.46 130.112 1273.94 129.299 1281.46 131.279C1298.37 135.733 1308.6 153.27 1304.15 170.188Z" stroke="#FEAD5E" stroke-width="2" stroke-miterlimit="10" stroke-linejoin="round"/>
<mask id="mask1" mask-type="alpha" maskUnits="userSpaceOnUse" x="0" y="279" width="350" height="498">
<rect y="279" width="350" height="498" fill="#C4C4C4"/>
</mask>
<g mask="url(#mask1)">
<path d="M9.50186 1257.76C196.764 1257.76 348.57 1105.96 348.57 918.693C348.57 731.431 196.764 579.625 9.50186 579.625C-177.76 579.625 -329.566 731.431 -329.566 918.693C-329.566 1105.96 -177.76 1257.76 9.50186 1257.76Z" stroke="#1A66EA" stroke-opacity="0.2" stroke-width="2" stroke-miterlimit="10"/>
<path d="M9.50186 1198.25C163.896 1198.25 289.057 1073.09 289.057 918.693C289.057 764.299 163.896 639.138 9.50186 639.138C-144.892 639.138 -270.053 764.299 -270.053 918.693C-270.053 1073.09 -144.892 1198.25 9.50186 1198.25Z" stroke="#1A66EA" stroke-opacity="0.2" stroke-width="2" stroke-miterlimit="10"/>
<path d="M9.50165 1228.78C180.756 1228.78 319.585 1089.95 319.585 918.693C319.585 747.439 180.756 608.61 9.50165 608.61C-161.753 608.61 -300.582 747.439 -300.582 918.693C-300.582 1089.95 -161.753 1228.78 9.50165 1228.78Z" stroke="#1A66EA" stroke-opacity="0.2" stroke-width="2" stroke-miterlimit="10" stroke-dasharray="12 12"/>
<path d="M70.7296 645.655C28.8821 785.261 -100.777 886.965 -253.932 886.965C-441.217 886.965 -593 735.181 -593 548.068C-593 360.955 -441.217 209 -253.932 209C-66.647 209 85.1361 360.783 85.1361 548.068C85.1361 561.446 84.2786 574.652 82.9066 587.514" stroke="#1A66EA" stroke-opacity="0.2" stroke-width="2" stroke-miterlimit="10"/>
<path d="M10.3593 639.309C-27.5436 748.902 -131.476 827.623 -253.932 827.623C-408.288 827.623 -533.487 702.424 -533.487 548.068C-533.487 393.712 -408.288 268.513 -253.932 268.513C-99.5762 268.513 25.6235 393.712 25.6235 548.068C25.6235 558.873 24.9374 569.506 23.9084 579.968" stroke="#1A66EA" stroke-opacity="0.2" stroke-width="2" stroke-miterlimit="10"/>
<path d="M41.9165 640.853C2.47003 766.739 -115.012 857.98 -253.932 857.98C-425.095 857.98 -564.016 719.231 -564.016 547.897C-564.016 376.562 -425.267 237.985 -253.932 237.985C-82.5972 237.985 56.1515 376.733 56.1515 548.068C56.1515 559.73 55.4655 571.221 54.2649 582.541" stroke="#1A66EA" stroke-opacity="0.2" stroke-width="2" stroke-miterlimit="10" stroke-dasharray="12 12"/>
</g>
<defs>
<linearGradient id="paint0_linear" x1="356.366" y1="414.489" x2="356.228" y2="427.236" gradientUnits="userSpaceOnUse">
<stop stop-color="#C9D1FF"/>
<stop offset="0.1211" stop-color="#B4C0FF"/>
<stop offset="0.3315" stop-color="#9DABF8"/>
<stop offset="0.606" stop-color="#647BF3"/>
<stop offset="0.931" stop-color="#2F4EF3"/>
<stop offset="1" stop-color="#2242EB"/>
</linearGradient>
<linearGradient id="paint1_linear" x1="312.588" y1="514.455" x2="304.459" y2="528.934" gradientUnits="userSpaceOnUse">
<stop stop-color="#2B47DC"/>
<stop offset="0.4031" stop-color="#1932B3"/>
<stop offset="0.7819" stop-color="#3A52D3"/>
<stop offset="0.96875" stop-color="#4E68F3"/>
</linearGradient>
<linearGradient id="paint2_linear" x1="319.581" y1="513.643" x2="308.244" y2="529.94" gradientUnits="userSpaceOnUse">
<stop stop-color="#2B47DC"/>
<stop offset="0.4031" stop-color="#1932B3"/>
<stop offset="0.7819" stop-color="#3A52D3"/>
<stop offset="0.96875" stop-color="#4E68F3"/>
</linearGradient>
<linearGradient id="paint3_linear" x1="317.141" y1="518.797" x2="299.024" y2="529.408" gradientUnits="userSpaceOnUse">
<stop stop-color="#6E7ED8"/>
<stop offset="0.2319" stop-color="#9FAFFF"/>
<stop offset="0.74" stop-color="#9FAFFF"/>
<stop offset="1" stop-color="#4663FF"/>
</linearGradient>
<linearGradient id="paint4_linear" x1="195.524" y1="446.528" x2="187.099" y2="460.635" gradientUnits="userSpaceOnUse">
<stop stop-color="#2B47DC"/>
<stop offset="0.4031" stop-color="#1932B3"/>
<stop offset="0.7819" stop-color="#3A52D3"/>
<stop offset="0.96875" stop-color="#4E68F3"/>
</linearGradient>
<linearGradient id="paint5_linear" x1="203.033" y1="446.371" x2="191.697" y2="462.669" gradientUnits="userSpaceOnUse">
<stop stop-color="#2B47DC"/>
<stop offset="0.4031" stop-color="#1932B3"/>
<stop offset="0.7819" stop-color="#3A52D3"/>
<stop offset="0.96875" stop-color="#4E68F3"/>
</linearGradient>
<linearGradient id="paint6_linear" x1="195.363" y1="450.326" x2="185.058" y2="464.632" gradientUnits="userSpaceOnUse">
<stop stop-color="#2B47DC"/>
<stop offset="0.4031" stop-color="#1932B3"/>
<stop offset="0.7819" stop-color="#3A52D3"/>
<stop offset="0.96875" stop-color="#4E68F3"/>
</linearGradient>
<linearGradient id="paint7_linear" x1="191.694" y1="440.326" x2="191.356" y2="472.473" gradientUnits="userSpaceOnUse">
<stop stop-color="#C9D1FF"/>
<stop offset="0.1211" stop-color="#B4C0FF"/>
<stop offset="0.3315" stop-color="#9DABF8"/>
<stop offset="0.606" stop-color="#647BF3"/>
<stop offset="1" stop-color="#C8D1FF"/>
</linearGradient>
<linearGradient id="paint8_linear" x1="245.368" y1="488.478" x2="340.672" y2="407.583" gradientUnits="userSpaceOnUse">
<stop offset="0.161458" stop-color="#C4CFFF"/>
<stop offset="0.5361" stop-color="#D1D9FF"/>
<stop offset="1" stop-color="white"/>
</linearGradient>
<linearGradient id="paint9_linear" x1="410.742" y1="512.319" x2="323.029" y2="512.319" gradientUnits="userSpaceOnUse">
<stop stop-color="white"/>
<stop offset="0.2304" stop-color="#D0D8FF"/>
<stop offset="0.6399" stop-color="#D5DBFF"/>
<stop offset="1" stop-color="#B6C1FF"/>
</linearGradient>
<linearGradient id="paint10_linear" x1="235.864" y1="451.601" x2="225.521" y2="470.607" gradientUnits="userSpaceOnUse">
<stop stop-color="#CDD5FF"/>
<stop offset="0.3601" stop-color="#C8D1FF"/>
<stop offset="0.7696" stop-color="#F0F2FF"/>
<stop offset="1" stop-color="white"/>
</linearGradient>
<linearGradient id="paint11_linear" x1="380.753" y1="456.704" x2="326.622" y2="477.921" gradientUnits="userSpaceOnUse">
<stop stop-color="#2D3D95"/>
<stop offset="1" stop-color="#020620"/>
</linearGradient>
<linearGradient id="paint12_linear" x1="358.87" y1="508.046" x2="396.955" y2="486.599" gradientUnits="userSpaceOnUse">
<stop stop-color="#1C37C6"/>
<stop offset="0.2181" stop-color="#1C37C6"/>
<stop offset="0.5969" stop-color="#1C37C6"/>
<stop offset="1" stop-color="#1C37C6"/>
</linearGradient>
<linearGradient id="paint13_linear" x1="376.688" y1="515.218" x2="383.08" y2="526.325" gradientUnits="userSpaceOnUse">
<stop stop-color="#1C37C6"/>
<stop offset="0.2181" stop-color="#172C9F"/>
<stop offset="0.5969" stop-color="#3C55DC"/>
<stop offset="1" stop-color="#637AF7"/>
</linearGradient>
<linearGradient id="paint14_linear" x1="407.157" y1="523.087" x2="355.599" y2="523.087" gradientUnits="userSpaceOnUse">
<stop stop-color="#2848F3"/>
<stop offset="0.394" stop-color="#637BF9"/>
<stop offset="0.6685" stop-color="#9AA9F9"/>
<stop offset="0.8789" stop-color="#ADBAFF"/>
<stop offset="1" stop-color="#B7C2FF"/>
</linearGradient>
<linearGradient id="paint15_linear" x1="328.215" y1="519.614" x2="290.334" y2="519.614" gradientUnits="userSpaceOnUse">
<stop stop-color="#BCC7FF"/>
<stop offset="0.3601" stop-color="#CAD2FF"/>
<stop offset="0.7696" stop-color="#EEF1FF"/>
<stop offset="1" stop-color="white"/>
</linearGradient>
<linearGradient id="paint16_linear" x1="199.911" y1="447.44" x2="181.416" y2="463.011" gradientUnits="userSpaceOnUse">
<stop stop-color="#B4C0FF"/>
<stop offset="0.3601" stop-color="#CDD5FF"/>
<stop offset="0.7696" stop-color="#E7EAFF"/>
<stop offset="1" stop-color="white"/>
</linearGradient>
<linearGradient id="paint17_linear" x1="265.743" y1="433.464" x2="252.714" y2="454.236" gradientUnits="userSpaceOnUse">
<stop stop-color="#2B47DC"/>
<stop offset="0.4031" stop-color="#1932B3"/>
<stop offset="0.7819" stop-color="#3A52D3"/>
<stop offset="0.96875" stop-color="#4E68F3"/>
</linearGradient>
<linearGradient id="paint18_linear" x1="283.337" y1="455.332" x2="343.733" y2="415.381" gradientUnits="userSpaceOnUse">
<stop stop-color="#1C37C6"/>
<stop offset="0.2181" stop-color="#182EA7"/>
<stop offset="0.5969" stop-color="#3653ED"/>
<stop offset="1" stop-color="#3E5CFF"/>
</linearGradient>
<linearGradient id="paint19_linear" x1="195.237" y1="403.13" x2="195.237" y2="381.576" gradientUnits="userSpaceOnUse">
<stop stop-color="#00168D"/>
<stop offset="0.2181" stop-color="#0F2289"/>
<stop offset="0.5969" stop-color="#1E3BD7"/>
<stop offset="1" stop-color="#2C4CF4"/>
</linearGradient>
<linearGradient id="paint20_linear" x1="216.385" y1="413.399" x2="208.44" y2="429.321" gradientUnits="userSpaceOnUse">
<stop stop-color="#2B47DC"/>
<stop offset="0.4031" stop-color="#1932B3"/>
<stop offset="0.7819" stop-color="#3A52D3"/>
<stop offset="0.96875" stop-color="#4E68F3"/>
</linearGradient>
<linearGradient id="paint21_linear" x1="241.746" y1="453.197" x2="233.592" y2="453.197" gradientUnits="userSpaceOnUse">
<stop offset="0.0677083" stop-color="#BAC5FF"/>
<stop offset="0.484375" stop-color="#BEC8FF"/>
<stop offset="0.8092" stop-color="#F0F2FF"/>
<stop offset="1" stop-color="white"/>
</linearGradient>
<linearGradient id="paint22_linear" x1="241.427" y1="453.012" x2="232.615" y2="453.012" gradientUnits="userSpaceOnUse">
<stop stop-color="#E1E6FF"/>
<stop offset="0.5941" stop-color="#CCD4FF"/>
<stop offset="1" stop-color="#8094FC"/>
</linearGradient>
<linearGradient id="paint23_linear" x1="201.044" y1="429.734" x2="192.891" y2="429.734" gradientUnits="userSpaceOnUse">
<stop stop-color="#98A8FF"/>
<stop offset="0.4686" stop-color="#CED6FF"/>
<stop offset="0.8092" stop-color="#F0F2FF"/>
<stop offset="1" stop-color="white"/>
</linearGradient>
<linearGradient id="paint24_linear" x1="200.726" y1="429.549" x2="191.913" y2="429.549" gradientUnits="userSpaceOnUse">
<stop stop-color="#C4CDFF"/>
<stop offset="0.5941" stop-color="#DFE4FF"/>
<stop offset="1" stop-color="#F2F4FF"/>
</linearGradient>
<linearGradient id="paint25_linear" x1="276.46" y1="461.475" x2="276.415" y2="471.939" gradientUnits="userSpaceOnUse">
<stop stop-color="#C9D1FF"/>
<stop offset="0.1211" stop-color="#B4C0FF"/>
<stop offset="0.3315" stop-color="#9DABF8"/>
<stop offset="0.606" stop-color="#647BF3"/>
<stop offset="0.931" stop-color="#2F4EF3"/>
<stop offset="1" stop-color="#2242EB"/>
</linearGradient>
<linearGradient id="paint26_linear" x1="301.209" y1="406.287" x2="344.84" y2="436.178" gradientUnits="userSpaceOnUse">
<stop stop-color="#2C3361"/>
<stop offset="1" stop-color="#060000"/>
</linearGradient>
<radialGradient id="paint27_radial" cx="0" cy="0" r="1" gradientUnits="userSpaceOnUse" gradientTransform="translate(225.148 578.26) rotate(180) scale(44.1388 25.2833)">
<stop stop-color="#BBC6FF"/>
<stop offset="0.2023" stop-color="#A9B7FF"/>
<stop offset="0.5671" stop-color="#D7DDFF"/>
<stop offset="0.8446" stop-color="#E9ECFF"/>
<stop offset="1" stop-color="white"/>
</radialGradient>
<radialGradient id="paint28_radial" cx="0" cy="0" r="1" gradientUnits="userSpaceOnUse" gradientTransform="translate(137.131 528.121) rotate(180) scale(44.1388 25.2833)">
<stop stop-color="#95A6FF"/>
<stop offset="0.2023" stop-color="#A6B2EF"/>
<stop offset="0.5671" stop-color="#D2D9FF"/>
<stop offset="0.8446" stop-color="#EEF1FF"/>
<stop offset="1" stop-color="white"/>
</radialGradient>
<linearGradient id="paint29_linear" x1="183.267" y1="510.095" x2="91.006" y2="510.095" gradientUnits="userSpaceOnUse">
<stop stop-color="#CDD5FF"/>
<stop offset="0.5941" stop-color="#DEE3FF"/>
<stop offset="1" stop-color="#E9ECFF"/>
</linearGradient>
<linearGradient id="paint30_linear" x1="137.13" y1="483.838" x2="137.13" y2="537.121" gradientUnits="userSpaceOnUse">
<stop stop-color="#9BABFF"/>
<stop offset="0.2479" stop-color="#AEBBFF"/>
<stop offset="0.7468" stop-color="#E0E5FF"/>
<stop offset="1" stop-color="white"/>
</linearGradient>
<radialGradient id="paint31_radial" cx="0" cy="0" r="1" gradientUnits="userSpaceOnUse" gradientTransform="translate(131.974 504.763) rotate(180) scale(19.8103 9.30631)">
<stop offset="0.0202459" stop-color="#A5B3FF"/>
<stop offset="0.4686" stop-color="#D2D9FF"/>
<stop offset="0.8092" stop-color="#E4E9FF"/>
<stop offset="1" stop-color="white"/>
</radialGradient>
</defs>
</svg>
