<svg width="635" height="775" viewBox="0 0 635 775" fill="none" xmlns="http://www.w3.org/2000/svg">
<path d="M228.592 0H0V775H149.624H299.248C563.398 671.356 539.5 447 333.883 319.444C169.237 217.306 136.232 121.169 228.592 0Z" fill="#DCE2FF"/>
<path d="M126.812 401.671C118.232 406.502 114.299 413.122 115.014 419.563C115.193 420.815 116.981 421.531 118.947 421.352C119.662 421.352 120.377 420.994 120.913 420.815C121.628 420.457 121.986 419.921 121.986 419.205C121.45 413.838 124.667 408.47 131.817 404.355C138.789 400.24 148.262 398.451 157.558 398.809C158.63 398.809 159.524 398.63 160.239 398.272C160.775 397.914 161.133 397.556 161.133 397.199C161.49 395.946 160.06 394.873 157.915 394.873C146.654 394.336 135.392 396.662 126.812 401.671Z" fill="#1C37C6" fill-opacity="0.45"/>
<path d="M118.232 396.483C108.222 402.208 102.68 409.902 102.68 418.132C102.68 419.026 102.68 419.921 102.859 420.636C103.038 421.889 104.825 422.604 106.792 422.425C107.507 422.425 108.222 422.068 108.758 421.889C109.473 421.531 109.831 420.815 109.831 420.278C108.758 412.764 113.227 405.071 123.058 399.346C132.89 393.62 146.296 391.116 159.166 391.652C160.239 391.652 161.311 391.473 162.026 391.116C162.563 390.758 162.92 390.4 162.92 390.042C163.278 388.79 161.848 387.716 159.703 387.716C158.273 387.716 156.843 387.537 155.234 387.537C141.291 387.537 128.063 390.758 118.232 396.483Z" fill="#1C37C6" fill-opacity="0.45"/>
<path d="M144.151 411.691C141.649 413.122 140.04 415.09 139.682 416.879C139.325 418.132 141.291 419.384 143.615 419.205C144.33 419.205 145.045 418.847 145.581 418.668C146.117 418.31 146.475 417.953 146.654 417.416C146.832 416.342 147.726 415.269 149.156 414.553C150.586 413.659 152.374 413.301 154.161 413.122C154.876 413.122 155.591 412.764 156.128 412.585C156.664 412.227 157.021 411.87 157.021 411.512C157.379 410.259 155.413 409.007 153.089 409.186C149.871 409.365 146.654 410.259 144.151 411.691Z" fill="#1C37C6" fill-opacity="0.45"/>
<path d="M135.571 406.681C130.03 409.902 127.17 414.195 127.349 418.311C127.349 419.563 129.315 420.457 131.281 420.279C131.996 420.279 132.711 419.921 133.248 419.742C133.963 419.384 134.32 418.847 134.32 418.311C134.32 415.09 136.286 411.87 140.576 409.544C144.867 407.039 150.229 405.965 155.77 405.965C156.664 405.965 157.558 405.787 158.273 405.429C158.809 405.071 159.167 404.713 159.346 404.355C159.703 403.103 158.094 402.029 155.949 402.029C148.442 401.85 141.113 403.461 135.571 406.681Z" fill="#1C37C6" fill-opacity="0.45"/>
<path d="M307.649 555.871L322.843 564.817L338.216 555.871L335.892 554.44L323.022 561.954L310.151 554.44L307.649 555.871Z" fill="white"/>
<path d="M428.665 486.095L441.535 493.431L428.665 500.945L430.989 502.376L446.362 493.431L431.168 484.664L428.665 486.095Z" fill="white"/>
<path d="M128.717 451.744L143.911 460.689L146.414 459.258L133.543 451.744L146.414 444.408L143.911 442.977L128.717 451.744Z" fill="white"/>
<path d="M236.863 389.303L239.187 390.734L252.057 383.22L264.927 390.734L267.251 389.303L252.057 380.536L236.863 389.303Z" fill="white"/>
<path opacity="0.0178571" d="M145.519 440.83C141.051 443.335 138.548 447.271 138.548 451.386C138.548 455.501 141.051 459.258 145.341 461.763L298.175 550.683C301.75 552.83 306.576 553.903 311.581 553.903C315.156 553.903 318.731 553.367 321.77 552.114C323.021 551.756 324.094 551.22 325.166 550.504L387.73 514.542C392.199 512.038 394.701 508.102 394.701 504.165C394.701 500.05 392.199 496.293 387.909 493.788L234.896 404.69C231.321 402.543 226.495 401.469 221.49 401.469C217.915 401.469 214.339 402.006 211.479 403.258C210.228 403.616 209.156 404.153 208.083 404.868L145.519 440.83Z" fill="#FCFDFE"/>
<path d="M357.521 412.025C358.951 412.204 362.526 415.424 361.275 419.718C360.024 424.012 356.985 425.801 356.091 425.98C355.197 426.159 351.086 424.37 351.086 420.434C351.086 416.677 355.734 411.667 357.521 412.025Z" fill="url(#paint0_linear)"/>
<path d="M292.455 512.395C292.455 501.839 299.963 497.546 309.258 502.734C318.553 508.101 326.061 520.983 325.882 531.718C325.882 533.328 325.703 534.76 325.346 536.012L290.31 515.795C290.668 515.795 292.455 514.9 292.455 512.395Z" fill="url(#paint1_linear)"/>
<path d="M306.219 497.546C309.079 495.935 313.012 496.114 317.481 498.619C326.24 503.629 333.211 515.795 333.211 525.814C333.211 530.823 331.423 534.223 328.563 536.012L319.09 541.558C321.95 539.948 323.737 536.37 323.737 531.36C323.737 521.341 316.766 509.175 308.007 504.165C303.538 501.661 299.605 501.482 296.745 503.092L306.219 497.546Z" fill="url(#paint2_linear)"/>
<path d="M308.007 504.165C299.248 499.156 292.276 503.092 292.098 513.111C292.098 523.13 299.069 535.296 307.828 540.306C316.587 545.315 323.558 541.379 323.737 531.36C323.916 521.52 316.766 509.175 308.007 504.165Z" fill="#1C37C6"/>
<path d="M294.422 514.184C294.422 522.951 300.499 533.507 308.007 537.801C315.514 542.095 321.771 538.696 321.771 529.929C321.771 521.162 315.693 510.606 308.186 506.312C300.499 502.018 294.422 505.597 294.422 514.184ZM306.398 517.584C306.041 517.763 305.862 517.942 305.683 518.299C303.717 516.51 299.963 512.395 299.427 511.68C298.533 510.427 298.354 508.817 298.89 508.101C299.248 507.744 299.963 507.744 300.499 508.101C300.857 508.28 301.214 508.638 301.572 509.175C302.466 509.891 305.326 515.079 306.398 517.584ZM308.543 517.763C308.186 517.584 307.828 517.405 307.471 517.405C306.398 514.9 304.611 509.354 304.432 508.459C304.074 507.028 304.789 506.133 305.862 506.491C306.041 506.491 306.219 506.67 306.398 506.67C307.292 507.207 308.186 508.28 308.364 509.533C308.364 510.427 308.722 515.616 308.543 517.763ZM318.911 524.74C318.196 524.74 314.084 523.488 312.118 522.593C311.939 522.057 311.761 521.699 311.582 521.162C313.012 520.446 316.408 519.552 317.123 519.552C317.481 519.552 317.66 519.731 318.017 519.91C318.732 520.268 319.447 521.341 319.805 522.236C320.341 523.667 319.805 524.74 318.911 524.74ZM311.939 525.277C312.118 524.919 312.118 524.561 312.118 524.204C312.297 524.383 312.654 524.561 313.012 524.74C315.157 525.993 318.375 528.14 318.911 528.676C319.983 529.571 320.698 531.181 320.341 532.255C320.162 533.149 319.268 533.328 318.375 532.791C318.196 532.613 318.017 532.613 317.838 532.434C317.302 531.718 313.727 527.424 311.939 525.277ZM310.331 526.351C310.688 526.351 311.046 526.172 311.224 525.993C312.833 528.319 315.693 533.149 316.051 534.044C316.766 535.475 316.408 536.728 315.514 536.906C315.157 536.906 314.799 536.906 314.442 536.728C313.727 536.37 313.191 535.654 312.833 534.76C312.476 534.044 310.867 528.855 310.331 526.351ZM309.794 518.657C309.973 516.689 311.046 512.395 311.403 511.68C311.761 510.964 312.476 510.964 313.191 511.322C313.548 511.501 313.727 511.68 314.084 512.038C315.157 513.111 315.514 514.721 314.978 515.616C314.621 516.153 312.118 518.657 310.688 519.552C310.509 519.373 310.152 518.836 309.794 518.657ZM305.862 531.36C305.862 530.645 307.113 526.887 307.828 525.277C308.186 525.456 308.364 525.814 308.722 525.993C308.901 525.993 308.901 526.172 309.079 526.172C309.437 528.676 309.973 533.507 309.794 534.223C309.616 535.296 308.901 535.833 307.828 535.117C307.828 535.117 307.649 535.117 307.649 534.938C306.577 534.223 305.862 532.613 305.862 531.36ZM300.32 523.309C300.857 522.951 304.074 522.414 305.862 522.414C306.041 522.951 306.398 523.488 306.756 524.025C305.862 525.456 303.538 527.961 303.181 528.319C302.823 528.498 302.287 528.498 301.751 528.14C301.214 527.782 300.678 527.245 300.32 526.708C299.427 525.277 299.427 523.846 300.32 523.309ZM296.745 515.974C296.745 514.721 297.46 514.006 298.533 514.542H298.712C299.784 515.079 303.359 517.763 305.147 519.373C305.147 519.552 305.147 519.731 305.147 519.91C305.147 520.268 305.147 520.446 305.147 520.804C303.359 520.625 299.427 519.731 298.712 519.373C298.712 519.373 298.533 519.373 298.533 519.194C297.818 518.657 296.924 517.226 296.745 515.974Z" fill="url(#paint3_linear)"/>
<path d="M191.459 434.747C200.754 440.114 208.262 452.996 208.083 463.731C208.083 466.057 208.083 468.204 208.083 468.204L175.014 449.239C174.657 447.629 174.478 446.019 174.478 444.408C174.657 433.852 182.164 429.559 191.459 434.747Z" fill="url(#paint4_linear)"/>
<path d="M189.672 430.274C192.532 428.664 196.465 428.843 200.933 431.348C209.692 436.357 216.664 448.523 216.664 458.543C216.664 463.552 214.876 466.951 212.016 468.741L202.542 474.287C205.402 472.677 207.19 469.098 207.19 464.089C207.19 454.07 200.218 441.904 191.459 436.894C186.991 434.389 183.058 434.21 180.198 435.82L189.672 430.274Z" fill="url(#paint5_linear)"/>
<path d="M191.459 436.894C182.7 431.884 175.729 435.82 175.55 445.84C175.55 455.859 182.522 468.025 191.281 473.034C200.039 478.044 207.011 474.108 207.19 464.089C207.19 454.07 200.218 441.903 191.459 436.894Z" fill="url(#paint6_linear)"/>
<path d="M177.874 446.913C177.874 455.68 183.952 466.236 191.46 470.53C198.967 474.824 205.224 471.424 205.224 462.658C205.224 453.891 199.146 443.335 191.638 439.041C183.952 434.568 177.874 438.146 177.874 446.913ZM189.851 450.134C189.493 450.312 189.314 450.491 189.136 450.849C187.169 449.06 183.416 444.945 182.879 444.229C181.986 442.977 181.807 441.367 182.343 440.651C182.701 440.293 183.416 440.293 183.952 440.651C184.309 440.83 184.667 441.188 185.024 441.725C185.739 442.619 188.599 447.808 189.851 450.134ZM191.996 450.312C191.638 450.134 191.281 449.955 190.923 449.955C189.851 447.45 188.063 441.904 187.884 441.009C187.527 439.578 188.242 438.683 189.314 439.041C189.493 439.041 189.672 439.22 189.851 439.22C190.745 439.757 191.638 440.83 191.817 442.082C191.817 443.156 191.996 448.344 191.996 450.312ZM202.185 457.469C201.47 457.469 197.358 456.217 195.392 455.322C195.213 454.785 195.035 454.427 194.856 453.891C196.286 453.175 199.682 452.281 200.397 452.281C200.755 452.281 200.933 452.459 201.291 452.638C202.006 452.996 202.721 454.07 203.078 454.964C203.793 456.217 203.257 457.469 202.185 457.469ZM195.392 457.827C195.571 457.469 195.571 457.111 195.571 456.753C195.75 456.932 196.107 457.111 196.465 457.29C198.61 458.542 201.827 460.689 202.363 461.226C203.436 462.121 204.151 463.731 203.793 464.804C203.615 465.699 202.721 465.878 201.827 465.341C201.827 465.162 201.648 465.162 201.47 464.983C200.755 464.268 197.001 460.153 195.392 457.827ZM193.783 459.079C194.141 459.079 194.498 458.9 194.677 458.721C196.286 461.047 199.146 465.878 199.503 466.773C200.218 468.204 199.861 469.456 198.967 469.635C198.61 469.635 198.252 469.635 197.895 469.456C197.18 469.098 196.643 468.383 196.286 467.488C195.928 466.594 194.32 461.584 193.783 459.079ZM193.247 451.207C193.426 449.239 194.498 444.945 194.856 444.229C195.213 443.514 195.928 443.514 196.643 443.872C197.001 444.051 197.18 444.229 197.537 444.587C198.61 445.661 198.967 447.271 198.431 448.166C198.073 448.702 195.571 451.207 194.141 452.102C193.783 451.923 193.605 451.565 193.247 451.207ZM189.314 464.089C189.314 463.373 190.566 459.616 191.281 458.006C191.638 458.185 191.817 458.543 192.175 458.721C192.353 458.721 192.353 458.9 192.532 458.9C192.89 461.405 193.426 466.236 193.247 466.951C193.068 468.025 192.353 468.562 191.281 467.846C191.281 467.846 191.102 467.846 191.102 467.667C190.029 466.773 189.314 465.162 189.314 464.089ZM183.773 456.038C184.309 455.68 187.527 455.143 189.314 455.143C189.493 455.68 189.851 456.217 190.208 456.753C189.314 458.185 186.991 460.689 186.633 461.047C186.276 461.226 185.739 461.226 185.203 460.868C184.667 460.511 184.131 459.974 183.773 459.437C182.879 457.827 182.879 456.396 183.773 456.038ZM180.198 448.523C180.198 447.271 180.913 446.555 181.986 447.092H182.164C183.237 447.629 186.812 450.312 188.599 451.923C188.599 452.102 188.599 452.281 188.599 452.459C188.599 452.817 188.599 452.996 188.599 453.354C186.812 453.175 182.879 452.281 182.164 451.923C182.164 451.923 181.986 451.923 181.986 451.744C181.271 451.207 180.377 449.776 180.198 448.523Z" fill="url(#paint7_linear)"/>
<path d="M159.284 424.549C161.071 420.792 164.289 420.076 163.395 411.488C162.68 406.658 162.859 403.974 163.753 400.753C164.11 399.501 164.646 398.606 165.361 397.533C165.361 397.533 168.758 392.345 173.584 388.051C182.343 380.357 184.845 378.747 206.653 365.865C223.099 356.383 234.181 355.846 243.119 356.025C255.095 356.383 264.391 357.456 273.686 361.571C292.455 369.801 299.784 373.559 305.146 376.6C310.509 379.642 319.447 386.44 331.066 397.712C340.539 407.015 351.98 419.36 358.415 425.622C364.85 431.884 397.204 454.964 400.779 461.942C401.137 462.479 401.316 463.015 401.494 463.731L405.606 473.75C405.784 474.108 410.432 480.191 410.432 483.233C410.432 486.274 410.432 493.431 410.432 495.22C410.432 497.009 409.359 502.197 407.751 505.06C405.784 508.638 393.45 527.603 345.008 539.054C343.578 539.411 333.032 540.664 330.708 539.233C329.814 538.696 328.742 537.98 327.669 537.443C327.312 537.264 326.597 536.728 325.345 536.012C325.703 534.76 325.882 533.328 325.882 531.718C325.882 521.162 318.374 508.102 309.258 502.734C299.962 497.367 292.455 501.661 292.455 512.395C292.455 515.079 290.667 515.795 290.489 515.795L253.665 494.683L208.083 468.383C208.083 468.204 208.083 466.236 208.083 463.91C208.083 453.354 200.576 440.293 191.459 434.926C182.164 429.559 174.656 433.852 174.656 444.587C174.656 446.197 174.835 447.808 175.193 449.418C174.299 448.881 173.584 448.523 172.69 447.987C166.434 444.408 164.646 443.156 162.68 439.22C160.356 434.568 158.211 426.517 159.284 424.549Z" fill="url(#paint8_linear)"/>
<path d="M383.44 510.069C402.03 500.408 408.823 490.031 410.074 480.907C410.432 481.801 410.611 482.696 410.611 483.411C410.611 486.453 410.611 493.609 410.611 495.399C410.611 497.188 409.538 502.376 407.929 505.239C405.963 508.817 393.629 527.782 345.187 539.232C343.757 539.59 333.21 540.843 330.887 539.411C329.993 538.875 328.92 538.159 327.848 537.622C327.49 537.443 326.775 536.906 325.524 536.191C325.881 534.938 326.06 533.507 326.06 531.897C326.06 527.961 324.988 523.488 323.2 519.373C337.143 522.593 358.236 523.309 383.44 510.069Z" fill="url(#paint9_linear)"/>
<path d="M171.439 433.137C168.579 431.348 163.216 428.127 162.68 419.36C163.395 417.75 163.931 415.424 163.395 411.667C163.216 410.415 163.037 409.52 163.037 408.447C175.908 415.782 275.652 472.856 287.45 480.37C299.962 488.242 303.537 500.945 303.537 500.945C297.102 499.872 292.455 504.344 292.455 512.753C292.455 515.437 290.667 516.153 290.488 516.153L281.015 510.606C279.227 506.491 274.937 498.261 265.821 492.536C260.279 488.958 234.36 474.108 207.726 458.721C205.759 449.418 199.324 439.578 191.638 435.105C185.382 431.527 179.84 432.242 176.98 436.536C175.193 435.463 174.299 434.926 173.584 434.568C172.511 433.674 172.154 433.495 171.439 433.137Z" fill="url(#paint10_linear)"/>
<path d="M294.242 465.878C338.216 457.469 355.018 433.674 358.057 428.843C358.415 428.485 358.236 427.769 358.057 427.412C387.194 461.763 391.484 479.654 391.842 482.338C388.624 485.38 384.334 488.242 379.15 491.105C373.966 493.788 367.889 496.472 360.917 498.082C356.806 495.757 329.814 480.728 293.885 465.878C293.885 465.878 294.064 465.878 294.242 465.878Z" fill="url(#paint11_linear)"/>
<path d="M379.15 491.283C385.049 488.242 389.518 485.022 392.735 481.801L399.349 485.737C395.596 491.105 389.339 496.472 379.15 501.839C375.933 503.45 372.894 504.881 369.855 505.954L358.594 509.354C356.985 509.712 355.555 509.891 354.125 510.069L359.309 498.619C365.207 497.367 372 495.041 379.15 491.283Z" fill="url(#paint12_linear)"/>
<path d="M329.993 498.977C338.394 500.229 348.583 500.587 359.487 498.261C360.917 497.903 361.99 499.156 361.811 500.587C361.096 503.271 359.666 506.849 355.912 509.175C348.762 513.648 332.138 509.712 328.027 506.849C325.167 505.06 324.63 502.197 326.775 500.05C327.49 499.156 328.742 498.798 329.993 498.977Z" fill="white"/>
<path d="M400.064 460.689C400.779 461.584 404.176 467.13 404.712 471.066C405.427 476.613 402.388 481.801 398.634 486.453C395.774 490.031 390.948 485.022 391.663 482.875C400.422 474.824 401.494 467.13 400.064 460.689Z" fill="white"/>
<path d="M355.555 536.37C357.521 526.529 364.314 518.299 373.609 514.184C380.759 511.143 386.658 507.565 390.948 504.523C396.132 500.945 403.103 501.839 407.036 506.491C403.639 511.68 391.305 525.993 355.733 536.37C355.733 536.191 355.733 536.37 355.555 536.37Z" fill="url(#paint13_linear)"/>
<path d="M406.678 505.954C406.857 506.133 407.036 506.312 407.214 506.491C403.818 511.68 391.484 525.993 355.912 536.37C355.733 536.37 355.733 536.37 355.555 536.37C355.733 535.833 355.733 535.475 355.912 534.938C389.697 525.098 402.388 511.68 406.678 505.954Z" fill="url(#paint14_linear)"/>
<path d="M373.072 508.459C380.759 505.06 387.909 500.945 394.701 495.935C395.059 495.577 395.595 495.935 395.595 496.472V504.702C395.595 504.881 395.595 505.06 395.417 505.239C388.445 510.248 381.295 514.542 373.609 517.942C373.251 518.121 372.894 517.763 372.894 517.405V509.175C372.715 508.638 372.894 508.459 373.072 508.459Z" fill="white"/>
<path d="M400.422 467.667C399.35 476.613 392.199 484.485 379.15 491.462C367.71 497.367 356.27 500.408 345.009 500.408C342.864 500.408 340.718 500.229 338.395 500.05C327.669 498.977 320.341 495.399 317.481 493.967C317.123 493.788 316.944 493.609 316.766 493.609C308.543 489.852 301.035 485.2 296.388 482.159C292.813 479.833 291.025 475.718 291.74 471.603C292.098 469.635 292.634 467.846 293.17 466.057C295.673 458.9 297.281 457.29 297.281 457.29L297.639 457.648C297.639 457.648 296.03 459.437 293.528 466.415C292.813 468.204 292.455 470.172 292.098 471.961C291.383 475.897 293.17 480.012 296.566 482.159C301.393 485.2 308.722 489.673 316.944 493.609C317.123 493.788 317.481 493.788 317.659 493.967C327.133 498.619 336.428 500.408 345.009 500.408C358.236 500.408 370.034 496.114 378.972 491.462C392.021 484.664 398.992 476.792 400.065 468.025C400.422 465.341 400.065 462.657 399.35 460.332C399.528 460.689 399.886 460.868 400.065 461.047C400.601 462.836 400.78 465.162 400.422 467.667Z" fill="#1C37C6"/>
<path d="M171.081 433.495C168.221 431.705 163.037 428.485 162.144 420.076C162.322 419.897 162.322 419.539 162.501 419.36C163.216 428.127 168.4 431.348 171.26 433.137C171.975 433.673 172.332 433.852 173.226 434.389C173.941 434.747 174.835 435.284 176.623 436.357C176.623 436.536 176.444 436.536 176.444 436.715C174.656 435.642 173.763 435.105 173.048 434.747C172.332 434.031 171.975 433.852 171.081 433.495Z" fill="#1C37C6"/>
<path d="M190.029 434.031C190.208 434.031 190.387 434.21 190.566 434.21C187.348 415.066 188.063 408.089 189.135 405.763C191.996 399.501 196.643 396.281 203.972 395.923C212.552 395.565 223.814 401.29 234.896 407.552C235.075 407.731 235.433 407.91 235.611 407.91C235.254 408.805 233.288 413.814 232.215 424.907C231.142 436.715 230.427 439.22 229.534 442.261C229.355 443.156 228.997 443.872 228.819 444.945C227.746 449.239 226.674 463.373 228.104 474.466L208.441 463.015C208.441 463.194 208.441 463.194 208.441 463.373C208.441 463.373 208.441 463.373 208.441 463.552L228.282 475.003C228.461 476.792 228.819 478.402 229.176 480.012L229.712 480.37C229.355 478.76 228.997 477.149 228.819 475.36L285.483 508.102C285.662 510.07 285.841 511.68 286.02 512.753L286.556 512.932C286.377 511.68 286.198 510.248 286.02 508.102L292.991 512.217C292.991 512.217 292.991 512.217 292.991 512.038C292.991 511.859 292.991 511.859 292.991 511.68L286.02 507.565C285.662 502.913 285.483 496.114 286.02 487.884C286.735 478.939 287.986 473.75 288.88 470.172C289.416 468.025 289.774 466.594 289.595 465.52C289.237 463.015 272.971 440.83 266.178 431.527C260.279 423.654 244.549 412.025 235.79 407.015C224.707 400.753 213.267 394.849 204.687 395.207C197.179 395.565 192.353 398.785 189.493 405.226C187.169 409.162 187.527 419.003 190.029 434.031ZM235.79 408.447C244.728 413.814 259.564 424.728 265.106 432.242C279.406 451.744 288.165 464.447 288.522 466.057C288.701 467.13 288.344 468.562 287.807 470.53C286.913 473.929 285.662 479.118 284.947 488.242C284.411 496.293 284.59 502.913 284.947 507.744L228.282 475.003C226.852 463.91 227.925 449.597 228.997 445.482C229.355 444.408 229.534 443.514 229.712 442.798C230.606 439.757 231.5 437.252 232.573 425.443C233.645 414.53 235.433 409.341 235.79 408.447Z" fill="#1C37C6"/>
<path d="M290.31 511.143C290.846 499.156 298.89 494.325 309.258 500.229C319.626 506.312 328.206 520.983 328.206 532.97C328.206 534.581 328.027 536.012 327.848 537.264C327.491 537.086 326.776 536.549 325.524 535.833C325.882 534.581 326.061 533.149 326.061 531.539C326.061 520.983 318.553 507.923 309.437 502.555C300.141 497.188 292.634 501.482 292.634 512.217C292.634 514.721 291.025 515.437 290.668 515.616C290.31 514.363 290.31 512.753 290.31 511.143Z" fill="url(#paint15_linear)"/>
<path d="M191.638 432.421C202.006 438.325 210.05 451.565 210.229 464.804C210.229 466.594 210.229 468.204 210.05 469.456L208.083 468.383C208.083 468.204 208.083 466.236 208.083 463.91C208.083 453.354 200.576 440.293 191.459 434.926C182.164 429.558 174.657 433.852 174.657 444.587C174.657 446.197 174.835 447.808 175.193 449.418C174.657 449.06 174.12 448.702 173.584 448.523C173.227 446.734 173.048 445.124 173.048 443.335C173.048 431.169 181.449 426.517 191.638 432.421Z" fill="url(#paint16_linear)"/>
<path d="M163.752 400.932C162.68 404.153 162.859 407.552 163.395 411.488C168.579 413.277 169.115 412.92 171.26 411.488C174.478 409.162 172.869 406.121 171.618 405.405C170.188 404.511 166.612 402.543 163.752 400.932Z" fill="white"/>
<path d="M236.863 415.067C237.041 413.277 238.829 412.92 240.259 413.814C246.515 418.108 255.453 424.728 260.637 430.095C264.391 434.031 271.898 445.303 277.976 454.07C280.121 457.111 281.551 459.437 283.338 462.3C285.126 465.162 281.73 468.562 278.87 466.773L235.433 440.651C235.433 440.651 235.79 423.654 236.863 415.067Z" fill="url(#paint17_linear)"/>
<path d="M270.647 430.453C306.934 423.118 322.843 403.258 326.418 398.249C326.775 397.533 327.848 397.533 328.384 398.07L357.879 427.412C358.236 427.769 358.415 428.485 358.057 429.022C355.018 433.852 338.216 457.827 294.242 466.057C293.706 466.236 293.349 465.878 292.991 465.52L269.932 432.421C269.396 431.527 269.753 430.632 270.647 430.453Z" fill="url(#paint18_linear)"/>
<path d="M168.221 393.776C168.758 392.345 172.69 387.514 177.874 383.936C183.415 379.999 187.169 377.495 206.296 366.223C212.195 362.645 217.915 360.319 222.741 358.709C222.384 358.888 186.454 378.926 185.56 382.325C184.667 385.904 185.56 386.44 187.169 391.092C188.063 393.597 188.778 397.354 185.382 400.575C181.092 403.974 165.004 401.827 168.221 393.776Z" fill="url(#paint19_linear)"/>
<path d="M203.257 398.964C212.552 398.607 223.992 404.868 229.355 408.089C231.5 409.341 232.394 409.878 231.858 412.204C229.176 422.402 228.104 435.999 228.104 435.999L190.744 413.099C190.387 412.92 190.208 412.383 190.208 412.025C190.387 406.479 194.319 399.322 203.257 398.964Z" fill="url(#paint20_linear)"/>
<path d="M237.757 447.987C240.08 449.239 241.868 451.744 241.868 453.533C241.868 455.322 240.08 455.68 237.757 454.427C235.433 453.175 233.645 450.67 233.645 448.881C233.645 447.092 235.433 446.555 237.757 447.987Z" fill="url(#paint21_linear)"/>
<path d="M234.003 447.808C233.288 447.271 232.573 447.629 232.573 448.702C232.573 449.597 233.288 450.67 234.003 451.207C234.003 451.207 234.182 451.207 234.182 451.386L240.438 454.428C240.974 454.785 241.332 454.428 241.332 453.891C241.332 453.354 240.974 452.638 240.438 452.281L234.182 448.166C234.182 447.987 234.182 447.808 234.003 447.808Z" fill="url(#paint22_linear)"/>
<path d="M197.001 424.549C199.325 425.801 201.112 428.306 201.112 430.095C201.112 431.884 199.325 432.242 197.001 430.99C194.677 429.737 192.889 427.233 192.889 425.443C192.889 423.654 194.677 423.118 197.001 424.549Z" fill="url(#paint23_linear)"/>
<path d="M193.426 424.37C192.711 423.833 191.996 424.191 191.996 425.265C191.996 426.159 192.711 427.233 193.426 427.769C193.426 427.769 193.605 427.769 193.605 427.948L199.861 430.99C200.397 431.348 200.755 430.99 200.755 430.453C200.755 429.916 200.397 429.201 199.861 428.843L193.605 424.728C193.426 424.37 193.426 424.37 193.426 424.37Z" fill="url(#paint24_linear)"/>
<path d="M276.546 459.079C278.87 459.079 280.836 460.868 282.266 463.015C282.266 463.015 285.841 466.415 286.735 467.13C287.629 467.846 287.45 470.888 284.947 470.53C283.339 470.351 282.087 468.741 281.551 467.846C280.657 468.383 279.406 469.098 277.797 469.635C272.971 471.245 265.463 468.025 265.463 464.983C265.642 462.121 273.329 459.079 276.546 459.079Z" fill="url(#paint25_linear)"/>
<path d="M292.812 423.475C313.548 414.53 323.737 402.006 326.418 398.07C326.776 397.354 327.848 397.354 328.384 397.891L357.879 427.233C358.236 427.59 358.415 428.306 358.057 428.843C357.7 429.38 357.342 430.095 356.627 430.99C349.12 428.306 316.408 418.108 292.812 423.475Z" fill="url(#paint26_linear)"/>
<path d="M192.711 556.86C210.765 546.483 240.081 546.483 257.956 556.86C275.831 567.237 275.831 584.234 257.777 594.611C239.723 604.988 210.408 604.988 192.532 594.611C174.478 584.234 174.478 567.416 192.711 556.86Z" fill="url(#paint27_radial)" style="mix-blend-mode:multiply"/>
<path d="M225.141 585.13C250.611 585.058 271.225 573.064 271.183 558.341C271.142 543.618 250.46 531.741 224.99 531.814C199.519 531.886 178.905 543.88 178.947 558.603C178.988 573.326 199.67 585.202 225.141 585.13Z" fill="#1C37C6"/>
<path d="M218.987 542.011L222.741 544.158C230.428 548.63 230.249 555.787 222.563 560.26L220.954 561.154L212.731 556.324L203.793 575.467L237.042 570.279L228.64 565.448L230.249 564.554C242.225 557.755 242.225 546.483 230.428 539.685L226.674 537.538L218.987 542.011Z" fill="white"/>
<path d="M104.585 506.765C122.64 496.388 151.955 496.388 169.83 506.765C187.706 517.142 187.706 534.138 169.652 544.515C151.598 554.892 122.282 554.892 104.407 544.515C86.5314 534.138 86.5314 517.142 104.585 506.765Z" fill="url(#paint28_radial)" style="mix-blend-mode:multiply"/>
<path d="M104.586 489.231C86.5316 499.608 86.5316 516.605 104.407 526.982C122.282 537.359 151.598 537.359 169.652 526.982C187.706 516.605 187.885 499.608 169.831 489.231C151.955 478.675 122.64 478.675 104.586 489.231Z" fill="url(#paint29_linear)"/>
<path d="M91 508.375C91 509.627 91.1788 510.88 91.5363 512.132L98.8651 507.838L121.746 528.055L111.735 530.381C113.523 531.097 115.31 531.634 117.098 532.17L148.38 525.014C149.452 527.698 150.167 530.56 150.525 533.602C153.742 533.065 156.96 532.17 159.999 531.276C159.105 526.087 156.96 520.72 153.742 515.889C151.061 511.774 147.665 508.017 143.732 504.976L156.96 497.282L182.7 512.311C183.058 511.059 183.237 509.806 183.237 508.733L160.356 495.493L170.545 489.589C170.366 489.41 170.188 489.41 169.83 489.231C168.936 488.694 167.864 488.158 166.97 487.621L140.693 502.829C139.8 502.292 138.906 501.576 138.012 501.039L124.248 493.167L144.09 481.717C141.945 481.538 139.8 481.359 137.655 481.359L120.673 491.199L111.557 485.832C109.054 486.726 106.73 487.979 104.585 489.231C104.406 489.231 104.228 489.41 104.049 489.589L113.88 495.314L91 508.375ZM102.44 505.87L117.455 497.282L131.041 505.155C137.118 508.733 143.375 514.816 147.129 522.33L126.214 527.161L102.44 505.87Z" fill="url(#paint30_linear)"/>
<path d="M131.935 513.206C145.756 513.206 156.96 508.319 156.96 502.292C156.96 496.264 145.756 491.378 131.935 491.378C118.113 491.378 106.909 496.264 106.909 502.292C106.909 508.319 118.113 513.206 131.935 513.206Z" fill="url(#paint31_radial)"/>
<path d="M113.523 486.369V492.094L153.921 503.186V497.461L113.523 486.369Z" fill="#1C37C6"/>
<path d="M113.523 486.369L153.921 497.461L135.152 474.023L133.544 482.075C133.365 482.969 132.65 483.864 131.577 484.4C130.505 484.937 129.075 485.474 127.466 485.474L113.523 486.369Z" fill="white"/>
<path d="M119.422 518.036C119.422 520.899 124.784 528.055 124.784 528.055C124.784 528.055 130.147 520.899 130.147 518.036C130.147 515.174 127.823 512.669 124.784 512.669C121.745 512.669 119.422 515.174 119.422 518.036ZM122.282 518.036C122.282 516.605 123.354 515.531 124.784 515.531C126.214 515.531 127.287 516.605 127.287 518.036C127.287 519.468 126.214 520.541 124.784 520.541C123.354 520.541 122.282 519.468 122.282 518.036Z" fill="#1C37C6"/>
<path opacity="0.5" d="M634.5 550.5L400.5 460.5C400.5 460.5 405 478.5 379.5 491C354 503.5 325.5 504 325.5 504L427 774.5L634.5 550.5Z" fill="white"/>
<path d="M395.379 538.757C394.843 539.115 394.485 539.473 394.306 540.01C393.949 541.441 395.915 542.694 398.418 542.515C401.993 542.157 405.389 541.262 408.249 539.652C410.93 538.042 412.539 536.074 413.075 533.927C413.433 532.495 411.288 531.243 408.785 531.422C408.07 531.422 407.355 531.78 406.64 531.959C406.104 532.317 405.746 532.674 405.568 533.211C405.21 534.285 404.316 535.537 402.886 536.432C401.278 537.326 399.49 537.863 397.345 538.042C396.809 538.221 395.915 538.4 395.379 538.757Z" fill="#939FE4"/>
<path d="M391.268 553.965C390.731 554.323 390.374 554.681 390.195 555.218C389.838 556.47 391.446 557.722 393.591 557.722C405.568 558.08 417.723 555.754 427.018 550.387C436.135 545.02 440.425 538.042 439.71 531.064C439.531 529.812 437.565 528.917 435.42 529.096C434.526 529.096 433.811 529.454 433.275 529.633C432.56 529.991 432.202 530.706 432.202 531.243C432.738 536.968 429.342 542.873 421.656 547.166C414.148 551.639 403.959 553.607 393.949 553.25C392.876 553.428 391.983 553.607 391.268 553.965Z" fill="#939FE4"/>
<path d="M393.234 546.451C392.698 546.809 392.34 547.167 392.162 547.703C391.804 548.956 393.592 550.208 395.737 550.208C403.602 550.208 411.467 548.598 417.544 545.02C423.622 541.62 426.482 536.968 426.482 532.496C426.482 531.243 424.516 530.17 422.192 530.349C421.298 530.349 420.583 530.707 420.047 530.885C419.332 531.243 418.975 531.78 418.975 532.496C418.975 535.895 416.829 539.294 412.361 541.978C407.892 544.662 401.814 545.914 395.915 545.914C395.022 545.735 393.949 546.093 393.234 546.451Z" fill="#939FE4"/>
<path d="M389.122 561.659C388.586 562.016 388.229 562.374 388.05 562.911C387.692 564.163 389.301 565.237 391.446 565.416C393.055 565.416 394.664 565.595 396.094 565.595C411.288 565.595 425.409 562.195 436.134 555.933C446.86 549.671 452.759 541.441 452.937 532.675C452.937 531.78 452.937 530.885 452.759 529.991C452.58 528.738 450.613 527.844 448.468 528.023C447.575 528.023 446.86 528.381 446.323 528.56C445.608 528.917 445.072 529.633 445.251 530.349C446.323 538.4 441.497 546.63 430.951 552.892C420.225 558.975 405.925 561.837 391.982 561.122C390.91 560.943 389.837 561.301 389.122 561.659Z" fill="#939FE4"/>
<mask id="mask0" mask-type="alpha" maskUnits="userSpaceOnUse" x="0" y="277" width="350" height="498">
<rect y="277" width="350" height="498" fill="#C4C4C4"/>
</mask>
<g mask="url(#mask0)">
<path d="M9.50186 1255.76C196.764 1255.76 348.57 1103.96 348.57 916.693C348.57 729.431 196.764 577.625 9.50186 577.625C-177.76 577.625 -329.566 729.431 -329.566 916.693C-329.566 1103.96 -177.76 1255.76 9.50186 1255.76Z" stroke="#1A66EA" stroke-opacity="0.2" stroke-width="2" stroke-miterlimit="10"/>
<path d="M9.50186 1196.25C163.896 1196.25 289.057 1071.09 289.057 916.693C289.057 762.299 163.896 637.138 9.50186 637.138C-144.892 637.138 -270.053 762.299 -270.053 916.693C-270.053 1071.09 -144.892 1196.25 9.50186 1196.25Z" stroke="#1A66EA" stroke-opacity="0.2" stroke-width="2" stroke-miterlimit="10"/>
<path d="M9.50165 1226.78C180.756 1226.78 319.585 1087.95 319.585 916.693C319.585 745.439 180.756 606.61 9.50165 606.61C-161.753 606.61 -300.582 745.439 -300.582 916.693C-300.582 1087.95 -161.753 1226.78 9.50165 1226.78Z" stroke="#1A66EA" stroke-opacity="0.2" stroke-width="2" stroke-miterlimit="10" stroke-dasharray="12 12"/>
<path d="M70.7296 643.655C28.8821 783.261 -100.777 884.965 -253.932 884.965C-441.217 884.965 -593 733.181 -593 546.068C-593 358.955 -441.217 207 -253.932 207C-66.647 207 85.1361 358.783 85.1361 546.068C85.1361 559.446 84.2786 572.652 82.9066 585.514" stroke="#1A66EA" stroke-opacity="0.2" stroke-width="2" stroke-miterlimit="10"/>
<path d="M10.3593 637.309C-27.5436 746.902 -131.476 825.623 -253.932 825.623C-408.288 825.623 -533.487 700.424 -533.487 546.068C-533.487 391.712 -408.288 266.513 -253.932 266.513C-99.5762 266.513 25.6235 391.712 25.6235 546.068C25.6235 556.873 24.9374 567.506 23.9084 577.968" stroke="#1A66EA" stroke-opacity="0.2" stroke-width="2" stroke-miterlimit="10"/>
<path d="M41.9165 638.853C2.47003 764.739 -115.012 855.98 -253.932 855.98C-425.095 855.98 -564.016 717.231 -564.016 545.897C-564.016 374.562 -425.267 235.985 -253.932 235.985C-82.5972 235.985 56.1515 374.733 56.1515 546.068C56.1515 557.73 55.4655 569.221 54.2649 580.541" stroke="#1A66EA" stroke-opacity="0.2" stroke-width="2" stroke-miterlimit="10" stroke-dasharray="12 12"/>
</g>
<defs>
<linearGradient id="paint0_linear" x1="356.366" y1="412.489" x2="356.228" y2="425.236" gradientUnits="userSpaceOnUse">
<stop stop-color="#C9D1FF"/>
<stop offset="0.1211" stop-color="#B4C0FF"/>
<stop offset="0.3315" stop-color="#9DABF8"/>
<stop offset="0.606" stop-color="#647BF3"/>
<stop offset="0.931" stop-color="#2F4EF3"/>
<stop offset="1" stop-color="#2242EB"/>
</linearGradient>
<linearGradient id="paint1_linear" x1="312.588" y1="512.455" x2="304.459" y2="526.934" gradientUnits="userSpaceOnUse">
<stop stop-color="#2B47DC"/>
<stop offset="0.4031" stop-color="#1932B3"/>
<stop offset="0.7819" stop-color="#3A52D3"/>
<stop offset="0.96875" stop-color="#4E68F3"/>
</linearGradient>
<linearGradient id="paint2_linear" x1="319.581" y1="511.643" x2="308.244" y2="527.94" gradientUnits="userSpaceOnUse">
<stop stop-color="#2B47DC"/>
<stop offset="0.4031" stop-color="#1932B3"/>
<stop offset="0.7819" stop-color="#3A52D3"/>
<stop offset="0.96875" stop-color="#4E68F3"/>
</linearGradient>
<linearGradient id="paint3_linear" x1="317.141" y1="516.797" x2="299.024" y2="527.408" gradientUnits="userSpaceOnUse">
<stop stop-color="#6E7ED8"/>
<stop offset="0.2319" stop-color="#9FAFFF"/>
<stop offset="0.74" stop-color="#9FAFFF"/>
<stop offset="1" stop-color="#4663FF"/>
</linearGradient>
<linearGradient id="paint4_linear" x1="195.524" y1="444.528" x2="187.099" y2="458.635" gradientUnits="userSpaceOnUse">
<stop stop-color="#2B47DC"/>
<stop offset="0.4031" stop-color="#1932B3"/>
<stop offset="0.7819" stop-color="#3A52D3"/>
<stop offset="0.96875" stop-color="#4E68F3"/>
</linearGradient>
<linearGradient id="paint5_linear" x1="203.033" y1="444.371" x2="191.697" y2="460.669" gradientUnits="userSpaceOnUse">
<stop stop-color="#2B47DC"/>
<stop offset="0.4031" stop-color="#1932B3"/>
<stop offset="0.7819" stop-color="#3A52D3"/>
<stop offset="0.96875" stop-color="#4E68F3"/>
</linearGradient>
<linearGradient id="paint6_linear" x1="195.363" y1="448.326" x2="185.058" y2="462.632" gradientUnits="userSpaceOnUse">
<stop stop-color="#2B47DC"/>
<stop offset="0.4031" stop-color="#1932B3"/>
<stop offset="0.7819" stop-color="#3A52D3"/>
<stop offset="0.96875" stop-color="#4E68F3"/>
</linearGradient>
<linearGradient id="paint7_linear" x1="191.694" y1="438.326" x2="191.356" y2="470.473" gradientUnits="userSpaceOnUse">
<stop stop-color="#C9D1FF"/>
<stop offset="0.1211" stop-color="#B4C0FF"/>
<stop offset="0.3315" stop-color="#9DABF8"/>
<stop offset="0.606" stop-color="#647BF3"/>
<stop offset="1" stop-color="#C8D1FF"/>
</linearGradient>
<linearGradient id="paint8_linear" x1="245.368" y1="486.478" x2="340.672" y2="405.583" gradientUnits="userSpaceOnUse">
<stop offset="0.161458" stop-color="#C4CFFF"/>
<stop offset="0.5361" stop-color="#D1D9FF"/>
<stop offset="1" stop-color="white"/>
</linearGradient>
<linearGradient id="paint9_linear" x1="410.742" y1="510.319" x2="323.029" y2="510.319" gradientUnits="userSpaceOnUse">
<stop stop-color="white"/>
<stop offset="0.2304" stop-color="#D0D8FF"/>
<stop offset="0.6399" stop-color="#D5DBFF"/>
<stop offset="1" stop-color="#B6C1FF"/>
</linearGradient>
<linearGradient id="paint10_linear" x1="235.864" y1="449.601" x2="225.521" y2="468.607" gradientUnits="userSpaceOnUse">
<stop stop-color="#CDD5FF"/>
<stop offset="0.3601" stop-color="#C8D1FF"/>
<stop offset="0.7696" stop-color="#F0F2FF"/>
<stop offset="1" stop-color="white"/>
</linearGradient>
<linearGradient id="paint11_linear" x1="380.753" y1="454.704" x2="326.622" y2="475.921" gradientUnits="userSpaceOnUse">
<stop stop-color="#2D3D95"/>
<stop offset="1" stop-color="#020620"/>
</linearGradient>
<linearGradient id="paint12_linear" x1="358.87" y1="506.046" x2="396.955" y2="484.599" gradientUnits="userSpaceOnUse">
<stop stop-color="#1C37C6"/>
<stop offset="0.2181" stop-color="#1C37C6"/>
<stop offset="0.5969" stop-color="#1C37C6"/>
<stop offset="1" stop-color="#1C37C6"/>
</linearGradient>
<linearGradient id="paint13_linear" x1="376.688" y1="513.218" x2="383.08" y2="524.325" gradientUnits="userSpaceOnUse">
<stop stop-color="#1C37C6"/>
<stop offset="0.2181" stop-color="#172C9F"/>
<stop offset="0.5969" stop-color="#3C55DC"/>
<stop offset="1" stop-color="#637AF7"/>
</linearGradient>
<linearGradient id="paint14_linear" x1="407.157" y1="521.087" x2="355.599" y2="521.087" gradientUnits="userSpaceOnUse">
<stop stop-color="#2848F3"/>
<stop offset="0.394" stop-color="#637BF9"/>
<stop offset="0.6685" stop-color="#9AA9F9"/>
<stop offset="0.8789" stop-color="#ADBAFF"/>
<stop offset="1" stop-color="#B7C2FF"/>
</linearGradient>
<linearGradient id="paint15_linear" x1="328.215" y1="517.614" x2="290.334" y2="517.614" gradientUnits="userSpaceOnUse">
<stop stop-color="#BCC7FF"/>
<stop offset="0.3601" stop-color="#CAD2FF"/>
<stop offset="0.7696" stop-color="#EEF1FF"/>
<stop offset="1" stop-color="white"/>
</linearGradient>
<linearGradient id="paint16_linear" x1="199.911" y1="445.44" x2="181.416" y2="461.011" gradientUnits="userSpaceOnUse">
<stop stop-color="#B4C0FF"/>
<stop offset="0.3601" stop-color="#CDD5FF"/>
<stop offset="0.7696" stop-color="#E7EAFF"/>
<stop offset="1" stop-color="white"/>
</linearGradient>
<linearGradient id="paint17_linear" x1="265.743" y1="431.464" x2="252.714" y2="452.236" gradientUnits="userSpaceOnUse">
<stop stop-color="#2B47DC"/>
<stop offset="0.4031" stop-color="#1932B3"/>
<stop offset="0.7819" stop-color="#3A52D3"/>
<stop offset="0.96875" stop-color="#4E68F3"/>
</linearGradient>
<linearGradient id="paint18_linear" x1="283.337" y1="453.332" x2="343.733" y2="413.381" gradientUnits="userSpaceOnUse">
<stop stop-color="#1C37C6"/>
<stop offset="0.2181" stop-color="#182EA7"/>
<stop offset="0.5969" stop-color="#3653ED"/>
<stop offset="1" stop-color="#3E5CFF"/>
</linearGradient>
<linearGradient id="paint19_linear" x1="195.237" y1="401.13" x2="195.237" y2="379.576" gradientUnits="userSpaceOnUse">
<stop stop-color="#00168D"/>
<stop offset="0.2181" stop-color="#0F2289"/>
<stop offset="0.5969" stop-color="#1E3BD7"/>
<stop offset="1" stop-color="#2C4CF4"/>
</linearGradient>
<linearGradient id="paint20_linear" x1="216.385" y1="411.399" x2="208.44" y2="427.321" gradientUnits="userSpaceOnUse">
<stop stop-color="#2B47DC"/>
<stop offset="0.4031" stop-color="#1932B3"/>
<stop offset="0.7819" stop-color="#3A52D3"/>
<stop offset="0.96875" stop-color="#4E68F3"/>
</linearGradient>
<linearGradient id="paint21_linear" x1="241.746" y1="451.197" x2="233.592" y2="451.197" gradientUnits="userSpaceOnUse">
<stop offset="0.0677083" stop-color="#BAC5FF"/>
<stop offset="0.484375" stop-color="#BEC8FF"/>
<stop offset="0.8092" stop-color="#F0F2FF"/>
<stop offset="1" stop-color="white"/>
</linearGradient>
<linearGradient id="paint22_linear" x1="241.427" y1="451.012" x2="232.615" y2="451.012" gradientUnits="userSpaceOnUse">
<stop stop-color="#E1E6FF"/>
<stop offset="0.5941" stop-color="#CCD4FF"/>
<stop offset="1" stop-color="#8094FC"/>
</linearGradient>
<linearGradient id="paint23_linear" x1="201.044" y1="427.734" x2="192.891" y2="427.734" gradientUnits="userSpaceOnUse">
<stop stop-color="#98A8FF"/>
<stop offset="0.4686" stop-color="#CED6FF"/>
<stop offset="0.8092" stop-color="#F0F2FF"/>
<stop offset="1" stop-color="white"/>
</linearGradient>
<linearGradient id="paint24_linear" x1="200.726" y1="427.549" x2="191.913" y2="427.549" gradientUnits="userSpaceOnUse">
<stop stop-color="#C4CDFF"/>
<stop offset="0.5941" stop-color="#DFE4FF"/>
<stop offset="1" stop-color="#F2F4FF"/>
</linearGradient>
<linearGradient id="paint25_linear" x1="276.46" y1="459.475" x2="276.415" y2="469.939" gradientUnits="userSpaceOnUse">
<stop stop-color="#C9D1FF"/>
<stop offset="0.1211" stop-color="#B4C0FF"/>
<stop offset="0.3315" stop-color="#9DABF8"/>
<stop offset="0.606" stop-color="#647BF3"/>
<stop offset="0.931" stop-color="#2F4EF3"/>
<stop offset="1" stop-color="#2242EB"/>
</linearGradient>
<linearGradient id="paint26_linear" x1="301.209" y1="404.287" x2="344.84" y2="434.178" gradientUnits="userSpaceOnUse">
<stop stop-color="#2C3361"/>
<stop offset="1" stop-color="#060000"/>
</linearGradient>
<radialGradient id="paint27_radial" cx="0" cy="0" r="1" gradientUnits="userSpaceOnUse" gradientTransform="translate(225.148 576.26) rotate(180) scale(44.1388 25.2833)">
<stop stop-color="#BBC6FF"/>
<stop offset="0.2023" stop-color="#A9B7FF"/>
<stop offset="0.5671" stop-color="#D7DDFF"/>
<stop offset="0.8446" stop-color="#E9ECFF"/>
<stop offset="1" stop-color="white"/>
</radialGradient>
<radialGradient id="paint28_radial" cx="0" cy="0" r="1" gradientUnits="userSpaceOnUse" gradientTransform="translate(137.131 526.121) rotate(180) scale(44.1388 25.2833)">
<stop stop-color="#95A6FF"/>
<stop offset="0.2023" stop-color="#A6B2EF"/>
<stop offset="0.5671" stop-color="#D2D9FF"/>
<stop offset="0.8446" stop-color="#EEF1FF"/>
<stop offset="1" stop-color="white"/>
</radialGradient>
<linearGradient id="paint29_linear" x1="183.267" y1="508.095" x2="91.006" y2="508.095" gradientUnits="userSpaceOnUse">
<stop stop-color="#CDD5FF"/>
<stop offset="0.5941" stop-color="#DEE3FF"/>
<stop offset="1" stop-color="#E9ECFF"/>
</linearGradient>
<linearGradient id="paint30_linear" x1="137.13" y1="481.838" x2="137.13" y2="535.121" gradientUnits="userSpaceOnUse">
<stop stop-color="#9BABFF"/>
<stop offset="0.2479" stop-color="#AEBBFF"/>
<stop offset="0.7468" stop-color="#E0E5FF"/>
<stop offset="1" stop-color="white"/>
</linearGradient>
<radialGradient id="paint31_radial" cx="0" cy="0" r="1" gradientUnits="userSpaceOnUse" gradientTransform="translate(131.974 502.763) rotate(180) scale(19.8103 9.30631)">
<stop offset="0.0202459" stop-color="#A5B3FF"/>
<stop offset="0.4686" stop-color="#D2D9FF"/>
<stop offset="0.8092" stop-color="#E4E9FF"/>
<stop offset="1" stop-color="white"/>
</radialGradient>
</defs>
</svg>
