<svg width="152" height="38" viewBox="0 0 152 38" fill="none" xmlns="http://www.w3.org/2000/svg">
<path d="M81.232 7.16541H0" stroke="url(#paint0_linear)" stroke-width="2"/>
<path d="M81.232 29.9376H0" stroke="url(#paint1_linear)" stroke-width="2"/>
<path d="M79.1928 20.3528L79.1928 18.9933L79.1928 17.6338C79.1928 12.7395 79.1928 3.63061 85.7865 3.63061C92.9241 3.63061 103.053 3.76657 110.462 3.83454C114.337 3.9705 117.464 3.9705 118.619 3.9705C119.707 3.9705 120.726 3.90252 122.154 3.90252C125.009 3.76657 129.292 3.63061 138.128 3.63061C148.325 3.63062 151.928 11.9238 151.928 18.9933C151.928 26.0629 148.325 34.356 138.128 34.356C129.292 34.356 125.009 34.2201 122.154 34.0841C120.794 34.0841 119.707 34.0161 118.619 34.0161C117.464 34.0161 114.337 34.0841 110.394 34.0841C102.985 34.1521 92.8561 34.288 85.7186 34.288C82.9315 34.288 80.9602 32.5886 80.0085 29.1898C79.2608 26.5387 79.1928 23.2079 79.1928 20.3528ZM80.5523 18.9933L80.5523 20.3528C80.5523 23.1399 80.6203 26.3348 81.368 28.8499C82.1838 31.637 83.6113 32.9285 85.7865 32.9285C92.9241 32.9285 103.053 32.7926 110.462 32.7246C114.337 32.7246 117.464 32.6566 118.619 32.6566C119.707 32.6566 120.794 32.7246 122.222 32.7246C125.077 32.8605 129.292 32.9965 138.128 32.9965C149.956 33.0645 150.568 21.3725 150.568 18.9933C150.568 16.6821 149.956 4.99015 138.128 4.99015C129.36 4.99015 125.077 5.1261 122.222 5.26205C120.794 5.33003 119.707 5.33003 118.619 5.33003C117.464 5.33003 114.337 5.26205 110.394 5.26205C102.985 5.19407 92.8561 5.05812 85.7865 5.05812C80.9602 5.05812 80.5523 11.5839 80.5523 17.7018L80.5523 18.9933Z" fill="#939FE4"/>
<path d="M123.31 34.1521L123.31 32.7926C129.156 32.7926 133.914 26.6067 133.914 18.9934C133.914 11.38 129.156 5.19413 123.31 5.19413L123.31 3.83459C129.903 3.83459 135.273 10.6323 135.273 18.9934C135.273 27.3545 129.903 34.1521 123.31 34.1521Z" fill="#939FE4"/>
<path d="M106.519 29.9375L106.519 8.11706L114.337 8.11707C120.658 8.11707 120.658 12.9434 120.658 16.4102C120.658 16.8181 120.658 17.2259 120.658 17.6338C120.658 18.5175 120.658 19.4692 120.658 20.3528C120.658 20.7607 120.658 21.1686 120.658 21.5764C120.658 25.0432 120.658 29.8696 114.337 29.8696L106.519 29.8696L106.519 29.9375ZM107.879 9.4766L107.879 28.578L114.337 28.578C118.619 28.578 119.299 26.5387 119.299 21.6444C119.299 21.2365 119.299 20.8287 119.299 20.4208C119.299 19.5371 119.299 18.5855 119.299 17.7018C119.299 17.2939 119.299 16.886 119.299 16.4782C119.299 11.5839 118.619 9.54457 114.337 9.54457L107.879 9.54457L107.879 9.4766Z" fill="#939FE4"/>
<path d="M107.766 29.6475L106.652 28.8679L103.495 33.3791L104.609 34.1586L107.766 29.6475Z" fill="#939FE4"/>
<path d="M107.774 8.44137L105.341 3.96155L104.146 4.61059L106.58 9.09041L107.774 8.44137Z" fill="#939FE4"/>
<path d="M126.807 32.821L116.139 28.559L115.635 29.8214L126.303 34.0835L126.807 32.821Z" fill="#939FE4"/>
<path d="M126.83 5.18899L126.326 3.92639L115.657 8.1873L116.161 9.4499L126.83 5.18899Z" fill="#939FE4"/>
<path d="M82.7955 18.9933C82.7955 8.59287 84.0191 6.4856 84.155 6.28167L84.3589 6.00976L106.043 6.00977L106.043 7.3693L85.1747 7.3693C84.9027 8.18501 84.155 11.04 84.155 19.0613L82.7955 19.0613L82.7955 18.9933Z" fill="#939FE4"/>
<path d="M82.7955 18.9934L84.155 18.9934C84.155 26.9467 84.8348 29.8017 85.1747 30.6854L106.043 30.6854L106.043 32.0449L84.3589 32.0449L84.155 31.773C84.0191 31.5691 82.7955 29.4618 82.7955 18.9934Z" fill="#939FE4"/>
<path d="M86.9422 30.8892L89.3214 28.578L99.11 28.578L100.605 31.0252L99.3819 31.7049L98.3622 29.9375L89.8652 29.9375L87.8259 31.8409L86.9422 30.8892Z" fill="#939FE4"/>
<path d="M86.9422 7.1654L87.8259 6.14575L89.8652 8.11707L98.3622 8.11707L99.3819 6.34968L100.605 7.02945L99.11 9.4766L89.3214 9.4766L86.9422 7.1654Z" fill="#939FE4"/>
<path d="M146.49 7.7772L147.849 7.70923C148.053 12.7395 151.044 14.167 151.044 14.167L150.5 15.3906C150.364 15.3226 146.761 13.6232 146.49 7.7772Z" fill="#939FE4"/>
<path d="M146.49 30.2774C146.761 24.4315 150.296 22.732 150.5 22.6641L151.044 23.8876C150.908 23.9556 148.053 25.3151 147.849 30.3454L146.49 30.2774Z" fill="#939FE4"/>
<path d="M125.815 33.2428L124.596 32.6423L122.254 37.3994L123.474 37.9999L125.815 33.2428Z" fill="#939FE4"/>
<path d="M125.831 4.75658L123.489 0L122.269 0.600505L124.611 5.35708L125.831 4.75658Z" fill="#939FE4"/>
<defs>
<linearGradient id="paint0_linear" x1="81.5719" y1="7.62409" x2="-1.35953" y2="7.62415" gradientUnits="userSpaceOnUse">
<stop stop-color="#CDD5FF"/>
<stop offset="1" stop-color="#CDD5FF" stop-opacity="0"/>
</linearGradient>
<linearGradient id="paint1_linear" x1="81.5719" y1="29.8967" x2="-2.37918" y2="29.8967" gradientUnits="userSpaceOnUse">
<stop stop-color="#CDD5FF"/>
<stop offset="1" stop-color="#CDD5FF" stop-opacity="0"/>
</linearGradient>
</defs>
</svg>
