<svg width="613" height="393" viewBox="0 0 613 393" fill="none" xmlns="http://www.w3.org/2000/svg">
<g opacity="0.2" clip-path="url(#clip0)">
<path d="M562.058 3.8432C562.058 5.96575 563.778 7.68641 565.901 7.68641C568.023 7.68641 569.744 5.96575 569.744 3.8432C569.744 1.72066 568.023 -7.52125e-08 565.901 -1.67992e-07C563.778 -2.60771e-07 562.058 1.72066 562.058 3.8432Z" fill="#1C37C6"/>
<path d="M562.058 46.6367C562.058 48.7592 563.778 50.4799 565.901 50.4799C568.023 50.4799 569.744 48.7592 569.744 46.6367C569.744 44.5141 568.023 42.7935 565.901 42.7935C563.778 42.7935 562.058 44.5141 562.058 46.6367Z" fill="#1C37C6"/>
<path d="M562.058 89.4732C562.058 91.5957 563.778 93.3164 565.901 93.3164C568.023 93.3164 569.744 91.5957 569.744 89.4732C569.744 87.3507 568.023 85.63 565.901 85.63C563.778 85.63 562.058 87.3507 562.058 89.4732Z" fill="#1C37C6"/>
<path d="M562.058 132.267C562.058 134.389 563.778 136.11 565.901 136.11C568.023 136.11 569.744 134.389 569.744 132.267C569.744 130.144 568.023 128.423 565.901 128.423C563.778 128.423 562.058 130.144 562.058 132.267Z" fill="#1C37C6"/>
<path d="M562.058 175.103C562.058 177.226 563.778 178.947 565.901 178.947C568.023 178.947 569.744 177.226 569.744 175.103C569.744 172.981 568.023 171.26 565.901 171.26C563.778 171.26 562.058 172.981 562.058 175.103Z" fill="#1C37C6"/>
<path d="M562.058 217.897C562.058 220.019 563.778 221.74 565.901 221.74C568.023 221.74 569.744 220.019 569.744 217.897C569.744 215.774 568.023 214.053 565.901 214.053C563.778 214.053 562.058 215.774 562.058 217.897Z" fill="#1C37C6"/>
<path d="M562.058 260.69C562.058 262.813 563.778 264.533 565.901 264.533C568.023 264.533 569.744 262.813 569.744 260.69C569.744 258.568 568.023 256.847 565.901 256.847C563.778 256.847 562.058 258.568 562.058 260.69Z" fill="#1C37C6"/>
<path d="M562.058 303.527C562.058 305.649 563.778 307.37 565.901 307.37C568.023 307.37 569.744 305.649 569.744 303.527C569.744 301.404 568.023 299.684 565.901 299.684C563.778 299.684 562.058 301.404 562.058 303.527Z" fill="#1C37C6"/>
<path d="M562.058 346.32C562.058 348.443 563.778 350.163 565.901 350.163C568.023 350.163 569.744 348.443 569.744 346.32C569.744 344.198 568.023 342.477 565.901 342.477C563.778 342.477 562.058 344.198 562.058 346.32Z" fill="#1C37C6"/>
<path d="M562.058 389.157C562.058 391.279 563.778 393 565.901 393C568.023 393 569.744 391.279 569.744 389.157C569.744 387.034 568.023 385.313 565.901 385.313C563.778 385.313 562.058 387.034 562.058 389.157Z" fill="#1C37C6"/>
<path d="M518.832 3.8432C518.832 5.96575 520.553 7.68641 522.676 7.68641C524.798 7.68641 526.519 5.96575 526.519 3.8432C526.519 1.72066 524.798 -7.52127e-08 522.676 -1.67992e-07C520.553 -2.60771e-07 518.832 1.72066 518.832 3.8432Z" fill="#1C37C6"/>
<path d="M518.832 46.6367C518.832 48.7592 520.553 50.4799 522.676 50.4799C524.798 50.4799 526.519 48.7592 526.519 46.6367C526.519 44.5141 524.798 42.7935 522.676 42.7935C520.553 42.7935 518.832 44.5141 518.832 46.6367Z" fill="#1C37C6"/>
<path d="M518.832 89.4732C518.832 91.5957 520.553 93.3164 522.676 93.3164C524.798 93.3164 526.519 91.5957 526.519 89.4732C526.519 87.3507 524.798 85.63 522.676 85.63C520.553 85.63 518.832 87.3507 518.832 89.4732Z" fill="#1C37C6"/>
<path d="M518.832 132.267C518.832 134.389 520.553 136.11 522.676 136.11C524.798 136.11 526.519 134.389 526.519 132.267C526.519 130.144 524.798 128.423 522.676 128.423C520.553 128.423 518.832 130.144 518.832 132.267Z" fill="#1C37C6"/>
<path d="M518.832 175.103C518.832 177.226 520.553 178.947 522.676 178.947C524.798 178.947 526.519 177.226 526.519 175.103C526.519 172.981 524.798 171.26 522.676 171.26C520.553 171.26 518.832 172.981 518.832 175.103Z" fill="#1C37C6"/>
<path d="M518.832 217.897C518.832 220.019 520.553 221.74 522.676 221.74C524.798 221.74 526.519 220.019 526.519 217.897C526.519 215.774 524.798 214.054 522.676 214.054C520.553 214.054 518.832 215.774 518.832 217.897Z" fill="#1C37C6"/>
<path d="M518.832 260.69C518.832 262.813 520.553 264.533 522.676 264.533C524.798 264.533 526.519 262.813 526.519 260.69C526.519 258.568 524.798 256.847 522.676 256.847C520.553 256.847 518.832 258.568 518.832 260.69Z" fill="#1C37C6"/>
<path d="M518.832 303.527C518.832 305.649 520.553 307.37 522.676 307.37C524.798 307.37 526.519 305.649 526.519 303.527C526.519 301.404 524.798 299.684 522.676 299.684C520.553 299.684 518.832 301.404 518.832 303.527Z" fill="#1C37C6"/>
<path d="M518.832 346.32C518.832 348.443 520.553 350.163 522.676 350.163C524.798 350.163 526.519 348.443 526.519 346.32C526.519 344.198 524.798 342.477 522.676 342.477C520.553 342.477 518.832 344.198 518.832 346.32Z" fill="#1C37C6"/>
<path d="M518.832 389.157C518.832 391.279 520.553 393 522.676 393C524.798 393 526.519 391.279 526.519 389.157C526.519 387.034 524.798 385.314 522.676 385.314C520.553 385.314 518.832 387.034 518.832 389.157Z" fill="#1C37C6"/>
<path d="M475.564 3.8432C475.564 5.96575 477.285 7.68641 479.407 7.68641C481.53 7.68641 483.25 5.96575 483.25 3.8432C483.25 1.72066 481.53 -7.52124e-08 479.407 -1.67992e-07C477.285 -2.60771e-07 475.564 1.72066 475.564 3.8432Z" fill="#1C37C6"/>
<path d="M475.564 46.6367C475.564 48.7592 477.285 50.4799 479.407 50.4799C481.53 50.4799 483.25 48.7592 483.25 46.6367C483.25 44.5141 481.53 42.7935 479.407 42.7935C477.285 42.7935 475.564 44.5141 475.564 46.6367Z" fill="#1C37C6"/>
<path d="M475.564 89.4732C475.564 91.5957 477.285 93.3164 479.407 93.3164C481.53 93.3164 483.25 91.5957 483.25 89.4732C483.25 87.3507 481.53 85.63 479.407 85.63C477.285 85.63 475.564 87.3507 475.564 89.4732Z" fill="#1C37C6"/>
<path d="M475.564 132.267C475.564 134.389 477.285 136.11 479.407 136.11C481.53 136.11 483.25 134.389 483.25 132.267C483.25 130.144 481.53 128.423 479.407 128.423C477.285 128.423 475.564 130.144 475.564 132.267Z" fill="#1C37C6"/>
<path d="M475.564 175.103C475.564 177.226 477.285 178.947 479.407 178.947C481.53 178.947 483.25 177.226 483.25 175.103C483.25 172.981 481.53 171.26 479.407 171.26C477.285 171.26 475.564 172.981 475.564 175.103Z" fill="#1C37C6"/>
<path d="M475.564 217.897C475.564 220.019 477.285 221.74 479.407 221.74C481.53 221.74 483.25 220.019 483.25 217.897C483.25 215.774 481.53 214.054 479.407 214.054C477.285 214.054 475.564 215.774 475.564 217.897Z" fill="#1C37C6"/>
<path d="M475.564 260.69C475.564 262.813 477.285 264.533 479.407 264.533C481.53 264.533 483.25 262.813 483.25 260.69C483.25 258.568 481.53 256.847 479.407 256.847C477.285 256.847 475.564 258.568 475.564 260.69Z" fill="#1C37C6"/>
<path d="M475.564 303.527C475.564 305.649 477.285 307.37 479.407 307.37C481.53 307.37 483.25 305.649 483.25 303.527C483.25 301.404 481.53 299.684 479.407 299.684C477.285 299.684 475.564 301.404 475.564 303.527Z" fill="#1C37C6"/>
<path d="M475.564 346.32C475.564 348.443 477.285 350.163 479.407 350.163C481.53 350.163 483.25 348.443 483.25 346.32C483.25 344.198 481.53 342.477 479.407 342.477C477.285 342.477 475.564 344.198 475.564 346.32Z" fill="#1C37C6"/>
<path d="M475.564 389.157C475.564 391.279 477.285 393 479.407 393C481.53 393 483.25 391.279 483.25 389.157C483.25 387.034 481.53 385.314 479.407 385.314C477.285 385.314 475.564 387.034 475.564 389.157Z" fill="#1C37C6"/>
<path d="M432.339 3.8432C432.339 5.96575 434.059 7.68641 436.182 7.68641C438.304 7.68641 440.025 5.96575 440.025 3.8432C440.025 1.72066 438.304 -7.52124e-08 436.182 -1.67992e-07C434.059 -2.60771e-07 432.339 1.72066 432.339 3.8432Z" fill="#1C37C6"/>
<path d="M432.339 46.6367C432.339 48.7592 434.059 50.4799 436.182 50.4799C438.304 50.4799 440.025 48.7592 440.025 46.6367C440.025 44.5141 438.304 42.7935 436.182 42.7935C434.059 42.7935 432.339 44.5141 432.339 46.6367Z" fill="#1C37C6"/>
<path d="M432.339 89.4732C432.339 91.5957 434.059 93.3164 436.182 93.3164C438.304 93.3164 440.025 91.5957 440.025 89.4732C440.025 87.3507 438.304 85.63 436.182 85.63C434.059 85.63 432.339 87.3507 432.339 89.4732Z" fill="#1C37C6"/>
<path d="M432.339 132.267C432.339 134.389 434.059 136.11 436.182 136.11C438.304 136.11 440.025 134.389 440.025 132.267C440.025 130.144 438.304 128.423 436.182 128.423C434.059 128.423 432.339 130.144 432.339 132.267Z" fill="#1C37C6"/>
<path d="M432.339 175.103C432.339 177.226 434.059 178.947 436.182 178.947C438.304 178.947 440.025 177.226 440.025 175.103C440.025 172.981 438.304 171.26 436.182 171.26C434.059 171.26 432.339 172.981 432.339 175.103Z" fill="#1C37C6"/>
<path d="M432.339 217.897C432.339 220.019 434.059 221.74 436.182 221.74C438.304 221.74 440.025 220.019 440.025 217.897C440.025 215.774 438.304 214.054 436.182 214.054C434.059 214.054 432.339 215.774 432.339 217.897Z" fill="#1C37C6"/>
<path d="M432.339 260.69C432.339 262.813 434.059 264.533 436.182 264.533C438.304 264.533 440.025 262.813 440.025 260.69C440.025 258.568 438.304 256.847 436.182 256.847C434.059 256.847 432.339 258.568 432.339 260.69Z" fill="#1C37C6"/>
<path d="M432.339 303.527C432.339 305.649 434.059 307.37 436.182 307.37C438.304 307.37 440.025 305.649 440.025 303.527C440.025 301.404 438.304 299.684 436.182 299.684C434.059 299.684 432.339 301.404 432.339 303.527Z" fill="#1C37C6"/>
<path d="M432.339 346.32C432.339 348.443 434.059 350.163 436.182 350.163C438.304 350.163 440.025 348.443 440.025 346.32C440.025 344.198 438.304 342.477 436.182 342.477C434.059 342.477 432.339 344.198 432.339 346.32Z" fill="#1C37C6"/>
<path d="M432.339 389.157C432.339 391.279 434.059 393 436.182 393C438.304 393 440.025 391.279 440.025 389.157C440.025 387.034 438.304 385.314 436.182 385.314C434.059 385.314 432.339 387.034 432.339 389.157Z" fill="#1C37C6"/>
<path d="M389.114 3.8432C389.114 5.96575 390.834 7.68641 392.957 7.68641C395.079 7.68641 396.8 5.96575 396.8 3.8432C396.8 1.72066 395.079 -7.52124e-08 392.957 -1.67992e-07C390.834 -2.60771e-07 389.114 1.72066 389.114 3.8432Z" fill="#1C37C6"/>
<path d="M389.114 46.6367C389.114 48.7592 390.834 50.4799 392.957 50.4799C395.079 50.4799 396.8 48.7592 396.8 46.6367C396.8 44.5141 395.079 42.7935 392.957 42.7935C390.834 42.7935 389.114 44.5141 389.114 46.6367Z" fill="#1C37C6"/>
<path d="M389.114 89.4732C389.114 91.5957 390.834 93.3164 392.957 93.3164C395.079 93.3164 396.8 91.5957 396.8 89.4732C396.8 87.3507 395.079 85.63 392.957 85.63C390.834 85.63 389.114 87.3507 389.114 89.4732Z" fill="#1C37C6"/>
<path d="M389.114 132.267C389.114 134.389 390.834 136.11 392.957 136.11C395.079 136.11 396.8 134.389 396.8 132.267C396.8 130.144 395.079 128.423 392.957 128.423C390.834 128.423 389.114 130.144 389.114 132.267Z" fill="#1C37C6"/>
<path d="M389.114 175.103C389.114 177.226 390.834 178.947 392.957 178.947C395.079 178.947 396.8 177.226 396.8 175.103C396.8 172.981 395.079 171.26 392.957 171.26C390.834 171.26 389.114 172.981 389.114 175.103Z" fill="#1C37C6"/>
<path d="M389.114 217.897C389.114 220.019 390.834 221.74 392.957 221.74C395.079 221.74 396.8 220.019 396.8 217.897C396.8 215.774 395.079 214.053 392.957 214.053C390.834 214.053 389.114 215.774 389.114 217.897Z" fill="#1C37C6"/>
<path d="M389.114 260.69C389.114 262.813 390.834 264.533 392.957 264.533C395.079 264.533 396.8 262.813 396.8 260.69C396.8 258.568 395.079 256.847 392.957 256.847C390.834 256.847 389.114 258.568 389.114 260.69Z" fill="#1C37C6"/>
<path d="M389.114 303.527C389.114 305.649 390.834 307.37 392.957 307.37C395.079 307.37 396.8 305.649 396.8 303.527C396.8 301.404 395.079 299.684 392.957 299.684C390.834 299.684 389.114 301.404 389.114 303.527Z" fill="#1C37C6"/>
<path d="M389.114 346.32C389.114 348.443 390.834 350.163 392.957 350.163C395.079 350.163 396.8 348.443 396.8 346.32C396.8 344.198 395.079 342.477 392.957 342.477C390.834 342.477 389.114 344.198 389.114 346.32Z" fill="#1C37C6"/>
<path d="M389.114 389.157C389.114 391.279 390.834 393 392.957 393C395.079 393 396.8 391.279 396.8 389.157C396.8 387.034 395.079 385.313 392.957 385.313C390.834 385.313 389.114 387.034 389.114 389.157Z" fill="#1C37C6"/>
<path d="M345.888 3.8432C345.888 5.96575 347.609 7.68641 349.732 7.68641C351.854 7.68641 353.575 5.96575 353.575 3.8432C353.575 1.72066 351.854 -7.52118e-08 349.732 -1.67991e-07C347.609 -2.6077e-07 345.888 1.72066 345.888 3.8432Z" fill="#1C37C6"/>
<path d="M345.888 46.6367C345.888 48.7592 347.609 50.4799 349.732 50.4799C351.854 50.4799 353.575 48.7592 353.575 46.6367C353.575 44.5141 351.854 42.7935 349.732 42.7935C347.609 42.7935 345.888 44.5141 345.888 46.6367Z" fill="#1C37C6"/>
<path d="M345.888 89.4732C345.888 91.5957 347.609 93.3164 349.732 93.3164C351.854 93.3164 353.575 91.5957 353.575 89.4732C353.575 87.3507 351.854 85.63 349.732 85.63C347.609 85.63 345.888 87.3507 345.888 89.4732Z" fill="#1C37C6"/>
<path d="M345.888 132.267C345.888 134.389 347.609 136.11 349.732 136.11C351.854 136.11 353.575 134.389 353.575 132.267C353.575 130.144 351.854 128.423 349.732 128.423C347.609 128.423 345.888 130.144 345.888 132.267Z" fill="#1C37C6"/>
<path d="M345.888 175.103C345.888 177.226 347.609 178.947 349.732 178.947C351.854 178.947 353.575 177.226 353.575 175.103C353.575 172.981 351.854 171.26 349.732 171.26C347.609 171.26 345.888 172.981 345.888 175.103Z" fill="#1C37C6"/>
<path d="M345.888 217.897C345.888 220.019 347.609 221.74 349.732 221.74C351.854 221.74 353.575 220.019 353.575 217.897C353.575 215.774 351.854 214.053 349.732 214.053C347.609 214.053 345.888 215.774 345.888 217.897Z" fill="#1C37C6"/>
<path d="M345.888 260.69C345.888 262.813 347.609 264.533 349.732 264.533C351.854 264.533 353.575 262.813 353.575 260.69C353.575 258.568 351.854 256.847 349.732 256.847C347.609 256.847 345.888 258.568 345.888 260.69Z" fill="#1C37C6"/>
<path d="M345.888 303.527C345.888 305.649 347.609 307.37 349.732 307.37C351.854 307.37 353.575 305.649 353.575 303.527C353.575 301.404 351.854 299.684 349.732 299.684C347.609 299.684 345.888 301.404 345.888 303.527Z" fill="#1C37C6"/>
<path d="M345.888 346.32C345.888 348.443 347.609 350.163 349.732 350.163C351.854 350.163 353.575 348.443 353.575 346.32C353.575 344.198 351.854 342.477 349.732 342.477C347.609 342.477 345.888 344.198 345.888 346.32Z" fill="#1C37C6"/>
<path d="M345.888 389.157C345.888 391.279 347.609 393 349.732 393C351.854 393 353.575 391.279 353.575 389.157C353.575 387.034 351.854 385.313 349.732 385.313C347.609 385.313 345.888 387.034 345.888 389.157Z" fill="#1C37C6"/>
<path d="M302.62 3.8432C302.62 5.96575 304.34 7.68641 306.463 7.68641C308.586 7.68641 310.306 5.96575 310.306 3.8432C310.306 1.72066 308.586 -7.52118e-08 306.463 -1.67991e-07C304.34 -2.6077e-07 302.62 1.72066 302.62 3.8432Z" fill="#1C37C6"/>
<path d="M302.62 46.6367C302.62 48.7592 304.34 50.4799 306.463 50.4799C308.586 50.4799 310.306 48.7592 310.306 46.6367C310.306 44.5141 308.586 42.7935 306.463 42.7935C304.34 42.7935 302.62 44.5141 302.62 46.6367Z" fill="#1C37C6"/>
<path d="M302.62 89.4732C302.62 91.5957 304.34 93.3164 306.463 93.3164C308.586 93.3164 310.306 91.5957 310.306 89.4732C310.306 87.3507 308.586 85.63 306.463 85.63C304.34 85.63 302.62 87.3507 302.62 89.4732Z" fill="#1C37C6"/>
<path d="M302.62 132.267C302.62 134.389 304.34 136.11 306.463 136.11C308.586 136.11 310.306 134.389 310.306 132.267C310.306 130.144 308.586 128.423 306.463 128.423C304.34 128.423 302.62 130.144 302.62 132.267Z" fill="#1C37C6"/>
<path d="M302.62 175.103C302.62 177.226 304.34 178.947 306.463 178.947C308.586 178.947 310.306 177.226 310.306 175.103C310.306 172.981 308.586 171.26 306.463 171.26C304.34 171.26 302.62 172.981 302.62 175.103Z" fill="#1C37C6"/>
<path d="M302.62 217.897C302.62 220.019 304.34 221.74 306.463 221.74C308.586 221.74 310.306 220.019 310.306 217.897C310.306 215.774 308.586 214.053 306.463 214.053C304.34 214.053 302.62 215.774 302.62 217.897Z" fill="#1C37C6"/>
<path d="M302.62 260.69C302.62 262.813 304.34 264.533 306.463 264.533C308.586 264.533 310.306 262.813 310.306 260.69C310.306 258.568 308.586 256.847 306.463 256.847C304.34 256.847 302.62 258.568 302.62 260.69Z" fill="#1C37C6"/>
<path d="M302.62 303.527C302.62 305.649 304.34 307.37 306.463 307.37C308.586 307.37 310.306 305.649 310.306 303.527C310.306 301.404 308.586 299.684 306.463 299.684C304.34 299.684 302.62 301.404 302.62 303.527Z" fill="#1C37C6"/>
<path d="M302.62 346.32C302.62 348.443 304.34 350.163 306.463 350.163C308.586 350.163 310.306 348.443 310.306 346.32C310.306 344.198 308.586 342.477 306.463 342.477C304.34 342.477 302.62 344.198 302.62 346.32Z" fill="#1C37C6"/>
<path d="M302.62 389.157C302.62 391.279 304.34 393 306.463 393C308.586 393 310.306 391.279 310.306 389.157C310.306 387.034 308.586 385.313 306.463 385.313C304.34 385.313 302.62 387.034 302.62 389.157Z" fill="#1C37C6"/>
<path d="M259.395 3.8432C259.395 5.96575 261.115 7.68641 263.238 7.68641C265.36 7.68641 267.081 5.96575 267.081 3.8432C267.081 1.72066 265.36 -7.52129e-08 263.238 -1.67992e-07C261.115 -2.60772e-07 259.395 1.72066 259.395 3.8432Z" fill="#1C37C6"/>
<path d="M259.395 46.6367C259.395 48.7592 261.115 50.4799 263.238 50.4799C265.36 50.4799 267.081 48.7592 267.081 46.6367C267.081 44.5141 265.36 42.7935 263.238 42.7935C261.115 42.7935 259.395 44.5141 259.395 46.6367Z" fill="#1C37C6"/>
<path d="M259.395 89.4732C259.395 91.5957 261.115 93.3164 263.238 93.3164C265.36 93.3164 267.081 91.5957 267.081 89.4732C267.081 87.3507 265.36 85.63 263.238 85.63C261.115 85.63 259.395 87.3507 259.395 89.4732Z" fill="#1C37C6"/>
<path d="M259.395 132.267C259.395 134.389 261.115 136.11 263.238 136.11C265.36 136.11 267.081 134.389 267.081 132.267C267.081 130.144 265.36 128.423 263.238 128.423C261.115 128.423 259.395 130.144 259.395 132.267Z" fill="#1C37C6"/>
<path d="M259.395 175.103C259.395 177.226 261.115 178.947 263.238 178.947C265.36 178.947 267.081 177.226 267.081 175.103C267.081 172.981 265.36 171.26 263.238 171.26C261.115 171.26 259.395 172.981 259.395 175.103Z" fill="#1C37C6"/>
<path d="M259.395 217.897C259.395 220.019 261.115 221.74 263.238 221.74C265.36 221.74 267.081 220.019 267.081 217.897C267.081 215.774 265.36 214.054 263.238 214.054C261.115 214.054 259.395 215.774 259.395 217.897Z" fill="#1C37C6"/>
<path d="M259.395 260.69C259.395 262.813 261.115 264.533 263.238 264.533C265.36 264.533 267.081 262.813 267.081 260.69C267.081 258.568 265.36 256.847 263.238 256.847C261.115 256.847 259.395 258.568 259.395 260.69Z" fill="#1C37C6"/>
<path d="M259.395 303.527C259.395 305.649 261.115 307.37 263.238 307.37C265.36 307.37 267.081 305.649 267.081 303.527C267.081 301.404 265.36 299.684 263.238 299.684C261.115 299.684 259.395 301.404 259.395 303.527Z" fill="#1C37C6"/>
<path d="M259.395 346.32C259.395 348.443 261.115 350.163 263.238 350.163C265.36 350.163 267.081 348.443 267.081 346.32C267.081 344.198 265.36 342.477 263.238 342.477C261.115 342.477 259.395 344.198 259.395 346.32Z" fill="#1C37C6"/>
<path d="M259.395 389.157C259.395 391.279 261.115 393 263.238 393C265.36 393 267.081 391.279 267.081 389.157C267.081 387.034 265.36 385.314 263.238 385.314C261.115 385.314 259.395 387.034 259.395 389.157Z" fill="#1C37C6"/>
<path d="M216.169 3.8432C216.169 5.96575 217.89 7.68641 220.012 7.68641C222.135 7.68641 223.856 5.96575 223.856 3.8432C223.856 1.72066 222.135 -7.52129e-08 220.012 -1.67992e-07C217.89 -2.60772e-07 216.169 1.72066 216.169 3.8432Z" fill="#1C37C6"/>
<path d="M216.169 46.6367C216.169 48.7592 217.89 50.4799 220.012 50.4799C222.135 50.4799 223.856 48.7592 223.856 46.6367C223.856 44.5141 222.135 42.7935 220.012 42.7935C217.89 42.7935 216.169 44.5141 216.169 46.6367Z" fill="#1C37C6"/>
<path d="M216.169 89.4732C216.169 91.5957 217.89 93.3164 220.012 93.3164C222.135 93.3164 223.856 91.5957 223.856 89.4732C223.856 87.3507 222.135 85.63 220.012 85.63C217.89 85.63 216.169 87.3507 216.169 89.4732Z" fill="#1C37C6"/>
<path d="M216.169 132.267C216.169 134.389 217.89 136.11 220.012 136.11C222.135 136.11 223.856 134.389 223.856 132.267C223.856 130.144 222.135 128.423 220.012 128.423C217.89 128.423 216.169 130.144 216.169 132.267Z" fill="#1C37C6"/>
<path d="M216.169 175.103C216.169 177.226 217.89 178.947 220.012 178.947C222.135 178.947 223.856 177.226 223.856 175.103C223.856 172.981 222.135 171.26 220.012 171.26C217.89 171.26 216.169 172.981 216.169 175.103Z" fill="#1C37C6"/>
<path d="M216.169 217.897C216.169 220.019 217.89 221.74 220.012 221.74C222.135 221.74 223.856 220.019 223.856 217.897C223.856 215.774 222.135 214.054 220.012 214.054C217.89 214.054 216.169 215.774 216.169 217.897Z" fill="#1C37C6"/>
<path d="M216.169 260.69C216.169 262.813 217.89 264.533 220.012 264.533C222.135 264.533 223.856 262.813 223.856 260.69C223.856 258.568 222.135 256.847 220.012 256.847C217.89 256.847 216.169 258.568 216.169 260.69Z" fill="#1C37C6"/>
<path d="M216.169 303.527C216.169 305.649 217.89 307.37 220.012 307.37C222.135 307.37 223.856 305.649 223.856 303.527C223.856 301.404 222.135 299.684 220.012 299.684C217.89 299.684 216.169 301.404 216.169 303.527Z" fill="#1C37C6"/>
<path d="M216.169 346.32C216.169 348.443 217.89 350.163 220.012 350.163C222.135 350.163 223.856 348.443 223.856 346.32C223.856 344.198 222.135 342.477 220.012 342.477C217.89 342.477 216.169 344.198 216.169 346.32Z" fill="#1C37C6"/>
<path d="M216.169 389.157C216.169 391.279 217.89 393 220.012 393C222.135 393 223.856 391.279 223.856 389.157C223.856 387.034 222.135 385.314 220.012 385.314C217.89 385.314 216.169 387.034 216.169 389.157Z" fill="#1C37C6"/>
<path d="M172.944 3.8432C172.944 5.96575 174.665 7.68641 176.787 7.68641C178.91 7.68641 180.631 5.96575 180.631 3.8432C180.631 1.72066 178.91 -7.52118e-08 176.787 -1.67991e-07C174.665 -2.6077e-07 172.944 1.72066 172.944 3.8432Z" fill="#1C37C6"/>
<path d="M172.944 46.6367C172.944 48.7592 174.665 50.4799 176.787 50.4799C178.91 50.4799 180.631 48.7592 180.631 46.6367C180.631 44.5141 178.91 42.7935 176.787 42.7935C174.665 42.7935 172.944 44.5141 172.944 46.6367Z" fill="#1C37C6"/>
<path d="M172.944 89.4732C172.944 91.5957 174.665 93.3164 176.787 93.3164C178.91 93.3164 180.631 91.5957 180.631 89.4732C180.631 87.3507 178.91 85.63 176.787 85.63C174.665 85.63 172.944 87.3507 172.944 89.4732Z" fill="#1C37C6"/>
<path d="M172.944 132.267C172.944 134.389 174.665 136.11 176.787 136.11C178.91 136.11 180.631 134.389 180.631 132.267C180.631 130.144 178.91 128.423 176.787 128.423C174.665 128.423 172.944 130.144 172.944 132.267Z" fill="#1C37C6"/>
<path d="M172.944 175.103C172.944 177.226 174.665 178.947 176.787 178.947C178.91 178.947 180.631 177.226 180.631 175.103C180.631 172.981 178.91 171.26 176.787 171.26C174.665 171.26 172.944 172.981 172.944 175.103Z" fill="#1C37C6"/>
<path d="M172.944 217.897C172.944 220.019 174.665 221.74 176.787 221.74C178.91 221.74 180.631 220.019 180.631 217.897C180.631 215.774 178.91 214.053 176.787 214.053C174.665 214.053 172.944 215.774 172.944 217.897Z" fill="#1C37C6"/>
<path d="M172.944 260.69C172.944 262.813 174.665 264.533 176.787 264.533C178.91 264.533 180.631 262.813 180.631 260.69C180.631 258.568 178.91 256.847 176.787 256.847C174.665 256.847 172.944 258.568 172.944 260.69Z" fill="#1C37C6"/>
<path d="M172.944 303.527C172.944 305.649 174.665 307.37 176.787 307.37C178.91 307.37 180.631 305.649 180.631 303.527C180.631 301.404 178.91 299.684 176.787 299.684C174.665 299.684 172.944 301.404 172.944 303.527Z" fill="#1C37C6"/>
<path d="M172.944 346.32C172.944 348.443 174.665 350.163 176.787 350.163C178.91 350.163 180.631 348.443 180.631 346.32C180.631 344.198 178.91 342.477 176.787 342.477C174.665 342.477 172.944 344.198 172.944 346.32Z" fill="#1C37C6"/>
<path d="M172.944 389.157C172.944 391.279 174.665 393 176.787 393C178.91 393 180.631 391.279 180.631 389.157C180.631 387.034 178.91 385.313 176.787 385.313C174.665 385.313 172.944 387.034 172.944 389.157Z" fill="#1C37C6"/>
<path d="M129.676 3.8432C129.676 5.96575 131.396 7.68641 133.519 7.68641C135.641 7.68641 137.362 5.96575 137.362 3.8432C137.362 1.72066 135.641 -7.52129e-08 133.519 -1.67992e-07C131.396 -2.60772e-07 129.676 1.72066 129.676 3.8432Z" fill="#1C37C6"/>
<path d="M129.676 46.6367C129.676 48.7592 131.396 50.4799 133.519 50.4799C135.641 50.4799 137.362 48.7592 137.362 46.6367C137.362 44.5141 135.641 42.7935 133.519 42.7935C131.396 42.7935 129.676 44.5141 129.676 46.6367Z" fill="#1C37C6"/>
<path d="M129.676 89.4732C129.676 91.5957 131.396 93.3164 133.519 93.3164C135.641 93.3164 137.362 91.5957 137.362 89.4732C137.362 87.3507 135.641 85.63 133.519 85.63C131.396 85.63 129.676 87.3507 129.676 89.4732Z" fill="#1C37C6"/>
<path d="M129.676 132.267C129.676 134.389 131.396 136.11 133.519 136.11C135.641 136.11 137.362 134.389 137.362 132.267C137.362 130.144 135.641 128.423 133.519 128.423C131.396 128.423 129.676 130.144 129.676 132.267Z" fill="#1C37C6"/>
<path d="M129.676 175.103C129.676 177.226 131.396 178.947 133.519 178.947C135.641 178.947 137.362 177.226 137.362 175.103C137.362 172.981 135.641 171.26 133.519 171.26C131.396 171.26 129.676 172.981 129.676 175.103Z" fill="#1C37C6"/>
<path d="M129.676 217.897C129.676 220.019 131.396 221.74 133.519 221.74C135.641 221.74 137.362 220.019 137.362 217.897C137.362 215.774 135.641 214.054 133.519 214.054C131.396 214.054 129.676 215.774 129.676 217.897Z" fill="#1C37C6"/>
<path d="M129.676 260.69C129.676 262.813 131.396 264.533 133.519 264.533C135.641 264.533 137.362 262.813 137.362 260.69C137.362 258.568 135.641 256.847 133.519 256.847C131.396 256.847 129.676 258.568 129.676 260.69Z" fill="#1C37C6"/>
<path d="M129.676 303.527C129.676 305.649 131.396 307.37 133.519 307.37C135.641 307.37 137.362 305.649 137.362 303.527C137.362 301.404 135.641 299.684 133.519 299.684C131.396 299.684 129.676 301.404 129.676 303.527Z" fill="#1C37C6"/>
<path d="M129.676 346.32C129.676 348.443 131.396 350.163 133.519 350.163C135.641 350.163 137.362 348.443 137.362 346.32C137.362 344.198 135.641 342.477 133.519 342.477C131.396 342.477 129.676 344.198 129.676 346.32Z" fill="#1C37C6"/>
<path d="M129.676 389.157C129.676 391.279 131.396 393 133.519 393C135.641 393 137.362 391.279 137.362 389.157C137.362 387.034 135.641 385.314 133.519 385.314C131.396 385.314 129.676 387.034 129.676 389.157Z" fill="#1C37C6"/>
<path d="M86.4503 3.8432C86.4503 5.96575 88.171 7.68641 90.2935 7.68641C92.416 7.68641 94.1367 5.96575 94.1367 3.8432C94.1367 1.72066 92.416 -7.52129e-08 90.2935 -1.67992e-07C88.171 -2.60772e-07 86.4503 1.72066 86.4503 3.8432Z" fill="#1C37C6"/>
<path d="M86.4503 46.6367C86.4503 48.7592 88.171 50.4799 90.2935 50.4799C92.416 50.4799 94.1367 48.7592 94.1367 46.6367C94.1367 44.5141 92.416 42.7935 90.2935 42.7935C88.171 42.7935 86.4503 44.5141 86.4503 46.6367Z" fill="#1C37C6"/>
<path d="M86.4503 89.4732C86.4503 91.5957 88.171 93.3164 90.2935 93.3164C92.416 93.3164 94.1367 91.5957 94.1367 89.4732C94.1367 87.3507 92.416 85.63 90.2935 85.63C88.171 85.63 86.4503 87.3507 86.4503 89.4732Z" fill="#1C37C6"/>
<path d="M86.4503 132.267C86.4503 134.389 88.171 136.11 90.2935 136.11C92.416 136.11 94.1367 134.389 94.1367 132.267C94.1367 130.144 92.416 128.423 90.2935 128.423C88.171 128.423 86.4503 130.144 86.4503 132.267Z" fill="#1C37C6"/>
<path d="M86.4503 175.103C86.4503 177.226 88.171 178.947 90.2935 178.947C92.416 178.947 94.1367 177.226 94.1367 175.103C94.1367 172.981 92.416 171.26 90.2935 171.26C88.171 171.26 86.4503 172.981 86.4503 175.103Z" fill="#1C37C6"/>
<path d="M86.4503 217.897C86.4503 220.019 88.171 221.74 90.2935 221.74C92.416 221.74 94.1367 220.019 94.1367 217.897C94.1367 215.774 92.416 214.053 90.2935 214.053C88.171 214.053 86.4503 215.774 86.4503 217.897Z" fill="#1C37C6"/>
<path d="M86.4503 260.69C86.4503 262.813 88.171 264.533 90.2935 264.533C92.416 264.533 94.1367 262.813 94.1367 260.69C94.1367 258.568 92.416 256.847 90.2935 256.847C88.171 256.847 86.4503 258.568 86.4503 260.69Z" fill="#1C37C6"/>
<path d="M86.4503 303.527C86.4503 305.649 88.171 307.37 90.2935 307.37C92.416 307.37 94.1367 305.649 94.1367 303.527C94.1367 301.404 92.416 299.684 90.2935 299.684C88.171 299.684 86.4503 301.404 86.4503 303.527Z" fill="#1C37C6"/>
<path d="M86.4503 346.32C86.4503 348.443 88.171 350.163 90.2935 350.163C92.416 350.163 94.1367 348.443 94.1367 346.32C94.1367 344.198 92.416 342.477 90.2935 342.477C88.171 342.477 86.4503 344.198 86.4503 346.32Z" fill="#1C37C6"/>
<path d="M86.4503 389.157C86.4503 391.279 88.171 393 90.2935 393C92.416 393 94.1367 391.279 94.1367 389.157C94.1367 387.034 92.416 385.313 90.2935 385.313C88.171 385.313 86.4503 387.034 86.4503 389.157Z" fill="#1C37C6"/>
<path d="M43.2247 3.8432C43.2247 5.96575 44.9454 7.68641 47.0679 7.68641C49.1905 7.68641 50.9111 5.96575 50.9111 3.8432C50.9111 1.72066 49.1905 -7.52129e-08 47.0679 -1.67992e-07C44.9454 -2.60772e-07 43.2247 1.72066 43.2247 3.8432Z" fill="#1C37C6"/>
<path d="M43.2252 46.6367C43.2252 48.7592 44.9459 50.4799 47.0684 50.4799C49.1909 50.4799 50.9116 48.7592 50.9116 46.6367C50.9116 44.5141 49.1909 42.7935 47.0684 42.7935C44.9459 42.7935 43.2252 44.5141 43.2252 46.6367Z" fill="#1C37C6"/>
<path d="M43.2252 89.4732C43.2252 91.5957 44.9459 93.3164 47.0684 93.3164C49.1909 93.3164 50.9116 91.5957 50.9116 89.4732C50.9116 87.3507 49.1909 85.63 47.0684 85.63C44.9459 85.63 43.2252 87.3507 43.2252 89.4732Z" fill="#1C37C6"/>
<path d="M43.2252 132.267C43.2252 134.389 44.9459 136.11 47.0684 136.11C49.1909 136.11 50.9116 134.389 50.9116 132.267C50.9116 130.144 49.1909 128.423 47.0684 128.423C44.9459 128.423 43.2252 130.144 43.2252 132.267Z" fill="#1C37C6"/>
<path d="M43.2252 175.103C43.2252 177.226 44.9459 178.947 47.0684 178.947C49.1909 178.947 50.9116 177.226 50.9116 175.103C50.9116 172.981 49.1909 171.26 47.0684 171.26C44.9459 171.26 43.2252 172.981 43.2252 175.103Z" fill="#1C37C6"/>
<path d="M43.2252 217.897C43.2252 220.019 44.9459 221.74 47.0684 221.74C49.1909 221.74 50.9116 220.019 50.9116 217.897C50.9116 215.774 49.1909 214.053 47.0684 214.053C44.9459 214.053 43.2252 215.774 43.2252 217.897Z" fill="#1C37C6"/>
<path d="M43.2252 260.69C43.2252 262.813 44.9459 264.533 47.0684 264.533C49.1909 264.533 50.9116 262.813 50.9116 260.69C50.9116 258.568 49.1909 256.847 47.0684 256.847C44.9459 256.847 43.2252 258.568 43.2252 260.69Z" fill="#1C37C6"/>
<path d="M43.2252 303.527C43.2252 305.649 44.9459 307.37 47.0684 307.37C49.1909 307.37 50.9116 305.649 50.9116 303.527C50.9116 301.404 49.1909 299.684 47.0684 299.684C44.9459 299.684 43.2252 301.404 43.2252 303.527Z" fill="#1C37C6"/>
<path d="M43.2252 346.32C43.2252 348.443 44.9459 350.163 47.0684 350.163C49.1909 350.163 50.9116 348.443 50.9116 346.32C50.9116 344.198 49.1909 342.477 47.0684 342.477C44.9459 342.477 43.2252 344.198 43.2252 346.32Z" fill="#1C37C6"/>
<path d="M43.2252 389.157C43.2252 391.279 44.9459 393 47.0684 393C49.1909 393 50.9116 391.279 50.9116 389.157C50.9116 387.034 49.1909 385.313 47.0684 385.313C44.9459 385.313 43.2252 387.034 43.2252 389.157Z" fill="#1C37C6"/>
<path d="M-0.000394512 3.8432C-0.000394605 5.96575 1.72028 7.68641 3.84282 7.68641C5.96536 7.68641 7.68603 5.96575 7.68603 3.8432C7.68604 1.72066 5.96536 -7.52129e-08 3.84282 -1.67992e-07C1.72028 -2.60772e-07 -0.00039442 1.72066 -0.000394512 3.8432Z" fill="#1C37C6"/>
<path d="M-0.000150372 46.6367C-0.000150464 48.7592 1.72052 50.4799 3.84306 50.4799C5.96561 50.4799 7.68628 48.7592 7.68628 46.6367C7.68628 44.5141 5.96561 42.7935 3.84306 42.7935C1.72052 42.7935 -0.000150279 44.5141 -0.000150372 46.6367Z" fill="#1C37C6"/>
<path d="M-0.000150372 89.4732C-0.000150464 91.5957 1.72052 93.3164 3.84306 93.3164C5.96561 93.3164 7.68628 91.5957 7.68628 89.4732C7.68628 87.3507 5.96561 85.63 3.84306 85.63C1.72052 85.63 -0.000150279 87.3507 -0.000150372 89.4732Z" fill="#1C37C6"/>
<path d="M-0.000150372 132.267C-0.000150464 134.389 1.72052 136.11 3.84306 136.11C5.96561 136.11 7.68628 134.389 7.68628 132.267C7.68628 130.144 5.96561 128.423 3.84306 128.423C1.72052 128.423 -0.000150279 130.144 -0.000150372 132.267Z" fill="#1C37C6"/>
<path d="M-0.000150372 175.103C-0.000150464 177.226 1.72052 178.947 3.84306 178.947C5.96561 178.947 7.68628 177.226 7.68628 175.103C7.68628 172.981 5.96561 171.26 3.84306 171.26C1.72052 171.26 -0.000150279 172.981 -0.000150372 175.103Z" fill="#1C37C6"/>
<path d="M-0.000150372 217.897C-0.000150464 220.019 1.72052 221.74 3.84306 221.74C5.96561 221.74 7.68628 220.019 7.68628 217.897C7.68628 215.774 5.96561 214.053 3.84306 214.053C1.72052 214.053 -0.000150279 215.774 -0.000150372 217.897Z" fill="#1C37C6"/>
<path d="M-0.000150372 260.69C-0.000150464 262.813 1.72052 264.533 3.84306 264.533C5.96561 264.533 7.68628 262.813 7.68628 260.69C7.68628 258.568 5.96561 256.847 3.84306 256.847C1.72052 256.847 -0.000150279 258.568 -0.000150372 260.69Z" fill="#1C37C6"/>
<path d="M-0.000150372 303.527C-0.000150464 305.649 1.72052 307.37 3.84306 307.37C5.96561 307.37 7.68628 305.649 7.68628 303.527C7.68628 301.404 5.96561 299.684 3.84306 299.684C1.72052 299.684 -0.000150279 301.404 -0.000150372 303.527Z" fill="#1C37C6"/>
<path d="M-0.000150372 346.32C-0.000150464 348.443 1.72052 350.163 3.84306 350.163C5.96561 350.163 7.68628 348.443 7.68628 346.32C7.68628 344.198 5.96561 342.477 3.84306 342.477C1.72052 342.477 -0.000150279 344.198 -0.000150372 346.32Z" fill="#1C37C6"/>
<path d="M-0.000150372 389.157C-0.000150464 391.279 1.72052 393 3.84306 393C5.96561 393 7.68628 391.279 7.68628 389.157C7.68628 387.034 5.96561 385.313 3.84306 385.313C1.72052 385.313 -0.000150279 387.034 -0.000150372 389.157Z" fill="#1C37C6"/>
</g>
<defs>
<clipPath id="clip0">
<rect width="393" height="612.969" fill="white" transform="translate(612.969) rotate(90)"/>
</clipPath>
</defs>
</svg>
