<svg width="138" height="114" viewBox="0 0 138 114" fill="none" xmlns="http://www.w3.org/2000/svg">
<g opacity="0.2">
<path d="M64.5263 22.6137C65.4854 21.6573 66.0243 20.3602 66.0243 19.0077C66.0243 17.9991 65.7243 17.0132 65.1623 16.1745C64.6003 15.3359 63.8015 14.6823 62.867 14.2963C61.9324 13.9103 60.904 13.8093 59.9119 14.0061C58.9198 14.2029 58.0085 14.6885 57.2932 15.4017C56.5779 16.1149 56.0908 17.0236 55.8934 18.0128C55.6961 19.0021 55.7974 20.0274 56.1845 20.9593C56.5716 21.8911 57.2271 22.6876 58.0682 23.2479C58.9093 23.8083 59.8981 24.1074 60.9097 24.1074C62.2662 24.1074 63.5671 23.5701 64.5263 22.6137Z" fill="#EEF6FA" fill-opacity="0.8"/>
<path d="M46.9609 24.1074C48.3174 24.1074 49.6183 23.5701 50.5775 22.6137C51.5366 21.6574 52.0755 20.3602 52.0755 19.0077C52.0755 17.9991 51.7755 17.0132 51.2135 16.1745C50.6515 15.3359 49.8527 14.6823 48.9182 14.2963C47.9836 13.9103 46.9552 13.8093 45.9631 14.0061C44.971 14.2029 44.0597 14.6885 43.3444 15.4017C42.6291 16.1149 42.142 17.0236 41.9446 18.0128C41.7473 19.0021 41.8486 20.0274 42.2357 20.9593C42.6228 21.8911 43.2783 22.6876 44.1194 23.2479C44.9605 23.8083 45.9494 24.1074 46.9609 24.1074Z" fill="#EEF6FA" fill-opacity="0.8"/>
<path d="M36.6287 22.6137C37.5878 21.6573 38.1267 20.3602 38.1267 19.0077C38.1267 17.9991 37.8267 17.0132 37.2647 16.1745C36.7027 15.3359 35.904 14.6823 34.9694 14.2963C34.0348 13.9103 33.0065 13.8093 32.0143 14.0061C31.0222 14.2029 30.1109 14.6885 29.3956 15.4017C28.6803 16.115 28.1932 17.0236 27.9959 18.0128C27.7985 19.0021 27.8998 20.0274 28.2869 20.9593C28.674 21.8911 29.3296 22.6876 30.1707 23.2479C31.0117 23.8083 32.0006 24.1074 33.0121 24.1074C34.3686 24.1074 35.6695 23.5701 36.6287 22.6137Z" fill="#EEF6FA" fill-opacity="0.8"/>
<path d="M8.73111 22.6137C9.69028 21.6573 10.2291 20.3602 10.2291 19.0077C10.2291 17.9991 9.92918 17.0132 9.36717 16.1745C8.80517 15.3359 8.00638 14.6823 7.07183 14.2963C6.13726 13.9103 5.10889 13.8093 4.11677 14.0061C3.12469 14.2028 2.21334 14.6885 1.49803 15.4017C0.782736 16.115 0.295631 17.0236 0.0982916 18.0128C-0.0990552 19.0021 0.00223333 20.0274 0.389342 20.9593C0.776437 21.8911 1.43197 22.6875 2.27307 23.2479C3.11416 23.8083 4.10301 24.1074 5.11457 24.1074C6.47102 24.1074 7.77194 23.5701 8.73111 22.6137Z" fill="#EEF6FA" fill-opacity="0.8"/>
<path d="M22.6799 22.6137C23.6391 21.6573 24.1779 20.3602 24.1779 19.0077C24.1779 17.9991 23.8779 17.0131 23.316 16.1745C22.754 15.3359 21.9552 14.6823 21.0206 14.2963C20.086 13.9103 19.0577 13.8093 18.0656 14.0061C17.0735 14.2029 16.1621 14.6885 15.4468 15.4017C14.7315 16.115 14.2444 17.0236 14.0471 18.0128C13.8497 19.0021 13.951 20.0274 14.3381 20.9593C14.7252 21.8911 15.3808 22.6876 16.2219 23.2479C17.0629 23.8083 18.0518 24.1074 19.0634 24.1074C20.4198 24.1074 21.7207 23.5701 22.6799 22.6137Z" fill="#EEF6FA" fill-opacity="0.8"/>
<path d="M8.73111 8.70562C9.69028 7.74925 10.2291 6.45213 10.2291 5.09964C10.2291 4.09105 9.92918 3.10508 9.36717 2.26643C8.80517 1.4278 8.00639 0.774163 7.07183 0.388187C6.13726 0.00220335 5.10889 -0.098777 4.11677 0.0979904C3.12469 0.294754 2.21334 0.780424 1.49803 1.49365C0.782737 2.20686 0.295632 3.11553 0.0982922 4.10474C-0.0990546 5.09397 0.00223395 6.11933 0.389343 7.05118C0.776438 7.98299 1.43197 8.77945 2.27307 9.33983C3.11416 9.90018 4.10301 10.1993 5.11457 10.1993C6.47102 10.1993 7.77194 9.662 8.73111 8.70562Z" fill="#EEF6FA" fill-opacity="0.8"/>
<path d="M22.6799 8.70562C23.6391 7.74925 24.1779 6.45213 24.1779 5.09964C24.1779 4.09102 23.8779 3.10506 23.316 2.26644C22.754 1.4278 21.9552 0.774164 21.0206 0.388187C20.086 0.00220394 19.0577 -0.0987763 18.0656 0.097991C17.0735 0.294758 16.1621 0.780435 15.4468 1.49365C14.7315 2.20686 14.2444 3.11553 14.0471 4.10474C13.8497 5.09397 13.951 6.11934 14.3381 7.05118C14.7252 7.98301 15.3808 8.77947 16.2219 9.33983C17.0629 9.90018 18.0518 10.1993 19.0634 10.1993C20.4198 10.1993 21.7207 9.662 22.6799 8.70562Z" fill="#EEF6FA" fill-opacity="0.8"/>
<path d="M36.6287 8.70562C37.5878 7.74925 38.1267 6.45213 38.1267 5.09964C38.1267 4.09102 37.8267 3.10506 37.2647 2.26644C36.7027 1.4278 35.904 0.774164 34.9694 0.388188C34.0348 0.0022046 33.0065 -0.0987757 32.0143 0.0979917C31.0222 0.294759 30.1109 0.780436 29.3956 1.49365C28.6803 2.20686 28.1932 3.11554 27.9959 4.10474C27.7985 5.09397 27.8998 6.11934 28.2869 7.05118C28.674 7.98301 29.3296 8.77947 30.1707 9.33983C31.0117 9.90018 32.0006 10.1993 33.0121 10.1993C34.3686 10.1993 35.6695 9.662 36.6287 8.70562Z" fill="#EEF6FA" fill-opacity="0.8"/>
<path d="M50.5775 8.70562C51.5366 7.74926 52.0755 6.45215 52.0755 5.09964C52.0755 4.09102 51.7755 3.10506 51.2135 2.26644C50.6515 1.4278 49.8527 0.774165 48.9182 0.388189C47.9836 0.00220516 46.9552 -0.0987787 45.9631 0.0979923C44.971 0.29476 44.0597 0.780437 43.3444 1.49365C42.6291 2.20684 42.142 3.11551 41.9446 4.10475C41.7473 5.09398 41.8486 6.11935 42.2357 7.05118C42.6228 7.98301 43.2783 8.77947 44.1194 9.33983C44.9605 9.90018 45.9494 10.1993 46.9609 10.1993C48.3174 10.1993 49.6183 9.662 50.5775 8.70562Z" fill="#EEF6FA" fill-opacity="0.8"/>
<path d="M64.5263 8.70562C65.4854 7.74925 66.0243 6.45214 66.0243 5.09964C66.0243 4.09103 65.7243 3.10507 65.1623 2.26644C64.6003 1.4278 63.8015 0.774166 62.867 0.388189C61.9324 0.00220579 60.904 -0.0987745 59.9119 0.0979929C58.9198 0.29476 58.0085 0.780437 57.2932 1.49365C56.5779 2.20685 56.0908 3.11552 55.8934 4.10475C55.6961 5.09398 55.7974 6.11935 56.1845 7.05118C56.5716 7.98302 57.2271 8.77947 58.0682 9.33983C58.9093 9.90018 59.8981 10.1993 60.9097 10.1993C62.2662 10.1993 63.5671 9.662 64.5263 8.70562Z" fill="#EEF6FA" fill-opacity="0.8"/>
<path d="M64.5262 52.6088C65.4854 51.6525 66.0243 50.3554 66.0243 49.0028C66.0243 47.9942 65.7243 47.0083 65.1623 46.1696C64.6003 45.331 63.8015 44.6774 62.867 44.2914C61.9324 43.9054 60.904 43.8044 59.9119 44.0012C58.9198 44.198 58.0085 44.6837 57.2932 45.3969C56.5779 46.1101 56.0908 47.0187 55.8934 48.008C55.6961 48.9972 55.7974 50.0226 56.1845 50.9544C56.5716 51.8862 57.2271 52.6827 58.0682 53.243C58.9093 53.8034 59.8981 54.1025 60.9097 54.1025C62.2662 54.1025 63.5671 53.5652 64.5262 52.6088Z" fill="#EEF6FA" fill-opacity="0.8"/>
<path d="M46.9609 54.1025C48.3174 54.1025 49.6183 53.5652 50.5774 52.6088C51.5366 51.6525 52.0755 50.3554 52.0755 49.0028C52.0755 47.9942 51.7755 47.0083 51.2135 46.1696C50.6515 45.331 49.8527 44.6774 48.9182 44.2914C47.9836 43.9054 46.9552 43.8044 45.9631 44.0012C44.971 44.198 44.0597 44.6837 43.3444 45.3969C42.6291 46.1101 42.142 47.0187 41.9446 48.008C41.7473 48.9972 41.8486 50.0226 42.2357 50.9544C42.6228 51.8862 43.2783 52.6827 44.1194 53.243C44.9605 53.8034 45.9493 54.1025 46.9609 54.1025Z" fill="#EEF6FA" fill-opacity="0.8"/>
<path d="M8.7311 38.7007C9.69027 37.7444 10.2291 36.4473 10.2291 35.0948C10.2291 34.0862 9.92916 33.1002 9.36716 32.2616C8.80516 31.4229 8.00637 30.7693 7.07182 30.3833C6.13725 29.9973 5.10888 29.8963 4.11676 30.0931C3.12467 30.2899 2.21333 30.7755 1.49802 31.4888C0.782722 32.202 0.295617 33.1107 0.0982771 34.0999C-0.0990696 35.0891 0.0022189 36.1145 0.389328 37.0463C0.776423 37.9781 1.43195 38.7746 2.27306 39.3349C3.11415 39.8953 4.103 40.1944 5.11456 40.1944C6.47101 40.1944 7.77192 39.6571 8.7311 38.7007Z" fill="#EEF6FA" fill-opacity="0.8"/>
<path d="M22.6799 38.7007C23.6391 37.7444 24.1779 36.4473 24.1779 35.0948C24.1779 34.0861 23.8779 33.1002 23.3159 32.2616C22.7539 31.4229 21.9552 30.7693 21.0206 30.3833C20.086 29.9973 19.0577 29.8963 18.0655 30.0931C17.0734 30.2899 16.1621 30.7756 15.4468 31.4888C14.7315 32.202 14.2444 33.1107 14.0471 34.0999C13.8497 35.0891 13.951 36.1145 14.3381 37.0463C14.7252 37.9781 15.3808 38.7746 16.2219 39.3349C17.0629 39.8953 18.0518 40.1944 19.0633 40.1944C20.4198 40.1944 21.7207 39.6571 22.6799 38.7007Z" fill="#EEF6FA" fill-opacity="0.8"/>
<path d="M36.6287 38.7007C37.5878 37.7444 38.1267 36.4473 38.1267 35.0948C38.1267 34.0861 37.8267 33.1002 37.2647 32.2616C36.7027 31.4229 35.9039 30.7693 34.9694 30.3833C34.0348 29.9973 33.0064 29.8963 32.0143 30.0931C31.0222 30.2899 30.1109 30.7756 29.3956 31.4888C28.6803 32.202 28.1932 33.1107 27.9958 34.0999C27.7985 35.0891 27.8998 36.1145 28.2869 37.0463C28.674 37.9781 29.3295 38.7746 30.1706 39.3349C31.0117 39.8953 32.0006 40.1944 33.0121 40.1944C34.3686 40.1944 35.6695 39.6571 36.6287 38.7007Z" fill="#EEF6FA" fill-opacity="0.8"/>
<path d="M50.5774 38.7007C51.5366 37.7444 52.0755 36.4473 52.0755 35.0948C52.0755 34.0861 51.7755 33.1002 51.2135 32.2616C50.6515 31.4229 49.8527 30.7693 48.9182 30.3833C47.9836 29.9973 46.9552 29.8963 45.9631 30.0931C44.971 30.2899 44.0597 30.7756 43.3444 31.4888C42.6291 32.202 42.142 33.1106 41.9446 34.0999C41.7473 35.0891 41.8486 36.1145 42.2357 37.0463C42.6228 37.9781 43.2783 38.7746 44.1194 39.3349C44.9605 39.8953 45.9493 40.1944 46.9609 40.1944C48.3174 40.1944 49.6183 39.6571 50.5774 38.7007Z" fill="#EEF6FA" fill-opacity="0.8"/>
<path d="M64.5262 38.7007C65.4854 37.7444 66.0243 36.4473 66.0243 35.0948C66.0243 34.0862 65.7243 33.1002 65.1623 32.2616C64.6003 31.4229 63.8015 30.7693 62.867 30.3833C61.9324 29.9973 60.904 29.8963 59.9119 30.0931C58.9198 30.2899 58.0085 30.7756 57.2932 31.4888C56.5779 32.202 56.0908 33.1106 55.8934 34.0999C55.6961 35.0891 55.7974 36.1145 56.1845 37.0463C56.5716 37.9781 57.2271 38.7746 58.0682 39.3349C58.9093 39.8953 59.8981 40.1944 60.9097 40.1944C62.2662 40.1944 63.5671 39.6571 64.5262 38.7007Z" fill="#EEF6FA" fill-opacity="0.8"/>
<path d="M136.502 22.6137C137.461 21.6573 138 20.3602 138 19.0077C138 17.9991 137.7 17.0132 137.138 16.1745C136.576 15.3359 135.777 14.6823 134.843 14.2963C133.908 13.9103 132.88 13.8093 131.888 14.0061C130.896 14.2029 129.984 14.6885 129.269 15.4017C128.554 16.1149 128.067 17.0236 127.869 18.0128C127.672 19.0021 127.773 20.0274 128.16 20.9593C128.547 21.8911 129.203 22.6876 130.044 23.2479C130.885 23.8083 131.874 24.1074 132.885 24.1074C134.242 24.1074 135.543 23.5701 136.502 22.6137Z" fill="#EEF6FA" fill-opacity="0.8"/>
<path d="M118.937 24.1074C120.293 24.1074 121.594 23.5701 122.553 22.6137C123.512 21.6574 124.051 20.3602 124.051 19.0077C124.051 17.9991 123.751 17.0132 123.189 16.1745C122.627 15.3359 121.828 14.6823 120.894 14.2963C119.959 13.9103 118.931 13.8093 117.939 14.0061C116.947 14.2029 116.035 14.6885 115.32 15.4017C114.605 16.1149 114.118 17.0236 113.92 18.0128C113.723 19.0021 113.824 20.0274 114.211 20.9593C114.599 21.8911 115.254 22.6876 116.095 23.2479C116.936 23.8083 117.925 24.1074 118.937 24.1074Z" fill="#EEF6FA" fill-opacity="0.8"/>
<path d="M108.604 22.6137C109.564 21.6573 110.102 20.3602 110.102 19.0077C110.102 17.9991 109.802 17.0132 109.24 16.1745C108.678 15.3359 107.88 14.6823 106.945 14.2963C106.011 13.9103 104.982 13.8093 103.99 14.0061C102.998 14.2029 102.087 14.6885 101.371 15.4017C100.656 16.115 100.169 17.0236 99.9716 18.0128C99.7743 19.0021 99.8755 20.0274 100.263 20.9593C100.65 21.8911 101.305 22.6876 102.146 23.2479C102.987 23.8083 103.976 24.1074 104.988 24.1074C106.344 24.1074 107.645 23.5701 108.604 22.6137Z" fill="#EEF6FA" fill-opacity="0.8"/>
<path d="M80.7068 22.6137C81.666 21.6573 82.2049 20.3602 82.2049 19.0077C82.2049 17.9991 81.9049 17.0132 81.3429 16.1745C80.7809 15.3359 79.9821 14.6823 79.0476 14.2963C78.113 13.9103 77.0846 13.8093 76.0925 14.0061C75.1004 14.2028 74.1891 14.6885 73.4738 15.4017C72.7585 16.115 72.2714 17.0236 72.074 18.0128C71.8767 19.0021 71.978 20.0274 72.3651 20.9593C72.7522 21.8911 73.4077 22.6875 74.2488 23.2479C75.0899 23.8083 76.0787 24.1074 77.0903 24.1074C78.4467 24.1074 79.7477 23.5701 80.7068 22.6137Z" fill="#EEF6FA" fill-opacity="0.8"/>
<path d="M94.6556 22.6137C95.6148 21.6573 96.1536 20.3602 96.1536 19.0077C96.1536 17.9991 95.8537 17.0131 95.2917 16.1745C94.7297 15.3359 93.9309 14.6823 92.9963 14.2963C92.0618 13.9103 91.0334 13.8093 90.0413 14.0061C89.0492 14.2029 88.1378 14.6885 87.4226 15.4017C86.7073 16.115 86.2202 17.0236 86.0228 18.0128C85.8255 19.0021 85.9267 20.0274 86.3139 20.9593C86.701 21.8911 87.3565 22.6876 88.1976 23.2479C89.0387 23.8083 90.0275 24.1074 91.0391 24.1074C92.3955 24.1074 93.6965 23.5701 94.6556 22.6137Z" fill="#EEF6FA" fill-opacity="0.8"/>
<path d="M136.502 52.6088C137.461 51.6525 138 50.3554 138 49.0028C138 47.9942 137.7 47.0083 137.138 46.1696C136.576 45.331 135.777 44.6774 134.843 44.2914C133.908 43.9054 132.88 43.8044 131.888 44.0012C130.896 44.198 129.984 44.6837 129.269 45.3969C128.554 46.1101 128.066 47.0187 127.869 48.008C127.672 48.9972 127.773 50.0226 128.16 50.9544C128.547 51.8862 129.203 52.6827 130.044 53.243C130.885 53.8034 131.874 54.1025 132.885 54.1025C134.242 54.1025 135.543 53.5652 136.502 52.6088Z" fill="#EEF6FA" fill-opacity="0.8"/>
<path d="M118.937 54.1025C120.293 54.1025 121.594 53.5652 122.553 52.6088C123.512 51.6525 124.051 50.3554 124.051 49.0028C124.051 47.9942 123.751 47.0083 123.189 46.1696C122.627 45.331 121.828 44.6774 120.894 44.2914C119.959 43.9054 118.931 43.8044 117.939 44.0012C116.947 44.198 116.035 44.6837 115.32 45.3969C114.605 46.1101 114.118 47.0187 113.92 48.008C113.723 48.9972 113.824 50.0226 114.211 50.9544C114.599 51.8862 115.254 52.6827 116.095 53.243C116.936 53.8034 117.925 54.1025 118.937 54.1025Z" fill="#EEF6FA" fill-opacity="0.8"/>
<path d="M108.604 52.6088C109.564 51.6525 110.102 50.3553 110.102 49.0028C110.102 47.9942 109.802 47.0083 109.24 46.1696C108.678 45.331 107.88 44.6774 106.945 44.2914C106.011 43.9054 104.982 43.8044 103.99 44.0012C102.998 44.198 102.087 44.6836 101.371 45.3969C100.656 46.1101 100.169 47.0187 99.9716 48.008C99.7742 48.9972 99.8755 50.0225 100.263 50.9544C100.65 51.8862 101.305 52.6827 102.146 53.243C102.987 53.8034 103.976 54.1025 104.988 54.1025C106.344 54.1025 107.645 53.5652 108.604 52.6088Z" fill="#EEF6FA" fill-opacity="0.8"/>
<path d="M80.7068 52.6088C81.666 51.6525 82.2048 50.3553 82.2048 49.0028C82.2048 47.9943 81.9049 47.0083 81.3429 46.1696C80.7809 45.331 79.9821 44.6774 79.0475 44.2914C78.113 43.9054 77.0846 43.8044 76.0925 44.0012C75.1004 44.198 74.1891 44.6836 73.4738 45.3969C72.7585 46.1101 72.2713 47.0187 72.074 48.008C71.8767 48.9972 71.978 50.0225 72.3651 50.9544C72.7522 51.8862 73.4077 52.6827 74.2488 53.243C75.0899 53.8034 76.0787 54.1025 77.0903 54.1025C78.4467 54.1025 79.7477 53.5652 80.7068 52.6088Z" fill="#EEF6FA" fill-opacity="0.8"/>
<path d="M94.6556 52.6088C95.6148 51.6525 96.1536 50.3553 96.1536 49.0028C96.1536 47.9942 95.8537 47.0083 95.2917 46.1696C94.7297 45.331 93.9309 44.6774 92.9963 44.2914C92.0618 43.9054 91.0334 43.8044 90.0413 44.0012C89.0492 44.198 88.1378 44.6836 87.4225 45.3969C86.7072 46.1101 86.2201 47.0187 86.0228 48.008C85.8255 48.9972 85.9267 50.0225 86.3138 50.9544C86.701 51.8862 87.3565 52.6827 88.1976 53.243C89.0387 53.8034 90.0275 54.1025 91.0391 54.1025C92.3955 54.1025 93.6964 53.5652 94.6556 52.6088Z" fill="#EEF6FA" fill-opacity="0.8"/>
<path d="M80.7068 38.7007C81.666 37.7444 82.2048 36.4473 82.2048 35.0948C82.2048 34.0862 81.9049 33.1002 81.3429 32.2616C80.7809 31.4229 79.9821 30.7693 79.0475 30.3833C78.113 29.9973 77.0846 29.8963 76.0925 30.0931C75.1004 30.2899 74.1891 30.7755 73.4738 31.4888C72.7585 32.202 72.2713 33.1107 72.074 34.0999C71.8767 35.0891 71.978 36.1145 72.3651 37.0463C72.7522 37.9781 73.4077 38.7746 74.2488 39.3349C75.0899 39.8953 76.0787 40.1944 77.0903 40.1944C78.4467 40.1944 79.7477 39.6571 80.7068 38.7007Z" fill="#EEF6FA" fill-opacity="0.8"/>
<path d="M94.6556 38.7007C95.6148 37.7444 96.1536 36.4473 96.1536 35.0948C96.1536 34.0861 95.8537 33.1002 95.2917 32.2616C94.7297 31.4229 93.9309 30.7693 92.9963 30.3833C92.0618 29.9973 91.0334 29.8963 90.0413 30.0931C89.0492 30.2899 88.1378 30.7756 87.4225 31.4888C86.7072 32.202 86.2201 33.1107 86.0228 34.0999C85.8255 35.0891 85.9267 36.1145 86.3138 37.0463C86.701 37.9781 87.3565 38.7746 88.1976 39.3349C89.0387 39.8953 90.0275 40.1944 91.0391 40.1944C92.3955 40.1944 93.6964 39.6571 94.6556 38.7007Z" fill="#EEF6FA" fill-opacity="0.8"/>
<path d="M108.604 38.7007C109.564 37.7444 110.102 36.4473 110.102 35.0948C110.102 34.0861 109.802 33.1002 109.24 32.2616C108.678 31.4229 107.88 30.7693 106.945 30.3833C106.011 29.9973 104.982 29.8963 103.99 30.0931C102.998 30.2899 102.087 30.7756 101.371 31.4888C100.656 32.202 100.169 33.1107 99.9716 34.0999C99.7742 35.0891 99.8755 36.1145 100.263 37.0463C100.65 37.9781 101.305 38.7746 102.146 39.3349C102.987 39.8953 103.976 40.1944 104.988 40.1944C106.344 40.1944 107.645 39.6571 108.604 38.7007Z" fill="#EEF6FA" fill-opacity="0.8"/>
<path d="M122.553 38.7007C123.512 37.7444 124.051 36.4473 124.051 35.0948C124.051 34.0861 123.751 33.1002 123.189 32.2616C122.627 31.4229 121.828 30.7693 120.894 30.3833C119.959 29.9973 118.931 29.8963 117.939 30.0931C116.947 30.2899 116.035 30.7756 115.32 31.4888C114.605 32.202 114.118 33.1106 113.92 34.0999C113.723 35.0891 113.824 36.1145 114.211 37.0463C114.599 37.9781 115.254 38.7746 116.095 39.3349C116.936 39.8953 117.925 40.1944 118.937 40.1944C120.293 40.1944 121.594 39.6571 122.553 38.7007Z" fill="#EEF6FA" fill-opacity="0.8"/>
<path d="M136.502 38.7007C137.461 37.7444 138 36.4473 138 35.0948C138 34.0862 137.7 33.1002 137.138 32.2616C136.576 31.4229 135.777 30.7693 134.843 30.3833C133.908 29.9973 132.88 29.8963 131.888 30.0931C130.896 30.2899 129.984 30.7756 129.269 31.4888C128.554 32.202 128.066 33.1106 127.869 34.0999C127.672 35.0891 127.773 36.1145 128.16 37.0463C128.547 37.9781 129.203 38.7746 130.044 39.3349C130.885 39.8953 131.874 40.1944 132.885 40.1944C134.242 40.1944 135.543 39.6571 136.502 38.7007Z" fill="#EEF6FA" fill-opacity="0.8"/>
<path d="M64.5263 82.5112C65.4854 81.5549 66.0243 80.2577 66.0243 78.9052C66.0243 77.8966 65.7243 76.9107 65.1623 76.072C64.6003 75.2334 63.8015 74.5798 62.867 74.1938C61.9324 73.8078 60.904 73.7068 59.9119 73.9036C58.9198 74.1004 58.0085 74.586 57.2932 75.2992C56.5779 76.0124 56.0908 76.9211 55.8934 77.9104C55.6961 78.8996 55.7974 79.9249 56.1845 80.8568C56.5716 81.7886 57.2271 82.5851 58.0682 83.1454C58.9093 83.7058 59.8981 84.0049 60.9097 84.0049C62.2662 84.0049 63.5671 83.4676 64.5263 82.5112Z" fill="#EEF6FA" fill-opacity="0.8"/>
<path d="M46.9609 84.0049C48.3174 84.0049 49.6183 83.4676 50.5775 82.5112C51.5366 81.5549 52.0755 80.2577 52.0755 78.9052C52.0755 77.8966 51.7755 76.9107 51.2135 76.072C50.6515 75.2334 49.8527 74.5798 48.9182 74.1938C47.9836 73.8078 46.9552 73.7068 45.9631 73.9036C44.971 74.1004 44.0597 74.586 43.3444 75.2992C42.6291 76.0124 42.142 76.9211 41.9446 77.9104C41.7473 78.8996 41.8486 79.925 42.2357 80.8568C42.6228 81.7886 43.2783 82.5851 44.1194 83.1454C44.9605 83.7058 45.9494 84.0049 46.9609 84.0049Z" fill="#EEF6FA" fill-opacity="0.8"/>
<path d="M36.6287 82.5112C37.5878 81.5549 38.1267 80.2577 38.1267 78.9052C38.1267 77.8966 37.8267 76.9107 37.2647 76.072C36.7027 75.2334 35.904 74.5798 34.9694 74.1938C34.0348 73.8078 33.0065 73.7068 32.0143 73.9036C31.0222 74.1004 30.1109 74.586 29.3956 75.2992C28.6803 76.0125 28.1932 76.9211 27.9959 77.9104C27.7985 78.8996 27.8998 79.9249 28.2869 80.8568C28.674 81.7886 29.3296 82.5851 30.1707 83.1454C31.0117 83.7058 32.0006 84.0049 33.0121 84.0049C34.3686 84.0049 35.6695 83.4676 36.6287 82.5112Z" fill="#EEF6FA" fill-opacity="0.8"/>
<path d="M8.73111 82.5112C9.69028 81.5549 10.2291 80.2577 10.2291 78.9052C10.2291 77.8967 9.92918 76.9107 9.36717 76.072C8.80517 75.2334 8.00638 74.5798 7.07183 74.1938C6.13726 73.8078 5.10889 73.7068 4.11677 73.9036C3.12469 74.1004 2.21334 74.586 1.49803 75.2992C0.782736 76.0125 0.295631 76.9211 0.0982916 77.9104C-0.0990552 78.8996 0.00223333 79.9249 0.389342 80.8568C0.776437 81.7886 1.43197 82.5851 2.27307 83.1454C3.11416 83.7058 4.10301 84.0049 5.11457 84.0049C6.47102 84.0049 7.77194 83.4676 8.73111 82.5112Z" fill="#EEF6FA" fill-opacity="0.8"/>
<path d="M22.6799 82.5112C23.6391 81.5549 24.1779 80.2577 24.1779 78.9052C24.1779 77.8966 23.8779 76.9107 23.316 76.072C22.754 75.2334 21.9552 74.5798 21.0206 74.1938C20.086 73.8078 19.0577 73.7068 18.0656 73.9036C17.0735 74.1004 16.1621 74.586 15.4468 75.2992C14.7315 76.0125 14.2444 76.9211 14.0471 77.9104C13.8497 78.8996 13.951 79.9249 14.3381 80.8568C14.7252 81.7886 15.3808 82.5851 16.2219 83.1454C17.0629 83.7058 18.0518 84.0049 19.0634 84.0049C20.4198 84.0049 21.7207 83.4676 22.6799 82.5112Z" fill="#EEF6FA" fill-opacity="0.8"/>
<path d="M50.5775 68.6031C51.5366 67.6468 52.0755 66.3497 52.0755 64.9971C52.0755 63.9885 51.7755 63.0026 51.2135 62.1639C50.6515 61.3253 49.8527 60.6717 48.9182 60.2857C47.9836 59.8997 46.9552 59.7987 45.9631 59.9955C44.971 60.1923 44.0597 60.6779 43.3444 61.3912C42.6291 62.1044 42.142 63.013 41.9446 64.0023C41.7473 64.9915 41.8486 66.0169 42.2357 66.9487C42.6228 67.8805 43.2783 68.677 44.1194 69.2373C44.9605 69.7977 45.9494 70.0968 46.9609 70.0968C48.3174 70.0968 49.6183 69.5595 50.5775 68.6031Z" fill="#EEF6FA" fill-opacity="0.8"/>
<path d="M64.5263 68.6031C65.4854 67.6468 66.0243 66.3496 66.0243 64.9971C66.0243 63.9885 65.7243 63.0026 65.1623 62.1639C64.6003 61.3253 63.8015 60.6717 62.867 60.2857C61.9324 59.8997 60.904 59.7987 59.9119 59.9955C58.9198 60.1923 58.0085 60.6779 57.2932 61.3912C56.5779 62.1044 56.0908 63.013 55.8934 64.0023C55.6961 64.9915 55.7974 66.0169 56.1845 66.9487C56.5716 67.8805 57.2271 68.677 58.0682 69.2373C58.9093 69.7977 59.8981 70.0968 60.9097 70.0968C62.2662 70.0968 63.5671 69.5595 64.5263 68.6031Z" fill="#EEF6FA" fill-opacity="0.8"/>
<path d="M64.5262 112.506C65.4854 111.55 66.0243 110.253 66.0243 108.9C66.0243 107.892 65.7243 106.906 65.1623 106.067C64.6003 105.229 63.8015 104.575 62.867 104.189C61.9324 103.803 60.904 103.702 59.9119 103.899C58.9198 104.095 58.0085 104.581 57.2932 105.294C56.5779 106.008 56.0908 106.916 55.8934 107.905C55.6961 108.895 55.7974 109.92 56.1845 110.852C56.5716 111.784 57.2271 112.58 58.0682 113.141C58.9093 113.701 59.8981 114 60.9097 114C62.2662 114 63.5671 113.463 64.5262 112.506Z" fill="#EEF6FA" fill-opacity="0.8"/>
<path d="M46.9609 114C48.3174 114 49.6183 113.463 50.5774 112.506C51.5366 111.55 52.0755 110.253 52.0755 108.9C52.0755 107.892 51.7755 106.906 51.2135 106.067C50.6515 105.229 49.8527 104.575 48.9182 104.189C47.9836 103.803 46.9552 103.702 45.9631 103.899C44.971 104.095 44.0597 104.581 43.3444 105.294C42.6291 106.008 42.142 106.916 41.9446 107.905C41.7473 108.895 41.8486 109.92 42.2357 110.852C42.6228 111.784 43.2783 112.58 44.1194 113.141C44.9605 113.701 45.9493 114 46.9609 114Z" fill="#EEF6FA" fill-opacity="0.8"/>
<path d="M36.6287 112.506C37.5878 111.55 38.1267 110.253 38.1267 108.9C38.1267 107.892 37.8267 106.906 37.2647 106.067C36.7027 105.229 35.9039 104.575 34.9694 104.189C34.0348 103.803 33.0064 103.702 32.0143 103.899C31.0222 104.095 30.1109 104.581 29.3956 105.294C28.6803 106.008 28.1932 106.916 27.9958 107.905C27.7985 108.895 27.8998 109.92 28.2869 110.852C28.674 111.784 29.3295 112.58 30.1706 113.141C31.0117 113.701 32.0006 114 33.0121 114C34.3686 114 35.6695 113.463 36.6287 112.506Z" fill="#EEF6FA" fill-opacity="0.8"/>
<path d="M8.7311 112.506C9.69027 111.55 10.2291 110.253 10.2291 108.9C10.2291 107.892 9.92916 106.906 9.36716 106.067C8.80516 105.229 8.00637 104.575 7.07181 104.189C6.13725 103.803 5.10887 103.702 4.11676 103.899C3.12467 104.095 2.21333 104.581 1.49802 105.294C0.782721 106.008 0.295616 106.916 0.0982765 107.905C-0.0990702 108.895 0.00221831 109.92 0.389327 110.852C0.776422 111.784 1.43195 112.58 2.27306 113.141C3.11415 113.701 4.103 114 5.11456 114C6.47101 114 7.77192 113.463 8.7311 112.506Z" fill="#EEF6FA" fill-opacity="0.8"/>
<path d="M22.6799 112.506C23.639 111.55 24.1779 110.253 24.1779 108.9C24.1779 107.892 23.8779 106.906 23.3159 106.067C22.7539 105.229 21.9552 104.575 21.0206 104.189C20.086 103.803 19.0577 103.702 18.0655 103.899C17.0734 104.095 16.1621 104.581 15.4468 105.294C14.7315 106.008 14.2444 106.916 14.0471 107.905C13.8497 108.895 13.951 109.92 14.3381 110.852C14.7252 111.784 15.3808 112.58 16.2219 113.141C17.0629 113.701 18.0518 114 19.0633 114C20.4198 114 21.7207 113.463 22.6799 112.506Z" fill="#EEF6FA" fill-opacity="0.8"/>
<path d="M8.7311 98.5983C9.69027 97.6419 10.2291 96.3448 10.2291 94.9923C10.2291 93.9837 9.92916 92.9977 9.36716 92.1591C8.80516 91.3204 8.00637 90.6668 7.07182 90.2808C6.13725 89.8948 5.10888 89.7939 4.11676 89.9906C3.12467 90.1874 2.21333 90.6731 1.49802 91.3863C0.782722 92.0995 0.295617 93.0082 0.0982771 93.9974C-0.0990696 94.9866 0.0022189 96.012 0.389328 96.9438C0.776423 97.8756 1.43195 98.6721 2.27306 99.2325C3.11415 99.7928 4.103 100.092 5.11456 100.092C6.47101 100.092 7.77192 99.5546 8.7311 98.5983Z" fill="#EEF6FA" fill-opacity="0.8"/>
<path d="M22.6799 98.5983C23.6391 97.6419 24.1779 96.3448 24.1779 94.9923C24.1779 93.9837 23.8779 92.9977 23.3159 92.1591C22.7539 91.3204 21.9552 90.6668 21.0206 90.2808C20.086 89.8948 19.0577 89.7939 18.0655 89.9906C17.0734 90.1874 16.1621 90.6731 15.4468 91.3863C14.7315 92.0995 14.2444 93.0082 14.0471 93.9974C13.8497 94.9866 13.951 96.012 14.3381 96.9438C14.7252 97.8756 15.3808 98.6721 16.2219 99.2325C17.0629 99.7928 18.0518 100.092 19.0633 100.092C20.4198 100.092 21.7207 99.5546 22.6799 98.5983Z" fill="#EEF6FA" fill-opacity="0.8"/>
<path d="M36.6287 98.5983C37.5878 97.6419 38.1267 96.3448 38.1267 94.9923C38.1267 93.9837 37.8267 92.9977 37.2647 92.1591C36.7027 91.3204 35.9039 90.6668 34.9694 90.2808C34.0348 89.8948 33.0064 89.7939 32.0143 89.9906C31.0222 90.1874 30.1109 90.6731 29.3956 91.3863C28.6803 92.0995 28.1932 93.0082 27.9958 93.9974C27.7985 94.9866 27.8998 96.012 28.2869 96.9438C28.674 97.8756 29.3295 98.6721 30.1706 99.2325C31.0117 99.7928 32.0006 100.092 33.0121 100.092C34.3686 100.092 35.6695 99.5546 36.6287 98.5983Z" fill="#EEF6FA" fill-opacity="0.8"/>
<path d="M50.5774 98.5983C51.5366 97.6419 52.0755 96.3448 52.0755 94.9923C52.0755 93.9837 51.7755 92.9977 51.2135 92.1591C50.6515 91.3204 49.8527 90.6668 48.9182 90.2808C47.9836 89.8948 46.9552 89.7939 45.9631 89.9906C44.971 90.1874 44.0597 90.6731 43.3444 91.3863C42.6291 92.0995 42.142 93.0081 41.9446 93.9974C41.7473 94.9866 41.8486 96.012 42.2357 96.9438C42.6228 97.8757 43.2783 98.6721 44.1194 99.2325C44.9605 99.7928 45.9493 100.092 46.9609 100.092C48.3174 100.092 49.6183 99.5546 50.5774 98.5983Z" fill="#EEF6FA" fill-opacity="0.8"/>
<path d="M64.5262 98.5983C65.4854 97.6419 66.0243 96.3448 66.0243 94.9923C66.0243 93.9837 65.7243 92.9977 65.1623 92.1591C64.6003 91.3204 63.8015 90.6668 62.867 90.2808C61.9324 89.8948 60.904 89.7939 59.9119 89.9906C58.9198 90.1874 58.0085 90.6731 57.2932 91.3863C56.5779 92.0995 56.0908 93.0081 55.8934 93.9974C55.6961 94.9866 55.7974 96.012 56.1845 96.9438C56.5716 97.8757 57.2271 98.6721 58.0682 99.2325C58.9093 99.7928 59.8981 100.092 60.9097 100.092C62.2662 100.092 63.5671 99.5546 64.5262 98.5983Z" fill="#EEF6FA" fill-opacity="0.8"/>
<path d="M136.502 82.5112C137.461 81.5549 138 80.2577 138 78.9052C138 77.8966 137.7 76.9107 137.138 76.072C136.576 75.2334 135.777 74.5798 134.843 74.1938C133.908 73.8078 132.88 73.7068 131.888 73.9036C130.896 74.1004 129.984 74.586 129.269 75.2992C128.554 76.0124 128.067 76.9211 127.869 77.9104C127.672 78.8996 127.773 79.9249 128.16 80.8568C128.547 81.7886 129.203 82.5851 130.044 83.1454C130.885 83.7058 131.874 84.0049 132.885 84.0049C134.242 84.0049 135.543 83.4676 136.502 82.5112Z" fill="#EEF6FA" fill-opacity="0.8"/>
<path d="M118.937 84.0049C120.293 84.0049 121.594 83.4676 122.553 82.5112C123.512 81.5549 124.051 80.2577 124.051 78.9052C124.051 77.8966 123.751 76.9107 123.189 76.072C122.627 75.2334 121.828 74.5798 120.894 74.1938C119.959 73.8078 118.931 73.7068 117.939 73.9036C116.947 74.1004 116.035 74.586 115.32 75.2992C114.605 76.0124 114.118 76.9211 113.92 77.9104C113.723 78.8996 113.824 79.925 114.211 80.8568C114.599 81.7886 115.254 82.5851 116.095 83.1454C116.936 83.7058 117.925 84.0049 118.937 84.0049Z" fill="#EEF6FA" fill-opacity="0.8"/>
<path d="M108.604 82.5112C109.564 81.5549 110.102 80.2577 110.102 78.9052C110.102 77.8966 109.802 76.9107 109.24 76.072C108.678 75.2334 107.88 74.5798 106.945 74.1938C106.011 73.8078 104.982 73.7068 103.99 73.9036C102.998 74.1004 102.087 74.586 101.371 75.2992C100.656 76.0125 100.169 76.9211 99.9716 77.9104C99.7743 78.8996 99.8755 79.9249 100.263 80.8568C100.65 81.7886 101.305 82.5851 102.146 83.1454C102.987 83.7058 103.976 84.0049 104.988 84.0049C106.344 84.0049 107.645 83.4676 108.604 82.5112Z" fill="#EEF6FA" fill-opacity="0.8"/>
<path d="M80.7068 82.5112C81.666 81.5549 82.2049 80.2577 82.2049 78.9052C82.2049 77.8967 81.9049 76.9107 81.3429 76.072C80.7809 75.2334 79.9821 74.5798 79.0476 74.1938C78.113 73.8078 77.0846 73.7068 76.0925 73.9036C75.1004 74.1004 74.1891 74.586 73.4738 75.2992C72.7585 76.0125 72.2714 76.9211 72.074 77.9104C71.8767 78.8996 71.978 79.9249 72.3651 80.8568C72.7522 81.7886 73.4077 82.5851 74.2488 83.1454C75.0899 83.7058 76.0787 84.0049 77.0903 84.0049C78.4467 84.0049 79.7477 83.4676 80.7068 82.5112Z" fill="#EEF6FA" fill-opacity="0.8"/>
<path d="M94.6556 82.5112C95.6148 81.5549 96.1536 80.2577 96.1536 78.9052C96.1536 77.8966 95.8537 76.9107 95.2917 76.072C94.7297 75.2334 93.9309 74.5798 92.9963 74.1938C92.0618 73.8078 91.0334 73.7068 90.0413 73.9036C89.0492 74.1004 88.1378 74.586 87.4226 75.2992C86.7073 76.0125 86.2202 76.9211 86.0228 77.9104C85.8255 78.8996 85.9267 79.9249 86.3139 80.8568C86.701 81.7886 87.3565 82.5851 88.1976 83.1454C89.0387 83.7058 90.0275 84.0049 91.0391 84.0049C92.3955 84.0049 93.6965 83.4676 94.6556 82.5112Z" fill="#EEF6FA" fill-opacity="0.8"/>
<path d="M80.7068 68.6031C81.666 67.6468 82.2049 66.3496 82.2049 64.9971C82.2049 63.9886 81.9049 63.0026 81.3429 62.1639C80.7809 61.3253 79.9821 60.6717 79.0476 60.2857C78.113 59.8997 77.0846 59.7987 76.0925 59.9955C75.1004 60.1923 74.1891 60.6779 73.4738 61.3912C72.7585 62.1044 72.2714 63.013 72.074 64.0023C71.8767 64.9915 71.978 66.0168 72.3651 66.9487C72.7522 67.8805 73.4077 68.677 74.2488 69.2373C75.0899 69.7977 76.0788 70.0968 77.0903 70.0968C78.4468 70.0968 79.7477 69.5595 80.7068 68.6031Z" fill="#EEF6FA" fill-opacity="0.8"/>
<path d="M94.6556 68.6031C95.6148 67.6468 96.1536 66.3496 96.1536 64.9971C96.1536 63.9885 95.8537 63.0026 95.2917 62.1639C94.7297 61.3253 93.9309 60.6717 92.9963 60.2857C92.0618 59.8997 91.0334 59.7987 90.0413 59.9955C89.0492 60.1923 88.1378 60.6779 87.4226 61.3912C86.7073 62.1044 86.2202 63.0131 86.0228 64.0023C85.8255 64.9915 85.9267 66.0169 86.3139 66.9487C86.701 67.8805 87.3565 68.677 88.1976 69.2373C89.0387 69.7977 90.0275 70.0968 91.0391 70.0968C92.3955 70.0968 93.6965 69.5595 94.6556 68.6031Z" fill="#EEF6FA" fill-opacity="0.8"/>
<path d="M108.604 68.6031C109.564 67.6468 110.102 66.3496 110.102 64.9971C110.102 63.9885 109.802 63.0026 109.24 62.1639C108.678 61.3253 107.88 60.6717 106.945 60.2857C106.011 59.8997 104.982 59.7987 103.99 59.9955C102.998 60.1923 102.087 60.6779 101.371 61.3912C100.656 62.1044 100.169 63.0131 99.9716 64.0023C99.7743 64.9915 99.8755 66.0169 100.263 66.9487C100.65 67.8805 101.305 68.677 102.146 69.2373C102.987 69.7977 103.976 70.0968 104.988 70.0968C106.344 70.0968 107.645 69.5595 108.604 68.6031Z" fill="#EEF6FA" fill-opacity="0.8"/>
<path d="M122.553 68.6031C123.512 67.6468 124.051 66.3497 124.051 64.9971C124.051 63.9885 123.751 63.0026 123.189 62.1639C122.627 61.3253 121.828 60.6717 120.894 60.2857C119.959 59.8997 118.931 59.7987 117.939 59.9955C116.947 60.1923 116.035 60.6779 115.32 61.3912C114.605 62.1044 114.118 63.013 113.92 64.0023C113.723 64.9915 113.824 66.0169 114.211 66.9487C114.599 67.8805 115.254 68.677 116.095 69.2373C116.936 69.7977 117.925 70.0968 118.937 70.0968C120.293 70.0968 121.594 69.5595 122.553 68.6031Z" fill="#EEF6FA" fill-opacity="0.8"/>
<path d="M136.502 68.6031C137.461 67.6468 138 66.3496 138 64.9971C138 63.9885 137.7 63.0026 137.138 62.1639C136.576 61.3253 135.777 60.6717 134.843 60.2857C133.908 59.8997 132.88 59.7987 131.888 59.9955C130.896 60.1923 129.984 60.6779 129.269 61.3912C128.554 62.1044 128.067 63.013 127.869 64.0023C127.672 64.9915 127.773 66.0169 128.16 66.9487C128.547 67.8805 129.203 68.677 130.044 69.2373C130.885 69.7977 131.874 70.0968 132.885 70.0968C134.242 70.0968 135.543 69.5595 136.502 68.6031Z" fill="#EEF6FA" fill-opacity="0.8"/>
<path d="M136.502 112.506C137.461 111.55 138 110.253 138 108.9C138 107.892 137.7 106.906 137.138 106.067C136.576 105.229 135.777 104.575 134.843 104.189C133.908 103.803 132.88 103.702 131.888 103.899C130.896 104.095 129.984 104.581 129.269 105.294C128.554 106.008 128.066 106.916 127.869 107.905C127.672 108.895 127.773 109.92 128.16 110.852C128.547 111.784 129.203 112.58 130.044 113.141C130.885 113.701 131.874 114 132.885 114C134.242 114 135.543 113.463 136.502 112.506Z" fill="#EEF6FA" fill-opacity="0.8"/>
<path d="M118.937 114C120.293 114 121.594 113.463 122.553 112.506C123.512 111.55 124.051 110.253 124.051 108.9C124.051 107.892 123.751 106.906 123.189 106.067C122.627 105.229 121.828 104.575 120.894 104.189C119.959 103.803 118.931 103.702 117.939 103.899C116.947 104.095 116.035 104.581 115.32 105.294C114.605 106.008 114.118 106.916 113.92 107.905C113.723 108.895 113.824 109.92 114.211 110.852C114.599 111.784 115.254 112.58 116.095 113.141C116.936 113.701 117.925 114 118.937 114Z" fill="#EEF6FA" fill-opacity="0.8"/>
<path d="M108.604 112.506C109.564 111.55 110.102 110.253 110.102 108.9C110.102 107.892 109.802 106.906 109.24 106.067C108.678 105.229 107.88 104.575 106.945 104.189C106.011 103.803 104.982 103.702 103.99 103.899C102.998 104.095 102.087 104.581 101.371 105.294C100.656 106.008 100.169 106.916 99.9716 107.905C99.7742 108.895 99.8755 109.92 100.263 110.852C100.65 111.784 101.305 112.58 102.146 113.141C102.987 113.701 103.976 114 104.988 114C106.344 114 107.645 113.463 108.604 112.506Z" fill="#EEF6FA" fill-opacity="0.8"/>
<path d="M80.7068 112.506C81.666 111.55 82.2048 110.253 82.2048 108.9C82.2048 107.892 81.9049 106.906 81.3429 106.067C80.7809 105.229 79.9821 104.575 79.0475 104.189C78.113 103.803 77.0846 103.702 76.0925 103.899C75.1004 104.095 74.1891 104.581 73.4738 105.294C72.7585 106.008 72.2713 106.916 72.074 107.905C71.8767 108.895 71.978 109.92 72.3651 110.852C72.7522 111.784 73.4077 112.58 74.2488 113.141C75.0899 113.701 76.0787 114 77.0903 114C78.4467 114 79.7477 113.463 80.7068 112.506Z" fill="#EEF6FA" fill-opacity="0.8"/>
<path d="M94.6556 112.506C95.6148 111.55 96.1536 110.253 96.1536 108.9C96.1536 107.892 95.8537 106.906 95.2917 106.067C94.7297 105.229 93.9309 104.575 92.9963 104.189C92.0618 103.803 91.0334 103.702 90.0413 103.899C89.0492 104.095 88.1378 104.581 87.4225 105.294C86.7072 106.008 86.2201 106.916 86.0228 107.905C85.8255 108.895 85.9267 109.92 86.3138 110.852C86.701 111.784 87.3565 112.58 88.1976 113.141C89.0387 113.701 90.0275 114 91.0391 114C92.3955 114 93.6964 113.463 94.6556 112.506Z" fill="#EEF6FA" fill-opacity="0.8"/>
<path d="M80.7068 98.5983C81.666 97.6419 82.2048 96.3448 82.2048 94.9923C82.2048 93.9837 81.9049 92.9977 81.3429 92.1591C80.7809 91.3204 79.9821 90.6668 79.0475 90.2808C78.113 89.8948 77.0846 89.7939 76.0925 89.9906C75.1004 90.1874 74.1891 90.6731 73.4738 91.3863C72.7585 92.0995 72.2713 93.0082 72.074 93.9974C71.8767 94.9866 71.978 96.012 72.3651 96.9438C72.7522 97.8756 73.4077 98.6721 74.2488 99.2325C75.0899 99.7928 76.0787 100.092 77.0903 100.092C78.4467 100.092 79.7477 99.5546 80.7068 98.5983Z" fill="#EEF6FA" fill-opacity="0.8"/>
<path d="M94.6556 98.5983C95.6148 97.6419 96.1536 96.3448 96.1536 94.9923C96.1536 93.9837 95.8537 92.9977 95.2917 92.1591C94.7297 91.3204 93.9309 90.6668 92.9963 90.2808C92.0618 89.8948 91.0334 89.7939 90.0413 89.9906C89.0492 90.1874 88.1378 90.6731 87.4225 91.3863C86.7072 92.0995 86.2201 93.0082 86.0228 93.9974C85.8255 94.9866 85.9267 96.012 86.3138 96.9438C86.701 97.8756 87.3565 98.6721 88.1976 99.2325C89.0387 99.7928 90.0275 100.092 91.0391 100.092C92.3955 100.092 93.6964 99.5546 94.6556 98.5983Z" fill="#EEF6FA" fill-opacity="0.8"/>
<path d="M108.604 98.5983C109.564 97.6419 110.102 96.3448 110.102 94.9923C110.102 93.9837 109.802 92.9977 109.24 92.1591C108.678 91.3204 107.88 90.6668 106.945 90.2808C106.011 89.8948 104.982 89.7939 103.99 89.9906C102.998 90.1874 102.087 90.6731 101.371 91.3863C100.656 92.0995 100.169 93.0082 99.9716 93.9974C99.7742 94.9866 99.8755 96.012 100.263 96.9438C100.65 97.8756 101.305 98.6721 102.146 99.2325C102.987 99.7928 103.976 100.092 104.988 100.092C106.344 100.092 107.645 99.5546 108.604 98.5983Z" fill="#EEF6FA" fill-opacity="0.8"/>
<path d="M122.553 98.5983C123.512 97.6419 124.051 96.3448 124.051 94.9923C124.051 93.9837 123.751 92.9977 123.189 92.1591C122.627 91.3204 121.828 90.6668 120.894 90.2808C119.959 89.8948 118.931 89.7939 117.939 89.9906C116.947 90.1874 116.035 90.6731 115.32 91.3863C114.605 92.0995 114.118 93.0081 113.92 93.9974C113.723 94.9866 113.824 96.012 114.211 96.9438C114.599 97.8757 115.254 98.6721 116.095 99.2325C116.936 99.7928 117.925 100.092 118.937 100.092C120.293 100.092 121.594 99.5546 122.553 98.5983Z" fill="#EEF6FA" fill-opacity="0.8"/>
<path d="M136.502 98.5983C137.461 97.6419 138 96.3448 138 94.9923C138 93.9837 137.7 92.9977 137.138 92.1591C136.576 91.3204 135.777 90.6668 134.843 90.2808C133.908 89.8948 132.88 89.7939 131.888 89.9906C130.896 90.1874 129.984 90.6731 129.269 91.3863C128.554 92.0995 128.066 93.0081 127.869 93.9974C127.672 94.9866 127.773 96.012 128.16 96.9438C128.547 97.8757 129.203 98.6721 130.044 99.2325C130.885 99.7928 131.874 100.092 132.885 100.092C134.242 100.092 135.543 99.5546 136.502 98.5983Z" fill="#EEF6FA" fill-opacity="0.8"/>
</g>
</svg>
