<svg width="100" height="62" viewBox="0 0 100 62" fill="none" xmlns="http://www.w3.org/2000/svg">
<path d="M60.6 1.88977H28.6L2 24.0893L11.3 57.9088L98 59.99L60.6 1.88977Z" stroke="#FEAD5E" stroke-width="2" stroke-miterlimit="10"/>
<path d="M60.6001 1.88977L48.9 42.3865L11.3 57.9088" stroke="#FEAD5E" stroke-width="2" stroke-miterlimit="10"/>
</svg>
