<svg width="101" height="106" viewBox="0 0 101 106" fill="none" xmlns="http://www.w3.org/2000/svg">
<path d="M48.9099 35.8214L68.4854 34.1147L81.0778 81.9329L31.4641 76.8015L30.3104 56.4875" stroke="white" stroke-width="2"/>
<circle cx="30.5512" cy="38.2947" r="17.2346" transform="rotate(-33.272 30.5512 38.2947)" stroke="white" stroke-width="2"/>
</svg>
