<svg width="24" height="24" viewBox="0 0 24 24" fill="none" xmlns="http://www.w3.org/2000/svg">
<path d="M16 22.4L4.80005 12L16 1.60001" stroke="white" stroke-width="2" stroke-linecap="square"/>
</svg>
