<svg width="26" height="26" viewBox="0 0 26 26" fill="none" xmlns="http://www.w3.org/2000/svg">
<path d="M24.8998 13C24.8998 15.2049 24.8998 17.4523 24.8998 19.6572C24.8998 21.523 24.0942 23.0071 22.5677 24.0671C21.6772 24.6608 20.7019 25 19.6419 25C15.7408 25 11.8822 25 7.98109 25C7.42986 25 6.92102 25 6.36978 25C4.33445 24.9152 2.76554 23.9823 1.79028 22.2014C1.36625 21.4382 1.15424 20.5901 1.15424 19.6996C1.15424 17.6219 1.15424 15.5442 1.15424 13.424C1.15424 11.0919 1.15424 8.75972 1.15424 6.42756C1.15424 6.00353 1.19664 5.5795 1.28145 5.19788C1.79028 3.16254 3.06237 1.84806 5.0129 1.21201C5.52173 1.0424 6.07296 1 6.6242 1C8.44752 1 10.2708 1 12.0942 1C13.6631 1 15.2744 1 16.8433 1C17.7337 1 18.6242 1 19.4723 1C20.3627 1 21.2108 1.16961 22.0164 1.59364C23.5005 2.39929 24.4334 3.62897 24.7726 5.28269C24.8574 5.66431 24.8574 6.04594 24.8574 6.42756C24.8574 8.25088 24.8574 10.1166 24.8574 11.9399C24.8998 12.3216 24.8998 12.6608 24.8998 13Z" stroke="#2AD7DE" stroke-width="0.7593" stroke-miterlimit="10"/>
<path d="M11.8398 17.0707C11.8398 16.7739 11.8398 16.4771 11.8398 16.2227C11.8398 16.0106 11.8398 15.7986 11.8398 15.5866C11.8398 15.3322 11.8398 15.0778 11.8398 14.781C11.8398 13.4665 11.8398 12.1096 11.8398 10.7951C11.8398 10.5831 11.8398 10.3287 11.8398 10.1167C11.8398 10.0743 11.8398 10.0319 11.9246 10.0319C11.967 10.0319 11.967 10.0319 12.0094 10.0319C12.8575 10.0319 13.7055 10.0319 14.5536 10.0319C14.6808 10.0319 14.6808 10.0743 14.6808 10.1591C14.6808 10.4559 14.6808 10.7103 14.6808 11.0071C14.6808 11.0919 14.6808 11.1767 14.6808 11.2615C14.6808 11.3039 14.6808 11.3039 14.7232 11.3039C14.7656 11.3039 14.7656 11.3039 14.7656 11.2615C14.8504 11.1343 14.9352 11.0071 15.02 10.8799C15.1896 10.6679 15.4016 10.4983 15.6136 10.3287C15.8256 10.1591 16.0801 10.0743 16.2921 9.94704C16.5465 9.86224 16.7585 9.77743 17.0129 9.73503C17.1401 9.69263 17.3097 9.69263 17.437 9.69263C17.4794 9.69263 17.5642 9.69263 17.6066 9.69263C17.861 9.69263 18.1154 9.73503 18.3274 9.77743C18.6242 9.86224 18.9211 9.94704 19.2179 10.1167C19.5147 10.2863 19.7691 10.4559 19.9811 10.7103C20.1931 10.9223 20.3628 11.1767 20.49 11.4735C20.5748 11.6432 20.6596 11.8128 20.702 11.9824C20.7868 12.1944 20.8292 12.4064 20.8292 12.6184C20.8716 12.788 20.8716 12.9152 20.8716 13.0849C20.8716 13.2969 20.914 13.5513 20.914 13.7633C20.914 14.9082 20.914 16.0955 20.914 17.2403C20.914 17.4099 20.914 17.622 20.914 17.7916C20.914 17.9612 20.914 18.1308 20.914 18.3428C20.914 18.5124 20.914 18.7244 20.914 18.894C20.914 19.0212 20.914 19.1485 20.914 19.2757C20.914 19.3605 20.8716 19.3605 20.8292 19.3605C20.702 19.3605 20.5748 19.3605 20.49 19.3605C20.3203 19.3605 20.1931 19.3605 20.0235 19.3605C19.3875 19.3605 18.7938 19.3605 18.1578 19.3605C18.0306 19.3605 18.0306 19.3605 18.0306 19.2333C18.0306 19.1061 18.0306 18.9364 18.0306 18.8092C18.0306 18.5548 18.0306 18.3004 18.0306 18.046C18.0306 16.8587 18.0306 15.6714 18.0306 14.4841C18.0306 14.3569 18.0306 14.2297 18.0306 14.1025C18.0306 13.7209 17.9882 13.3817 17.861 13.0425C17.7762 12.788 17.6066 12.576 17.3946 12.4064C17.2249 12.2792 17.0129 12.2368 16.8433 12.1944C16.6313 12.152 16.3769 12.152 16.1649 12.2368C15.868 12.3216 15.5712 12.4488 15.3592 12.6608C15.1896 12.8304 15.02 13.0849 14.9352 13.2969C14.8928 13.4665 14.8504 13.5937 14.808 13.7633C14.7656 13.8481 14.808 13.9329 14.808 14.0177C14.808 15.7138 14.808 17.4099 14.808 19.0637C14.808 19.1061 14.808 19.1485 14.808 19.2333C14.808 19.3181 14.7656 19.3181 14.7232 19.3181C14.4264 19.3181 14.1719 19.3181 13.8751 19.3181C13.2391 19.3181 12.6454 19.3181 12.0094 19.3181C11.8822 19.3181 11.8822 19.3181 11.8822 19.1909C11.8822 18.9364 11.8822 18.682 11.8822 18.4276C11.8398 18.0884 11.8398 17.5796 11.8398 17.0707Z" fill="#2AD7DE"/>
<path d="M10.0164 19.4876C9.84681 19.4876 9.6772 19.4876 9.46518 19.4876C9.08356 19.4876 8.70193 19.4876 8.32031 19.4876C8.10829 19.4876 7.85388 19.4876 7.64186 19.4876C7.47225 19.4876 7.34504 19.53 7.17543 19.4876C7.13303 19.4876 7.09062 19.4452 7.09062 19.4028C7.09062 19.2756 7.09062 19.106 7.09062 18.9788C7.04822 18.7668 7.09062 18.5972 7.09062 18.3851C7.09062 18.2579 7.09062 18.1731 7.09062 18.0459C7.09062 17.6643 7.09062 17.2827 7.09062 16.901C7.09062 16.0954 7.09062 15.3321 7.09062 14.5265C7.09062 14.2721 7.09062 14.0177 7.09062 13.7208C7.09062 13.5512 7.09062 13.3816 7.09062 13.212C7.09062 12.6184 7.09062 12.0247 7.09062 11.4311C7.09062 11.007 7.09062 10.6254 7.09062 10.2014C7.09062 10.1166 7.09062 10.0742 7.17543 10.0318C7.26024 9.98938 7.30264 10.0318 7.38744 10.0318C7.59946 10.0318 7.81147 10.0318 8.02349 10.0318C8.2355 10.0318 8.48992 10.0318 8.70193 10.0318C8.91395 10.0318 9.16836 10.0318 9.38038 10.0318C9.54999 10.0318 9.6772 10.0318 9.84681 10.0318C9.97402 10.0318 10.0164 10.0742 10.0164 10.2014C10.0164 10.4558 10.0164 10.6678 10.0164 10.9222C10.0164 11.2191 10.0164 11.5159 10.0164 11.7703C10.0164 11.8975 10.0164 11.9823 10.0164 12.1095C10.0164 12.4063 10.0164 12.7032 10.0164 13C10.0164 13.1696 10.0164 13.2968 10.0164 13.4664C10.0164 13.9328 10.0164 14.3569 10.0164 14.8233C10.0164 15.5017 10.0164 16.1802 10.0164 16.8586C10.0164 17.1555 10.0164 17.4523 10.0164 17.7067C10.0164 17.9187 10.0164 18.1731 10.0164 18.3851C10.0164 18.7244 10.0164 19.0212 10.0164 19.3604C10.0588 19.4028 10.0588 19.4452 10.0164 19.4876Z" fill="#2AD7DE"/>
<path d="M7.30268 5.83394C7.34509 5.79154 7.42989 5.70673 7.4723 5.66433C7.5571 5.62193 7.64191 5.53712 7.76912 5.49472C8.06594 5.32511 8.40516 5.28271 8.74438 5.32511C8.95639 5.32511 9.12601 5.40991 9.29562 5.49472C9.63484 5.62193 9.88926 5.87635 10.0589 6.17316C10.1861 6.38518 10.2285 6.59719 10.2709 6.80921C10.3133 7.10603 10.2709 7.36044 10.1861 7.65726C10.1013 7.91168 9.93166 8.08129 9.80445 8.2509C9.76205 8.33571 9.67724 8.37811 9.59244 8.42051C9.50763 8.46292 9.42283 8.50532 9.38042 8.54772C9.25321 8.59013 9.12601 8.67493 8.95639 8.67493C8.65957 8.71733 8.36275 8.71733 8.10834 8.63253C7.81152 8.54772 7.59951 8.37811 7.38749 8.1661C7.21788 7.99649 7.09067 7.74207 7.00586 7.48765C6.92106 7.14843 6.92106 6.7668 7.00586 6.42758C7.04827 6.25797 7.17547 6.08836 7.30268 5.91875C7.26028 5.87634 7.26028 5.87635 7.30268 5.83394Z" fill="#2AD7DE"/>
</svg>
